##ID##_Reader_0         [INFO] +++ UTGID:          ##ID##_Reader_0
##ID##_Reader_0         [INFO] +++ DIM_DNS    port:####
##ID##_Reader_0         [INFO] +++ DIM_DNS    node:localhost
##ID##_Reader_0         [INFO] +++ OPTIONS:        GaudiOnlineTests.DF
##ID##_Reader_0         [INFO] +++ TASK_TYPE:      Reader
##ID##_Reader_0         [INFO] +++ CONTROLLER_PARENT: ##ID##_Controller_0
INFO:   Loading library: libDataflowDict
INFO:   Import Online namespace from ROOT
INFO:   +++ Reader directory: ../ctrl_data file prefix: 'df_output_tae_0000' Wait: start: 5 sec pause: 15 sec
INFO:   +++ Setting up output logger component
INFO:   +++ Starting dataflow process
Reader               INFO      Scanned directory ../ctrl_data: 20 files.
Reader               INFO      Opened file ../ctrl_data/df_output_tae_0000012345_0001.tae
Reader               INFO      Opened file ../ctrl_data/df_output_tae_0000012345_0002.tae
Reader               INFO      Opened file ../ctrl_data/df_output_tae_0000012345_0003.tae
Reader               INFO      Opened file ../ctrl_data/df_output_tae_0000012345_0004.tae
Reader               INFO      Opened file ../ctrl_data/df_output_tae_0000012345_0005.tae
Reader               INFO      Opened file ../ctrl_data/df_output_tae_0000012345_0006.tae
Reader               INFO      Opened file ../ctrl_data/df_output_tae_0000012345_0007.tae
Reader               INFO      Opened file ../ctrl_data/df_output_tae_0000012345_0008.tae
Reader               INFO      Opened file ../ctrl_data/df_output_tae_0000012345_0009.tae
Reader               INFO      Opened file ../ctrl_data/df_output_tae_0000012345_0010.tae
Reader               INFO      Opened file ../ctrl_data/df_output_tae_0000012345_0011.tae
Reader               INFO      Opened file ../ctrl_data/df_output_tae_0000012345_0012.tae
Reader               INFO      Opened file ../ctrl_data/df_output_tae_0000012345_0013.tae
Reader               INFO      Opened file ../ctrl_data/df_output_tae_0000012345_0014.tae
Reader               INFO      Opened file ../ctrl_data/df_output_tae_0000012345_0015.tae
Reader               INFO      Opened file ../ctrl_data/df_output_tae_0000012345_0016.tae
Reader               INFO      Opened file ../ctrl_data/df_output_tae_0000012345_0017.tae
Reader               INFO      Opened file ../ctrl_data/df_output_tae_0000012345_0018.tae
Reader               INFO      Opened file ../ctrl_data/df_output_tae_0000012345_0019.tae
Reader               INFO      Opened file ../ctrl_data/df_output_tae_0000012345_0020.tae
Reader               INFO      Rescanning directory list.....
Reader               INFO      Scanning directory list disabled!
Reader               INFO      Scanning directory list disabled!
Reader               INFO      Scanning directory list disabled!
Reader               INFO      Sleeping before going to PAUSE....
Summary              INFO      (pause)    +++++ MBM buffer section sucessfully mapped.
Summary              INFO      (pause)
Summary              INFO      (pause)    ======================== MBM Bufer summary for buffer "Events_##ID##" ========================
Summary              INFO      (pause)
Summary              INFO      (pause)     Buffer "Events_##ID##"  Events: Produced:200 Seen:200 Pending:0 Max:50
Summary              INFO      (pause)                                Space(kB):[Tot:999969 Free:999969] Users:[Tot:2 Max:30]
Summary              INFO      (pause)
Summary              INFO      (pause)     Name                           Partition Type State   Produced %prod     #seen %seen Reqs Buffer
Summary              INFO      (pause)     ##ID##_Reader_0                 feed    P              200   100
Summary              INFO      (pause)     CONS_ONE                            feed    C                              200   100   1  Events_##ID##
Summary              INFO      (pause)
Summary              INFO      (pause)    ======================== MBM Bufer summary for buffer "Output_##ID##" ========================
Summary              INFO      (pause)
Summary              INFO      (pause)     Buffer "Output_##ID##"  Events: Produced:200 Seen:0 Pending:0 Max:50
Summary              INFO      (pause)                                Space(kB):[Tot:99975 Free:99975] Users:[Tot:1 Max:15]
Summary              INFO      (pause)
Summary              INFO      (pause)     Name                           Partition Type State   Produced %prod     #seen %seen Reqs Buffer
Summary              INFO      (pause)     PROD_ONE                            feed    P              200   100                      Output_##ID##
Summary              INFO      (pause)
Summary              INFO      (pause)    +++++ MBM summary finished.
Reader               INFO      Quitting...
Reader               INFO      Executed cancellation of pending I/O requests.
MBM                  INFO      Excluding from buffers. No more buffer access possible.
