JobOptionsSvc        INFO # =======> /group/online/dataflow/cmtuser/OnlineTest_v6r0/Online/GaudiOnlineTests/options/TimeoutAlg.opts
JobOptionsSvc        INFO # (1,1): ApplicationMgr.HistogramPersistency = "NONE"
JobOptionsSvc        INFO # (2,1): ApplicationMgr.EvtSel = "NONE"
JobOptionsSvc        INFO # (3,1): EventDataSvc.RootCLID = 1
JobOptionsSvc        INFO # (4,1): ApplicationMgr.TopAlg = ["LHCb::DelaySleepAlg/Delay", "StoreExplorerAlg/Explorer", "LHCb::TimeoutAlg/Timeout"]
JobOptionsSvc        INFO # (5,1): Delay.DelayTime = 5000
JobOptionsSvc        INFO # (6,1): Delay.ErrorMax = 10
JobOptionsSvc        INFO # (7,1): Timeout.Timeout = 1000
JobOptionsSvc        INFO # (8,1): Timeout.PrintTrace = 0
JobOptionsSvc        INFO # (9,1): Timeout.ExitTimeout = 0
JobOptionsSvc        INFO # (10,1): Explorer.Load = 0
JobOptionsSvc        INFO # (11,1): Explorer.PrintFreq = 1.0
JobOptionsSvc        INFO # (12,1): MessageSvc.OutputLevel = 4
JobOptionsSvc        INFO # (13,1): ExceptionSvc.Catch = "NONE"
JobOptionsSvc        INFO # (14,1): ChronoStatSvc.ChronoPrintOutTable = 0
JobOptionsSvc        INFO # (15,1): CounterSvc.PrintStat = 0
JobOptionsSvc        INFO # (16,1): ApplicationMgr.AppName = ""
JobOptionsSvc        INFO Job options successfully read in from /group/online/dataflow/cmtuser/OnlineTest_v6r0/Online/GaudiOnlineTests/options/TimeoutAlg.opts
EventLoopMgr      WARNING Unable to locate service "EventSelector"
EventLoopMgr      WARNING No events will be processed from external input.
HistogramPersis...WARNING Histograms saving not required.
Delay               FATAL  Exception with tag=DAQ_TIMEOUT is caught
Delay               ERROR DAQ_TIMEOUT	TIMEOUT during event processing after 1000 milliseconds	 StatusCode=FAILURE
Delay             WARNING Continuing from error (cnt= 'ErrorCounter':1, max= 'ErrorMax':10)
Delay               FATAL  Exception with tag=DAQ_TIMEOUT is caught
Delay               ERROR DAQ_TIMEOUT	TIMEOUT during event processing after 1000 milliseconds	 StatusCode=FAILURE
Delay             WARNING Continuing from error (cnt= 'ErrorCounter':2, max= 'ErrorMax':10)
Delay               FATAL  Exception with tag=DAQ_TIMEOUT is caught
Delay               ERROR DAQ_TIMEOUT	TIMEOUT during event processing after 1000 milliseconds	 StatusCode=FAILURE
Delay             WARNING Continuing from error (cnt= 'ErrorCounter':3, max= 'ErrorMax':10)
Delay               FATAL  Exception with tag=DAQ_TIMEOUT is caught
Delay               ERROR DAQ_TIMEOUT	TIMEOUT during event processing after 1000 milliseconds	 StatusCode=FAILURE
Delay             WARNING Continuing from error (cnt= 'ErrorCounter':4, max= 'ErrorMax':10)
Delay               FATAL  Exception with tag=DAQ_TIMEOUT is caught
Delay               ERROR DAQ_TIMEOUT	TIMEOUT during event processing after 1000 milliseconds	 StatusCode=FAILURE
Delay             WARNING Continuing from error (cnt= 'ErrorCounter':5, max= 'ErrorMax':10)
Delay               FATAL  Exception with tag=DAQ_TIMEOUT is caught
Delay               ERROR DAQ_TIMEOUT	TIMEOUT during event processing after 1000 milliseconds	 StatusCode=FAILURE
Delay             WARNING Continuing from error (cnt= 'ErrorCounter':6, max= 'ErrorMax':10)
Delay               FATAL  Exception with tag=DAQ_TIMEOUT is caught
Delay               ERROR DAQ_TIMEOUT	TIMEOUT during event processing after 1000 milliseconds	 StatusCode=FAILURE
Delay             WARNING Continuing from error (cnt= 'ErrorCounter':7, max= 'ErrorMax':10)
Delay               FATAL  Exception with tag=DAQ_TIMEOUT is caught
Delay               ERROR DAQ_TIMEOUT	TIMEOUT during event processing after 1000 milliseconds	 StatusCode=FAILURE
Delay             WARNING Continuing from error (cnt= 'ErrorCounter':8, max= 'ErrorMax':10)
Delay               FATAL  Exception with tag=DAQ_TIMEOUT is caught
Delay               ERROR DAQ_TIMEOUT	TIMEOUT during event processing after 1000 milliseconds	 StatusCode=FAILURE
Delay             WARNING Continuing from error (cnt= 'ErrorCounter':9, max= 'ErrorMax':10)
Delay               FATAL  Exception with tag=DAQ_TIMEOUT is caught
Delay               ERROR DAQ_TIMEOUT	TIMEOUT during event processing after 1000 milliseconds	 StatusCode=FAILURE
EventLoopMgr      WARNING Execution of algorithm Delay failed
EventLoopMgr        ERROR Error processing event loop.
EventLoopMgr        ERROR Terminating event processing loop due to errors
EventLoopMgr        ERROR Terminating event processing loop due to errors
ApplicationMgr      FATAL Application execution failed. Ending the job.
ApplicationMgr      ERROR Application Manager Terminated with error code 3
