+++ DB Server log:
INFO     RTL                   +++ Storage Database Server: starting.....
INFO     RTL                   +++ Storage Database Server: Server URI: http://127.0.0.1:#### Local URI: http://127.0.0.1:####
INFO     RTL                   +++ Storage Database Server: Starting <N6Online7storage2dbE> on http://127.0.0.1:#### with 1 threads.
INFO     RTL                   +++ Storage Database Server: sqlite-db: fdb_##ID##.db
INFO     RTL                   +++ Storage Database Server: sqlite-db: Table FILES created successfully
INFO     RTL                   +++ Storage Database Server: shutdown.....
INFO     RTL                   +++ Storage Database Server: Termination request received. Handling signal SIGTERM.
INFO     RTL                   +++ Storage Database Server: finished...
INFO     RTL                   +++ Storage Database Server: stopped.....
