-------------------------------  Task Inventory ------------------------------
-->List of all tasks:  (41)
     -->Task: CPUcollect
     -->Task: CPUmon
     -->Task: LogDefaultSrv
     -->Task: LogGaudi
     -->Task: LogGaudiSrv
     -->Task: LogGaudiSumSrv
     -->Task: LogGaudiSumSrvaaaa
     -->Task: MBMMON_0
     -->Task: Monitoring_Slice00Srv
     -->Task: Monitoring_Slice01Srv
     -->Task: Monitoring_Slice02Srv
     -->Task: Monitoring_Slice03Srv
     -->Task: Monitoring_Slice04Srv
     -->Task: Monitoring_Slice05Srv
     -->Task: Monitoring_Slice06Srv
     -->Task: Monitoring_Slice07Srv
     -->Task: Monitoring_Slice08Srv
     -->Task: Monitoring_Slice09Srv
     -->Task: Monitoring_Slice0ASrv
     -->Task: Monitoring_Slice0BSrv
     -->Task: Monitoring_Slice0CSrv
     -->Task: Monitoring_Slice0DSrv
     -->Task: Monitoring_Slice0ESrv
     -->Task: Monitoring_Slice0FSrv
     -->Task: PROCcollect
     -->Task: PROCmon
     -->Task: ROcollect
     -->Task: ROpublish
     -->Task: TANServ
     -->Task: coalSrv_u
     -->Task: cpustatSrv_u
     -->Task: fmcLog
     -->Task: fsSrv_u
     -->Task: irqSrv_u
     -->Task: memSrv_u
     -->Task: nifSrv_u
     -->Task: psSrv_u
     -->Task: smartSrv_u
     -->Task: tcpipSrv_u
     -->Task: tmSrv_u
     -->Task: webDID
-->List of all tasks lists:  (13)
     -->TaskList: ControlsPC
       -->Task: pcSrv_u
       -->Task: ROpublish
       -->Task: ROcollect
       -->Task: TaskSupervisor
       -->Task: webDID
     -->TaskList: Dirac
       -->Task: flukamon
       -->Task: diracmon
       -->Task: tmSrv_onlfluka
       -->Task: tmSrv_onldirac
     -->TaskList: FMC
       -->Task: tmSrv_u
       -->Task: fmcLog
       -->Task: pingSrv_u
       -->Task: LogDefaultSrv
     -->TaskList: MonitoringControl
       -->Task: Monitoring_Slice00SumSrv
       -->Task: Monitoring_Slice01SumSrv
       -->Task: Monitoring_Slice02SumSrv
       -->Task: Monitoring_Slice03SumSrv
       -->Task: Monitoring_Slice04SumSrv
       -->Task: Monitoring_Slice05SumSrv
       -->Task: Monitoring_Slice06SumSrv
       -->Task: Monitoring_Slice07SumSrv
       -->Task: Monitoring_Slice08SumSrv
       -->Task: Monitoring_Slice09SumSrv
       -->Task: Monitoring_Slice0ASumSrv
       -->Task: Monitoring_Slice0BSumSrv
       -->Task: Monitoring_Slice0CSumSrv
       -->Task: Monitoring_Slice0DSumSrv
       -->Task: Monitoring_Slice0ESumSrv
       -->Task: Monitoring_Slice0FSumSrv
       -->Task: Monitoring_Slice00Collect
       -->Task: Monitoring_Slice01Collect
       -->Task: Monitoring_Slice02Collect
       -->Task: Monitoring_Slice03Collect
       -->Task: Monitoring_Slice04Collect
       -->Task: Monitoring_Slice05Collect
       -->Task: Monitoring_Slice06Collect
       -->Task: Monitoring_Slice07Collect
       -->Task: Monitoring_Slice08Collect
       -->Task: Monitoring_Slice09Collect
       -->Task: Monitoring_Slice0ACollect
       -->Task: Monitoring_Slice0BCollect
       -->Task: Monitoring_Slice0CCollect
       -->Task: Monitoring_Slice0DCollect
       -->Task: Monitoring_Slice0ECollect
       -->Task: Monitoring_Slice0FCollect
     -->TaskList: MonitoringWorker
     -->TaskList: ReconstructionControl
       -->Task: Reconstruction_Slice00SumSrv
       -->Task: Reconstruction_Slice01SumSrv
       -->Task: Reconstruction_Slice02SumSrv
       -->Task: Reconstruction_Slice03SumSrv
       -->Task: Reconstruction_Slice00Collect
       -->Task: Reconstruction_Slice01Collect
       -->Task: Reconstruction_Slice02Collect
       -->Task: Reconstruction_Slice03Collect
     -->TaskList: ReconstructionWorker
     -->TaskList: StandardHLT
       -->Task: TANServ
       -->Task: ROcollect
       -->Task: LogGaudiSrv
       -->Task: LogLHCb1Srv
       -->Task: LogLHCb2Srv
       -->Task: LogLHCbASrv
     -->TaskList: StandardMonitoring
       -->Task: Monitoring_Slice00Srv
       -->Task: Monitoring_Slice01Srv
       -->Task: Monitoring_Slice02Srv
       -->Task: Monitoring_Slice03Srv
       -->Task: Monitoring_Slice04Srv
       -->Task: Monitoring_Slice05Srv
       -->Task: Monitoring_Slice06Srv
       -->Task: Monitoring_Slice07Srv
       -->Task: Monitoring_Slice08Srv
       -->Task: Monitoring_Slice09Srv
       -->Task: Monitoring_Slice0ASrv
       -->Task: Monitoring_Slice0BSrv
       -->Task: Monitoring_Slice0CSrv
       -->Task: Monitoring_Slice0DSrv
       -->Task: Monitoring_Slice0ESrv
       -->Task: Monitoring_Slice0FSrv
     -->TaskList: StandardReconstruction
       -->Task: Reconstruction_Slice00Srv
       -->Task: Reconstruction_Slice01Srv
       -->Task: Reconstruction_Slice02Srv
       -->Task: Reconstruction_Slice03Srv
     -->TaskList: StandardStorage
       -->Task: Storage_Slice00Srv
       -->Task: Storage_Slice01Srv
       -->Task: Storage_Slice02Srv
       -->Task: Storage_Slice03Srv
       -->Task: Storage_Slice04Srv
       -->Task: Storage_Slice05Srv
       -->Task: Storage_Slice06Srv
       -->Task: Storage_Slice07Srv
       -->Task: Storage_Slice08Srv
       -->Task: Storage_Slice09Srv
       -->Task: Storage_Slice0ASrv
       -->Task: Storage_Slice0BSrv
       -->Task: Storage_Slice0CSrv
       -->Task: Storage_Slice0DSrv
       -->Task: Storage_Slice0ESrv
       -->Task: Storage_Slice0FSrv
     -->TaskList: StorageControl
       -->Task: Storage_Slice00SumSrv
       -->Task: Storage_Slice01SumSrv
       -->Task: Storage_Slice02SumSrv
       -->Task: Storage_Slice03SumSrv
       -->Task: Storage_Slice04SumSrv
       -->Task: Storage_Slice05SumSrv
       -->Task: Storage_Slice06SumSrv
       -->Task: Storage_Slice07SumSrv
       -->Task: Storage_Slice08SumSrv
       -->Task: Storage_Slice09SumSrv
       -->Task: Storage_Slice0ASumSrv
       -->Task: Storage_Slice0BSumSrv
       -->Task: Storage_Slice0CSumSrv
       -->Task: Storage_Slice0DSumSrv
       -->Task: Storage_Slice0ESumSrv
       -->Task: Storage_Slice0FSumSrv
       -->Task: Storage_Slice00Collect
       -->Task: Storage_Slice01Collect
       -->Task: Storage_Slice02Collect
       -->Task: Storage_Slice03Collect
       -->Task: Storage_Slice04Collect
       -->Task: Storage_Slice05Collect
       -->Task: Storage_Slice06Collect
       -->Task: Storage_Slice07Collect
       -->Task: Storage_Slice08Collect
       -->Task: Storage_Slice09Collect
       -->Task: Storage_Slice0ACollect
       -->Task: Storage_Slice0BCollect
       -->Task: Storage_Slice0CCollect
       -->Task: Storage_Slice0DCollect
       -->Task: Storage_Slice0ECollect
       -->Task: Storage_Slice0FCollect
     -->TaskList: StorageWorker
-->List of all connections lists:  (8)
     -->ConnectionList: ControlsPC
       -->Connection: hlt01
       -->Connection: ecs01
       -->Connection: ecs03
       -->Connection: storectl01
     -->ConnectionList: HLTWorker
     -->ConnectionList: Standard
       -->Connection: <DIM_DNS_NODE>
     -->ConnectionList: StorageControl
     -->ConnectionList: StorageReceiver
     -->ConnectionList: StorageWorker
     -->ConnectionList: StorageWriter
     -->ConnectionList: StorageWriters
-->List of node types:
Node Type:CALControl : 19 tasks, 4 connections.
    Task:tmSrv_u
    Task:fmcLog
    Task:pingSrv_u
    Task:LogDefaultSrv
    Task:TANServ
    Task:ROcollect
    Task:LogGaudiSrv
    Task:LogLHCb1Srv
    Task:LogLHCb2Srv
    Task:LogLHCbASrv
    Task:pcSrv_u
    Task:ROpublish
    Task:ROcollect
    Task:TaskSupervisor
    Task:webDID
    Task:LogGaudi
    Task:LogGaudiSumSrv
    Task:LogPVSS
    Task:LogPVSSSrv
    Connection:hlt01
    Connection:ecs01
    Connection:ecs03
    Connection:storectl01
Node Type:CALWorker : 10 tasks, 1 connections.
    Task:tmSrv_u
    Task:fmcLog
    Task:pingSrv_u
    Task:LogDefaultSrv
    Task:TANServ
    Task:ROcollect
    Task:LogGaudiSrv
    Task:LogLHCb1Srv
    Task:LogLHCb2Srv
    Task:LogLHCbASrv
    Connection:<DIM_DNS_NODE>
Node Type:DQControl : 29 tasks, 4 connections.
    Task:tmSrv_u
    Task:fmcLog
    Task:pingSrv_u
    Task:LogDefaultSrv
    Task:TANServ
    Task:ROcollect
    Task:LogGaudiSrv
    Task:LogLHCb1Srv
    Task:LogLHCb2Srv
    Task:LogLHCbASrv
    Task:pcSrv_u
    Task:ROpublish
    Task:ROcollect
    Task:TaskSupervisor
    Task:webDID
    Task:LogDef
    Task:LogSumDefSrv
    Task:LogGaudi
    Task:LogLHCb1
    Task:LogLHCb2
    Task:LogLHCbA
    Task:LogGaudiSumSrv
    Task:LogLHCb1SumSrv
    Task:LogLHCb2SumSrv
    Task:LogLHCbASumSrv
    Task:LogPVSS
    Task:LogPVSSSrv
    Task:TorrentPublish
    Task:TorrentLoader
    Connection:hlt01
    Connection:ecs01
    Connection:ecs03
    Connection:storectl01
Node Type:DQWorker : 11 tasks, 6 connections.
    Task:tmSrv_u
    Task:fmcLog
    Task:pingSrv_u
    Task:LogDefaultSrv
    Task:TANServ
    Task:ROcollect
    Task:LogGaudiSrv
    Task:LogLHCb1Srv
    Task:LogLHCb2Srv
    Task:LogLHCbASrv
    Task:TorrentLoader
    Connection:<DIM_DNS_NODE>
    Connection:mona10
    Connection:mona1001
    Connection:mona1002
    Connection:mona1003
    Connection:mona1004
Node Type:DefaultNode : 4 tasks, 0 connections.
    Task:tmSrv_u
    Task:fmcLog
    Task:pingSrv_u
    Task:LogDefaultSrv
Node Type:ECS04Node : 9 tasks, 4 connections.
    Task:tmSrv_u
    Task:fmcLog
    Task:pingSrv_u
    Task:LogDefaultSrv
    Task:pcSrv_u
    Task:ROcollect
    Task:webDID
    Task:TANServ
    Task:condDBServer
    Connection:ecs01
    Connection:ecs03
    Connection:mona08
    Connection:storectl01
Node Type:HLT01 : 26 tasks, 4 connections.
    Task:tmSrv_u
    Task:fmcLog
    Task:pingSrv_u
    Task:LogDefaultSrv
    Task:TANServ
    Task:ROcollect
    Task:LogGaudiSrv
    Task:LogLHCb1Srv
    Task:LogLHCb2Srv
    Task:LogLHCbASrv
    Task:pcSrv_u
    Task:ROpublish
    Task:ROcollect
    Task:TaskSupervisor
    Task:webDID
    Task:flukamon
    Task:diracmon
    Task:tmSrv_onlfluka
    Task:tmSrv_onldirac
    Task:LogGaudi
    Task:LogGaudiSumSrv
    Task:LogLHCb1SumSrv
    Task:LogLHCb2SumSrv
    Task:LogLHCbASumSrv
    Task:LogPVSS
    Task:LogPVSSSrv
    Connection:hlt01
    Connection:ecs01
    Connection:ecs03
    Connection:storectl01
Node Type:HLT02 : 9 tasks, 1 connections.
    Task:tmSrv_u
    Task:fmcLog
    Task:pingSrv_u
    Task:LogDefaultSrv
    Task:ROcollect
    Task:LogGaudiSrv
    Task:LogLHCb1Srv
    Task:LogLHCb2Srv
    Task:LogLHCbASrv
    Connection:<DIM_DNS_NODE>
Node Type:HLTControl : 34 tasks, 4 connections.
    Task:tmSrv_u
    Task:fmcLog
    Task:pingSrv_u
    Task:LogDefaultSrv
    Task:TANServ
    Task:ROcollect
    Task:LogGaudiSrv
    Task:LogLHCb1Srv
    Task:LogLHCb2Srv
    Task:LogLHCbASrv
    Task:pcSrv_u
    Task:ROpublish
    Task:ROcollect
    Task:TaskSupervisor
    Task:webDID
    Task:flukamon
    Task:diracmon
    Task:tmSrv_onlfluka
    Task:tmSrv_onldirac
    Task:LogDef
    Task:LogSumDefSrv
    Task:LogGaudi
    Task:LogLHCb1
    Task:LogLHCb2
    Task:LogLHCbA
    Task:LogGaudiSumSrv
    Task:LogLHCb1SumSrv
    Task:LogLHCb2SumSrv
    Task:LogLHCbASumSrv
    Task:LogPVSS
    Task:LogPVSSSrv
    Task:TaskDBCache
    Task:TaskDBCheck
    Task:PropertyServer
    Connection:hlt01
    Connection:ecs01
    Connection:ecs03
    Connection:storectl01
Node Type:HLTControlNOPVSS : 26 tasks, 4 connections.
    Task:tmSrv_u
    Task:fmcLog
    Task:pingSrv_u
    Task:LogDefaultSrv
    Task:TANServ
    Task:ROcollect
    Task:LogGaudiSrv
    Task:LogLHCb1Srv
    Task:LogLHCb2Srv
    Task:LogLHCbASrv
    Task:pcSrv_u
    Task:ROpublish
    Task:ROcollect
    Task:TaskSupervisor
    Task:webDID
    Task:flukamon
    Task:diracmon
    Task:tmSrv_onlfluka
    Task:tmSrv_onldirac
    Task:LogGaudi
    Task:LogGaudiSumSrv
    Task:LogLHCb1SumSrv
    Task:LogLHCb2SumSrv
    Task:LogLHCbASumSrv
    Task:LogPVSS
    Task:LogPVSSSrv
    Connection:hlt01
    Connection:ecs01
    Connection:ecs03
    Connection:storectl01
Node Type:HLTWorker : 15 tasks, 1 connections.
    Task:tmSrv_u
    Task:fmcLog
    Task:pingSrv_u
    Task:LogDefaultSrv
    Task:TANServ
    Task:ROcollect
    Task:LogGaudiSrv
    Task:LogLHCb1Srv
    Task:LogLHCb2Srv
    Task:LogLHCbASrv
    Task:flukamon
    Task:diracmon
    Task:tmSrv_onlfluka
    Task:tmSrv_onldirac
    Task:TaskDBCheck
    Connection:<DIM_DNS_NODE>
Node Type:IONode : 15 tasks, 1 connections.
    Task:tmSrv_u
    Task:fmcLog
    Task:pingSrv_u
    Task:LogDefaultSrv
    Task:TANServ
    Task:ROcollect
    Task:LogGaudiSrv
    Task:LogLHCb1Srv
    Task:LogLHCb2Srv
    Task:LogLHCbASrv
    Task:pcSrv_u
    Task:ROpublish
    Task:ROcollect
    Task:TaskSupervisor
    Task:webDID
    Connection:<DIM_DNS_NODE>
Node Type:MonitoringControl : 57 tasks, 4 connections.
    Task:tmSrv_u
    Task:fmcLog
    Task:pingSrv_u
    Task:LogDefaultSrv
    Task:pcSrv_u
    Task:ROpublish
    Task:ROcollect
    Task:TaskSupervisor
    Task:webDID
    Task:Monitoring_Slice00Srv
    Task:Monitoring_Slice01Srv
    Task:Monitoring_Slice02Srv
    Task:Monitoring_Slice03Srv
    Task:Monitoring_Slice04Srv
    Task:Monitoring_Slice05Srv
    Task:Monitoring_Slice06Srv
    Task:Monitoring_Slice07Srv
    Task:Monitoring_Slice08Srv
    Task:Monitoring_Slice09Srv
    Task:Monitoring_Slice0ASrv
    Task:Monitoring_Slice0BSrv
    Task:Monitoring_Slice0CSrv
    Task:Monitoring_Slice0DSrv
    Task:Monitoring_Slice0ESrv
    Task:Monitoring_Slice0FSrv
    Task:Monitoring_Slice00SumSrv
    Task:Monitoring_Slice01SumSrv
    Task:Monitoring_Slice02SumSrv
    Task:Monitoring_Slice03SumSrv
    Task:Monitoring_Slice04SumSrv
    Task:Monitoring_Slice05SumSrv
    Task:Monitoring_Slice06SumSrv
    Task:Monitoring_Slice07SumSrv
    Task:Monitoring_Slice08SumSrv
    Task:Monitoring_Slice09SumSrv
    Task:Monitoring_Slice0ASumSrv
    Task:Monitoring_Slice0BSumSrv
    Task:Monitoring_Slice0CSumSrv
    Task:Monitoring_Slice0DSumSrv
    Task:Monitoring_Slice0ESumSrv
    Task:Monitoring_Slice0FSumSrv
    Task:Monitoring_Slice00Collect
    Task:Monitoring_Slice01Collect
    Task:Monitoring_Slice02Collect
    Task:Monitoring_Slice03Collect
    Task:Monitoring_Slice04Collect
    Task:Monitoring_Slice05Collect
    Task:Monitoring_Slice06Collect
    Task:Monitoring_Slice07Collect
    Task:Monitoring_Slice08Collect
    Task:Monitoring_Slice09Collect
    Task:Monitoring_Slice0ACollect
    Task:Monitoring_Slice0BCollect
    Task:Monitoring_Slice0CCollect
    Task:Monitoring_Slice0DCollect
    Task:Monitoring_Slice0ECollect
    Task:Monitoring_Slice0FCollect
    Connection:hlt01
    Connection:ecs01
    Connection:ecs03
    Connection:storectl01
Node Type:MonitoringControlTest : 57 tasks, 4 connections.
    Task:tmSrv_u
    Task:fmcLog
    Task:pingSrv_u
    Task:LogDefaultSrv
    Task:pcSrv_u
    Task:ROpublish
    Task:ROcollect
    Task:TaskSupervisor
    Task:webDID
    Task:Monitoring_Slice00Srv
    Task:Monitoring_Slice01Srv
    Task:Monitoring_Slice02Srv
    Task:Monitoring_Slice03Srv
    Task:Monitoring_Slice04Srv
    Task:Monitoring_Slice05Srv
    Task:Monitoring_Slice06Srv
    Task:Monitoring_Slice07Srv
    Task:Monitoring_Slice08Srv
    Task:Monitoring_Slice09Srv
    Task:Monitoring_Slice0ASrv
    Task:Monitoring_Slice0BSrv
    Task:Monitoring_Slice0CSrv
    Task:Monitoring_Slice0DSrv
    Task:Monitoring_Slice0ESrv
    Task:Monitoring_Slice0FSrv
    Task:Monitoring_Slice00SumSrv
    Task:Monitoring_Slice01SumSrv
    Task:Monitoring_Slice02SumSrv
    Task:Monitoring_Slice03SumSrv
    Task:Monitoring_Slice04SumSrv
    Task:Monitoring_Slice05SumSrv
    Task:Monitoring_Slice06SumSrv
    Task:Monitoring_Slice07SumSrv
    Task:Monitoring_Slice08SumSrv
    Task:Monitoring_Slice09SumSrv
    Task:Monitoring_Slice0ASumSrv
    Task:Monitoring_Slice0BSumSrv
    Task:Monitoring_Slice0CSumSrv
    Task:Monitoring_Slice0DSumSrv
    Task:Monitoring_Slice0ESumSrv
    Task:Monitoring_Slice0FSumSrv
    Task:Monitoring_Slice00Collect
    Task:Monitoring_Slice01Collect
    Task:Monitoring_Slice02Collect
    Task:Monitoring_Slice03Collect
    Task:Monitoring_Slice04Collect
    Task:Monitoring_Slice05Collect
    Task:Monitoring_Slice06Collect
    Task:Monitoring_Slice07Collect
    Task:Monitoring_Slice08Collect
    Task:Monitoring_Slice09Collect
    Task:Monitoring_Slice0ACollect
    Task:Monitoring_Slice0BCollect
    Task:Monitoring_Slice0CCollect
    Task:Monitoring_Slice0DCollect
    Task:Monitoring_Slice0ECollect
    Task:Monitoring_Slice0FCollect
    Connection:hlt01
    Connection:ecs01
    Connection:ecs03
    Connection:storectl01
Node Type:MonitoringWorker : 20 tasks, 1 connections.
    Task:tmSrv_u
    Task:fmcLog
    Task:pingSrv_u
    Task:LogDefaultSrv
    Task:Monitoring_Slice00Srv
    Task:Monitoring_Slice01Srv
    Task:Monitoring_Slice02Srv
    Task:Monitoring_Slice03Srv
    Task:Monitoring_Slice04Srv
    Task:Monitoring_Slice05Srv
    Task:Monitoring_Slice06Srv
    Task:Monitoring_Slice07Srv
    Task:Monitoring_Slice08Srv
    Task:Monitoring_Slice09Srv
    Task:Monitoring_Slice0ASrv
    Task:Monitoring_Slice0BSrv
    Task:Monitoring_Slice0CSrv
    Task:Monitoring_Slice0DSrv
    Task:Monitoring_Slice0ESrv
    Task:Monitoring_Slice0FSrv
    Connection:<DIM_DNS_NODE>
Node Type:PublisherNode : 47 tasks, 1 connections.
    Task:tmSrv_u
    Task:fmcLog
    Task:pingSrv_u
    Task:LogDefaultSrv
    Task:pcSrv_u
    Task:ROpublish
    Task:ROcollect
    Task:TaskSupervisor
    Task:webDID
    Task:TANServ
    Task:ROBridge_0
    Task:ROLogger_0
    Task:BootMonSrv_0
    Task:FarmStatSrv_0
    Task:FarmStatSrv_1
    Task:StatusMQTT_0
    Task:StatusStomp_0
    Task:OrbitedSrv_0
    Task:ActiveMQ_0
    Task:AMQWatch_0
    Task:ElogPublish
    Task:ElogExtract
    Task:PropertyServer
    Task:PropertyInfo
    Task:DidServer
    Task:webDID_ecs01
    Task:webDID_ecs05
    Task:webDID_ececs01
    Task:webDID_echvc01
    Task:webDID_itecs01
    Task:webDID_ttecs01
    Task:webDID_otecs01
    Task:webDID_riecs01
    Task:webDID_muecs01
    Task:webDID_muhva01
    Task:webDID_muhvc01
    Task:webDID_othv01
    Task:webDID_otdaqa01
    Task:webDID_otdaqc01
    Task:webDID_tmudaq01
    Task:webDID_infdai01
    Task:webDID_infmag01
    Task:Hlt_DeferSrv
    Task:Hlt_Hlt1Srv
    Task:HLTFileEqualizer
    Task:Hlt_Hlt1DQSrv
    Task:Hlt1Srv2fmc01
    Connection:<DIM_DNS_NODE>
Node Type:ReconstructionControl : 21 tasks, 4 connections.
    Task:tmSrv_u
    Task:fmcLog
    Task:pingSrv_u
    Task:LogDefaultSrv
    Task:pcSrv_u
    Task:ROpublish
    Task:ROcollect
    Task:TaskSupervisor
    Task:webDID
    Task:Reconstruction_Slice00Srv
    Task:Reconstruction_Slice01Srv
    Task:Reconstruction_Slice02Srv
    Task:Reconstruction_Slice03Srv
    Task:Reconstruction_Slice00SumSrv
    Task:Reconstruction_Slice01SumSrv
    Task:Reconstruction_Slice02SumSrv
    Task:Reconstruction_Slice03SumSrv
    Task:Reconstruction_Slice00Collect
    Task:Reconstruction_Slice01Collect
    Task:Reconstruction_Slice02Collect
    Task:Reconstruction_Slice03Collect
    Connection:hlt01
    Connection:ecs01
    Connection:ecs03
    Connection:storectl01
Node Type:ReconstructionWorker : 8 tasks, 1 connections.
    Task:tmSrv_u
    Task:fmcLog
    Task:pingSrv_u
    Task:LogDefaultSrv
    Task:Reconstruction_Slice00Srv
    Task:Reconstruction_Slice01Srv
    Task:Reconstruction_Slice02Srv
    Task:Reconstruction_Slice03Srv
    Connection:<DIM_DNS_NODE>
Node Type:StorageControl : 57 tasks, 4 connections.
    Task:tmSrv_u
    Task:fmcLog
    Task:pingSrv_u
    Task:LogDefaultSrv
    Task:pcSrv_u
    Task:ROpublish
    Task:ROcollect
    Task:TaskSupervisor
    Task:webDID
    Task:Storage_Slice00Srv
    Task:Storage_Slice01Srv
    Task:Storage_Slice02Srv
    Task:Storage_Slice03Srv
    Task:Storage_Slice04Srv
    Task:Storage_Slice05Srv
    Task:Storage_Slice06Srv
    Task:Storage_Slice07Srv
    Task:Storage_Slice08Srv
    Task:Storage_Slice09Srv
    Task:Storage_Slice0ASrv
    Task:Storage_Slice0BSrv
    Task:Storage_Slice0CSrv
    Task:Storage_Slice0DSrv
    Task:Storage_Slice0ESrv
    Task:Storage_Slice0FSrv
    Task:Storage_Slice00SumSrv
    Task:Storage_Slice01SumSrv
    Task:Storage_Slice02SumSrv
    Task:Storage_Slice03SumSrv
    Task:Storage_Slice04SumSrv
    Task:Storage_Slice05SumSrv
    Task:Storage_Slice06SumSrv
    Task:Storage_Slice07SumSrv
    Task:Storage_Slice08SumSrv
    Task:Storage_Slice09SumSrv
    Task:Storage_Slice0ASumSrv
    Task:Storage_Slice0BSumSrv
    Task:Storage_Slice0CSumSrv
    Task:Storage_Slice0DSumSrv
    Task:Storage_Slice0ESumSrv
    Task:Storage_Slice0FSumSrv
    Task:Storage_Slice00Collect
    Task:Storage_Slice01Collect
    Task:Storage_Slice02Collect
    Task:Storage_Slice03Collect
    Task:Storage_Slice04Collect
    Task:Storage_Slice05Collect
    Task:Storage_Slice06Collect
    Task:Storage_Slice07Collect
    Task:Storage_Slice08Collect
    Task:Storage_Slice09Collect
    Task:Storage_Slice0ACollect
    Task:Storage_Slice0BCollect
    Task:Storage_Slice0CCollect
    Task:Storage_Slice0DCollect
    Task:Storage_Slice0ECollect
    Task:Storage_Slice0FCollect
    Connection:hlt01
    Connection:ecs01
    Connection:ecs03
    Connection:storectl01
Node Type:StorageWorker : 20 tasks, 1 connections.
    Task:tmSrv_u
    Task:fmcLog
    Task:pingSrv_u
    Task:LogDefaultSrv
    Task:Storage_Slice00Srv
    Task:Storage_Slice01Srv
    Task:Storage_Slice02Srv
    Task:Storage_Slice03Srv
    Task:Storage_Slice04Srv
    Task:Storage_Slice05Srv
    Task:Storage_Slice06Srv
    Task:Storage_Slice07Srv
    Task:Storage_Slice08Srv
    Task:Storage_Slice09Srv
    Task:Storage_Slice0ASrv
    Task:Storage_Slice0BSrv
    Task:Storage_Slice0CSrv
    Task:Storage_Slice0DSrv
    Task:Storage_Slice0ESrv
    Task:Storage_Slice0FSrv
    Connection:<DIM_DNS_NODE>
-->List of node collections:

