####-##-## TIME-### {"name":"Counters/Sigma_ushort_atomic","type":4276945043,"value":{"data":{"mean":2.0,"nEntries":10000,"sum":20000,"sum2":40000},"type":"GAUDISIGMAACCsu"}},
####-##-## TIME-### {"name":"Counters/Sigma_ulong_non_atomic","type":4276945046,"value":{"data":{"mean":5.0,"nEntries":10000,"sum":50000,"sum2":250000},"type":"GAUDISIGMAACClu"}},
####-##-## TIME-### {"name":"Counters/Sigma_ulong_atomic","type":4276945046,"value":{"data":{"mean":5.0,"nEntries":10000,"sum":50000,"sum2":250000},"type":"GAUDISIGMAACClu"}},
####-##-## TIME-### {"name":"Counters/Sigma_uint_non_atomic","type":4276945045,"value":{"data":{"mean":3.0,"nEntries":10000,"sum":30000,"sum2":90000},"type":"GAUDISIGMAACCiu"}},
####-##-## TIME-### {"name":"Counters/Sigma_uint_atomic","type":4276945045,"value":{"data":{"mean":3.0,"nEntries":10000,"sum":30000,"sum2":90000},"type":"GAUDISIGMAACCiu"}},
####-##-## TIME-### {"name":"Counters/Sigma_uchar_non_atomic","type":4276945041,"value":{"data":{"mean":0.0016,"nEntries":10000,"sum":16,"sum2":16},"type":"GAUDISIGMAACCcu"}},
####-##-## TIME-### {"name":"Counters/Sigma_uchar_atomic","type":4276945041,"value":{"data":{"mean":0.0016,"nEntries":10000,"sum":16,"sum2":16},"type":"GAUDISIGMAACCcu"}},
####-##-## TIME-### {"name":"Counters/Sigma_short_non_atomic","type":4276945042,"value":{"data":{"mean":2.0,"nEntries":10000,"sum":20000,"sum2":-25536},"type":"GAUDISIGMAACCs"}},
####-##-## TIME-### {"name":"Counters/Sigma_short_atomic","type":4276945042,"value":{"data":{"mean":2.0,"nEntries":10000,"sum":20000,"sum2":-25536},"type":"GAUDISIGMAACCs"}},
####-##-## TIME-### {"name":"Counters/Sigma_long_non_atomic","type":4276944949,"value":{"data":{"mean":5.0,"nEntries":10000,"sum":50000,"sum2":250000},"type":"GAUDISIGMAACCl"}},
####-##-## TIME-### {"name":"Counters/Sigma_long_atomic","type":4276944949,"value":{"data":{"mean":5.0,"nEntries":10000,"sum":50000,"sum2":250000},"type":"GAUDISIGMAACCl"}},
####-##-## TIME-### {"name":"Counters/Sigma_int_non_atomic","type":4276945044,"value":{"data":{"mean":3.0,"nEntries":10000,"sum":30000,"sum2":90000},"type":"GAUDISIGMAACCi"}},
####-##-## TIME-### {"name":"Counters/Sigma_int_atomic","type":4276945044,"value":{"data":{"mean":3.0,"nEntries":10000,"sum":30000,"sum2":90000},"type":"GAUDISIGMAACCi"}},
####-##-## TIME-### {"name":"Counters/Sigma_float_non_atomic","type":4276945047,"value":{"data":{"mean":10.0,"nEntries":10000,"sum":100000.0,"sum2":1000000.0},"type":"GAUDISIGMAACCf"}},
####-##-## TIME-### {"name":"Counters/Sigma_float_atomic","type":4276945047,"value":{"data":{"mean":10.0,"nEntries":10000,"sum":100000.0,"sum2":1000000.0},"type":"GAUDISIGMAACCf"}},
####-##-## TIME-### {"name":"Counters/Sigma_double_non_atomic","type":4276944950,"value":{"data":{"mean":20.0,"nEntries":10000,"sum":200000.0,"sum2":4000000.0},"type":"GAUDISIGMAACCd"}},
####-##-## TIME-### {"name":"Counters/Sigma_double_atomic","type":4276944950,"value":{"data":{"mean":20.0,"nEntries":10000,"sum":200000.0,"sum2":4000000.0},"type":"GAUDISIGMAACCd"}},
####-##-## TIME-### {"name":"Counters/Sigma_char_non_atomic","type":4276945040,"value":{"data":{"mean":0.0016,"nEntries":10000,"sum":16,"sum2":16},"type":"GAUDISIGMAACCc"}},
####-##-## TIME-### taskCountersJson     INFO      (pause) +++ Start thread: libGauchoBase.so taskCountersJson -dns=localhost -task=##ID##_GauchoCounterProcess_0 -json -match=Counters/Sigma_(.*)
####-##-## TIME-### taskCountersJson     INFO      (finalize) +++ Stop  thread: libGauchoBase.so taskCountersJson -dns=localhost -task=##ID##_GauchoCounterProcess_0 -json -match=Counters/Sigma_(.*)
####-##-## TIME-### taskCountersJson     DEBUG     Successfully set properties to component.
####-##-## TIME-### taskCountersJson     DEBUG     Got incident: Delay ot type:DAQ_PAUSE
####-##-## TIME-### extract_gaucho_info: taskCountersJson.exe -dns=localhost -task=##ID##_GauchoCounterProcess_0 -json -match=Counters/Sigma_(.*) > taskCountersJson.log
####-##-## TIME-### ]
####-##-## TIME-### [{"name":"Counters/Sigma_char_atomic","type":4276945040,"value":{"data":{"mean":0.0016,"nEntries":10000,"sum":16,"sum2":16},"type":"GAUDISIGMAACCc"}},
####-##-## TIME-### INFO:   Loading library: libDataflowDict
####-##-## TIME-### INFO:   Import Online namespace from ROOT
####-##-## TIME-### INFO:   +++ Starting dataflow process
####-##-## TIME-### INFO:   +++ Setting up output logger component
####-##-## TIME-### Delay                INFO      +++ Timeout expired: Invoke auto transition to PAUSED.
####-##-## TIME-### Delay                INFO      +++ Got incident DAQ_RUNNING: trigger auto transition to PAUSED after n seconds
####-##-## TIME-### ##ID##_ExtractCounters_0    [INFO] +++ UTGID:          ##ID##_ExtractCounters_0
####-##-## TIME-### ##ID##_ExtractCounters_0    [INFO] +++ TASK_TYPE:      ExtractCounters
####-##-## TIME-### ##ID##_ExtractCounters_0    [INFO] +++ OPTIONS:        GaudiOnlineTests.DF
####-##-## TIME-### ##ID##_ExtractCounters_0    [INFO] +++ DIM_DNS    port:####
####-##-## TIME-### ##ID##_ExtractCounters_0    [INFO] +++ DIM_DNS    node:localhost
####-##-## TIME-### #####-#TIME# [INFO]                   Working directory: /group/online/dataflow/cmtuser/ONLINE/ONLINE_v7r21/build.x86_64_v2-el9-gcc12-do0/Online/GaudiOnlineTests/qmtest_tmp/gaucho_counters_extract_sigma_json
####-##-## TIME-### #####-#TIME# [INFO]                   COUNTER_PRODUCER=GauchoCounterProcess_0
####-##-## TIME-### #####-#TIME# [INFO]                   COUNTER_MATCH=Counters/Sigma_(.*)
####-##-## TIME-### #####-#TIME# [INFO]                   COUNTER_FORMAT=json
