####-##-## TIME-### {"name":"Counters/Binary_ushort_atomic","type":4276944928,"value":{"data":{"nFalseEntries":0,"nTrueEntries":10000},"type":"GAUDIBINACCl"}},
####-##-## TIME-### {"name":"Counters/Binary_ulong_non_atomic","type":4276944928,"value":{"data":{"nFalseEntries":0,"nTrueEntries":10000},"type":"GAUDIBINACCl"}},
####-##-## TIME-### {"name":"Counters/Binary_ulong_atomic","type":4276944928,"value":{"data":{"nFalseEntries":0,"nTrueEntries":10000},"type":"GAUDIBINACCl"}},
####-##-## TIME-### {"name":"Counters/Binary_uint_non_atomic","type":4276944928,"value":{"data":{"nFalseEntries":0,"nTrueEntries":10000},"type":"GAUDIBINACCl"}},
####-##-## TIME-### {"name":"Counters/Binary_uint_atomic","type":4276944928,"value":{"data":{"nFalseEntries":0,"nTrueEntries":10000},"type":"GAUDIBINACCl"}},
####-##-## TIME-### {"name":"Counters/Binary_uchar_non_atomic","type":4276944928,"value":{"data":{"nFalseEntries":0,"nTrueEntries":10000},"type":"GAUDIBINACCl"}},
####-##-## TIME-### {"name":"Counters/Binary_uchar_atomic","type":4276944928,"value":{"data":{"nFalseEntries":0,"nTrueEntries":10000},"type":"GAUDIBINACCl"}},
####-##-## TIME-### {"name":"Counters/Binary_short_non_atomic","type":4276944928,"value":{"data":{"nFalseEntries":0,"nTrueEntries":10000},"type":"GAUDIBINACCl"}},
####-##-## TIME-### {"name":"Counters/Binary_short_atomic","type":4276944928,"value":{"data":{"nFalseEntries":0,"nTrueEntries":10000},"type":"GAUDIBINACCl"}},
####-##-## TIME-### {"name":"Counters/Binary_long_non_atomic","type":4276944928,"value":{"data":{"nFalseEntries":0,"nTrueEntries":10000},"type":"GAUDIBINACCl"}},
####-##-## TIME-### {"name":"Counters/Binary_long_atomic","type":4276944928,"value":{"data":{"nFalseEntries":0,"nTrueEntries":10000},"type":"GAUDIBINACCl"}},
####-##-## TIME-### {"name":"Counters/Binary_int_non_atomic","type":4276944928,"value":{"data":{"nFalseEntries":0,"nTrueEntries":10000},"type":"GAUDIBINACCl"}},
####-##-## TIME-### {"name":"Counters/Binary_int_atomic","type":4276944928,"value":{"data":{"nFalseEntries":0,"nTrueEntries":10000},"type":"GAUDIBINACCl"}},
####-##-## TIME-### {"name":"Counters/Binary_float_non_atomic","type":4276944944,"value":{"data":{"nFalseEntries":4.9407e-320,"nTrueEntries":0.0},"type":"GAUDIBINACCd"}},
####-##-## TIME-### {"name":"Counters/Binary_float_atomic","type":4276944944,"value":{"data":{"nFalseEntries":0.0,"nTrueEntries":4.9407e-320},"type":"GAUDIBINACCd"}},
####-##-## TIME-### {"name":"Counters/Binary_double_non_atomic","type":4276944944,"value":{"data":{"nFalseEntries":4.9407e-320,"nTrueEntries":0.0},"type":"GAUDIBINACCd"}},
####-##-## TIME-### {"name":"Counters/Binary_double_atomic","type":4276944944,"value":{"data":{"nFalseEntries":0.0,"nTrueEntries":4.9407e-320},"type":"GAUDIBINACCd"}},
####-##-## TIME-### {"name":"Counters/Binary_char_non_atomic","type":4276944928,"value":{"data":{"nFalseEntries":0,"nTrueEntries":10000},"type":"GAUDIBINACCl"}},
####-##-## TIME-### taskCountersJson     INFO      (pause) +++ Start thread: libGauchoBase.so taskCountersJson -dns=localhost -task=##ID##_GauchoCounterProcess_0 -json -match=Counters/Binary_(.*)
####-##-## TIME-### taskCountersJson     INFO      (finalize) +++ Stop  thread: libGauchoBase.so taskCountersJson -dns=localhost -task=##ID##_GauchoCounterProcess_0 -json -match=Counters/Binary_(.*)
####-##-## TIME-### taskCountersJson     DEBUG     Successfully set properties to component.
####-##-## TIME-### taskCountersJson     DEBUG     Got incident: Delay ot type:DAQ_PAUSE
####-##-## TIME-### extract_gaucho_info: taskCountersJson.exe -dns=localhost -task=##ID##_GauchoCounterProcess_0 -json -match=Counters/Binary_(.*) > taskCountersJson.log
####-##-## TIME-### ]
####-##-## TIME-### [{"name":"Counters/Binary_char_atomic","type":4276944928,"value":{"data":{"nFalseEntries":0,"nTrueEntries":10000},"type":"GAUDIBINACCl"}},
####-##-## TIME-### INFO:   Loading library: libDataflowDict
####-##-## TIME-### INFO:   Import Online namespace from ROOT
####-##-## TIME-### INFO:   +++ Starting dataflow process
####-##-## TIME-### INFO:   +++ Setting up output logger component
####-##-## TIME-### Delay                INFO      +++ Timeout expired: Invoke auto transition to PAUSED.
####-##-## TIME-### Delay                INFO      +++ Got incident DAQ_RUNNING: trigger auto transition to PAUSED after n seconds
####-##-## TIME-### ##ID##_ExtractCounters_0    [INFO] +++ UTGID:          ##ID##_ExtractCounters_0
####-##-## TIME-### ##ID##_ExtractCounters_0    [INFO] +++ TASK_TYPE:      ExtractCounters
####-##-## TIME-### ##ID##_ExtractCounters_0    [INFO] +++ OPTIONS:        GaudiOnlineTests.DF
####-##-## TIME-### ##ID##_ExtractCounters_0    [INFO] +++ DIM_DNS    port:####
####-##-## TIME-### ##ID##_ExtractCounters_0    [INFO] +++ DIM_DNS    node:localhost
####-##-## TIME-### #####-#TIME# [INFO]                   Working directory: /group/online/dataflow/cmtuser/ONLINE/ONLINE_v7r21/build.x86_64_v2-el9-gcc12-do0/Online/GaudiOnlineTests/qmtest_tmp/gaucho_counters_extract_binary_json
####-##-## TIME-### #####-#TIME# [INFO]                   COUNTER_PRODUCER=GauchoCounterProcess_0
####-##-## TIME-### #####-#TIME# [INFO]                   COUNTER_MATCH=Counters/Binary_(.*)
####-##-## TIME-### #####-#TIME# [INFO]                   COUNTER_FORMAT=json
