####-##-## TIME-### taskHistosJson       INFO      (pause) +++ Start thread: libGauchoBase.so taskHistosJson -dns=localhost -task=##ID##_GauchoHistoProcess_0 -one -match=Histos/Gauss_NA.D_(.*)
####-##-## TIME-### taskHistosJson       INFO      (finalize) +++ Stop  thread: libGauchoBase.so taskHistosJson -dns=localhost -task=##ID##_GauchoHistoProcess_0 -one -match=Histos/Gauss_NA.D_(.*)
####-##-## TIME-### taskHistosJson       DEBUG     Successfully set properties to component.
####-##-## TIME-### taskHistosJson       DEBUG     Got incident: Delay ot type:DAQ_PAUSE
####-##-## TIME-### extract_gaucho_info: taskHistosJson.exe -dns=localhost -task=##ID##_GauchoHistoProcess_0 -one -match=Histos/Gauss_NA.D_(.*) > taskHistosJson.log
####-##-## TIME-### Trying to retrieve the histograms. Output directory:
####-##-## TIME-### Retrieved 1 Histogram(s).
####-##-## TIME-### Retrieved 1 Histogram(s).
####-##-## TIME-### Retrieved 1 Histogram(s).
####-##-## TIME-### Retrieved 1 Histogram(s).
####-##-## TIME-### Retrieved 1 Histogram(s).
####-##-## TIME-### Retrieved 1 Histogram(s).
####-##-## TIME-### Retrieved 1 Histogram(s).
####-##-## TIME-### Retrieved 1 Histogram(s).
####-##-## TIME-### Retrieved 1 Histogram(s).
####-##-## TIME-### Retrieved 1 Histogram(s).
####-##-## TIME-### Retrieved 1 Histogram(s).
####-##-## TIME-### Retrieved 1 Histogram(s).
####-##-## TIME-### Retrieved 1 Histogram(s).
####-##-## TIME-### Retrieved 1 Histogram(s).
####-##-## TIME-### Retrieved 1 Histogram(s).
####-##-## TIME-### Retrieved 1 Histogram(s).
####-##-## TIME-### Retrieved 1 Histogram(s).
####-##-## TIME-### Retrieved 1 Histogram(s).
####-##-## TIME-### Number of matching Histograms Histos/Gauss_NA.D_(.*) for Task ##ID##_GauchoHistoProcess_0: 18
####-##-## TIME-### INFO:   Loading library: libDataflowDict
####-##-## TIME-### INFO:   Import Online namespace from ROOT
####-##-## TIME-### INFO:   +++ Starting dataflow process
####-##-## TIME-### INFO:   +++ Setting up output logger component
####-##-## TIME-### Histogram [0]: Histos/Gauss_NA3D_ulong
####-##-## TIME-### Histogram [0]: Histos/Gauss_NA3D_uint
####-##-## TIME-### Histogram [0]: Histos/Gauss_NA3D_long
####-##-## TIME-### Histogram [0]: Histos/Gauss_NA3D_int
####-##-## TIME-### Histogram [0]: Histos/Gauss_NA3D_float
####-##-## TIME-### Histogram [0]: Histos/Gauss_NA3D_double
####-##-## TIME-### Histogram [0]: Histos/Gauss_NA2D_ulong
####-##-## TIME-### Histogram [0]: Histos/Gauss_NA2D_uint
####-##-## TIME-### Histogram [0]: Histos/Gauss_NA2D_long
####-##-## TIME-### Histogram [0]: Histos/Gauss_NA2D_int
####-##-## TIME-### Histogram [0]: Histos/Gauss_NA2D_float
####-##-## TIME-### Histogram [0]: Histos/Gauss_NA2D_double
####-##-## TIME-### Histogram [0]: Histos/Gauss_NA1D_ulong
####-##-## TIME-### Histogram [0]: Histos/Gauss_NA1D_uint
####-##-## TIME-### Histogram [0]: Histos/Gauss_NA1D_long
####-##-## TIME-### Histogram [0]: Histos/Gauss_NA1D_int
####-##-## TIME-### Histogram [0]: Histos/Gauss_NA1D_float
####-##-## TIME-### Histogram [0]: Histos/Gauss_NA1D_double
####-##-## TIME-### Delay                INFO      +++ Timeout expired: Invoke auto transition to PAUSED.
####-##-## TIME-### Delay                INFO      +++ Got incident DAQ_RUNNING: trigger auto transition to PAUSED after n seconds
####-##-## TIME-### +++ Task: GauchoHistoProcess_0 dns: localhost match: Histos/Gauss_NA.D_(.*) format: None option: None [<class 'NoneType'>]
####-##-## TIME-### ##ID##_ExtractHistograms_0    [INFO] +++ UTGID:          ##ID##_ExtractHistograms_0
####-##-## TIME-### ##ID##_ExtractHistograms_0    [INFO] +++ TASK_TYPE:      ExtractHistograms
####-##-## TIME-### ##ID##_ExtractHistograms_0    [INFO] +++ OPTIONS:        GaudiOnlineTests.DF
####-##-## TIME-### ##ID##_ExtractHistograms_0    [INFO] +++ DIM_DNS    port:####
####-##-## TIME-### ##ID##_ExtractHistograms_0    [INFO] +++ DIM_DNS    node:localhost
####-##-## TIME-### #####-#TIME# [INFO]                   HISTOGRAM_PRODUCER=GauchoHistoProcess_0
####-##-## TIME-### #####-#TIME# [INFO]                   HISTOGRAM_MATCH=Histos/Gauss_NA.D_(.*)
####-##-## TIME-### #####-#TIME# [INFO]                   EXTRACTOR_PAUSE=30
