+++ tid: 0x00004346: Thread starting.
+++ tid: 0x00004345: Send signal 0 to (ALIVE) thread.
+++ Error[3]: kill No such process
+++ tid: 0x00004345: Kill status: -1 errno:3
+++ tid: 0x00004345: Send signal 0 to (EXITED) thread.
+++ Error[3]: kill No such process
+++ tid: 0x00004345: Kill status: -1 errno:3
CXX using stack-unwind +++++ CANCEL+++CANCEL+++ Foo was cancelled
+++ Thread joined.
+++ tid: 0x00004345: Send signal 0 to (DEAD) thread.
+++ Error[3]: kill No such process
+++ tid: 0x00004345: Kill status: -1 errno:3 No such process
+++ Process exiting.
