value Type: 2 -> array           [[true,48,-1,1,-2,2,-3,3,-4,4,5.0,6.0,"7",{"member_array":[true,48,-1,1,-2,2,-3,3,-4,4,5.0,6.0,"7",{"member_array":[true,48,-1,1,-2,2,-3,3,-4,4,5.0,6.0,"7"],"member_bool":true,"member_char":48,"member_double":6.0,"member_float":5.0,"member_int":-3,"member_long":-4,"member_short":-2,"member_signed_char":-1,"member_string":"7","member_unsigned_char":1,"member_unsigned_int":3,"member_unsigned_long":4,"member_unsigned_short":2}],"member_bool":true,"member_char":48,"member_double":6.0,"member_float":5.0,"member_int":-3,"member_long":-4,"member_short":-2,"member_signed_char":-1,"member_string":"7","member_unsigned_char":1,"member_unsigned_int":3,"member_unsigned_long":4,"member_unsigned_short":2},[true,48,-1,1,-2,2,-3,3,-4,4,5.0,6.0,"7",{"member_array":[true,48,-1,1,-2,2,-3,3,-4,4,5.0,6.0,"7",{"member_array":[true,48,-1,1,-2,2,-3,3,-4,4,5.0,6.0,"7"],"member_bool":true,"member_char":48,"member_double":6.0,"member_float":5.0,"member_int":-3,"member_long":-4,"member_short":-2,"member_signed_char":-1,"member_string":"7","member_unsigned_char":1,"member_unsigned_int":3,"member_unsigned_long":4,"member_unsigned_short":2}],"member_bool":true,"member_char":48,"member_double":6.0,"member_float":5.0,"member_int":-3,"member_long":-4,"member_short":-2,"member_signed_char":-1,"member_string":"7","member_unsigned_char":1,"member_unsigned_int":3,"member_unsigned_long":4,"member_unsigned_short":2}]],[true,48,-1,1,-2,2,-3,3,-4,4,5.0,6.0,"7",{"member_array":[true,48,-1,1,-2,2,-3,3,-4,4,5.0,6.0,"7",{"member_array":[true,48,-1,1,-2,2,-3,3,-4,4,5.0,6.0,"7"],"member_bool":true,"member_char":48,"member_double":6.0,"member_float":5.0,"member_int":-3,"member_long":-4,"member_short":-2,"member_signed_char":-1,"member_string":"7","member_unsigned_char":1,"member_unsigned_int":3,"member_unsigned_long":4,"member_unsigned_short":2}],"member_bool":true,"member_char":48,"member_double":6.0,"member_float":5.0,"member_int":-3,"member_long":-4,"member_short":-2,"member_signed_char":-1,"member_string":"7","member_unsigned_char":1,"member_unsigned_int":3,"member_unsigned_long":4,"member_unsigned_short":2}],[true,48,-1,1,-2,2,-3,3,-4,4,5.0,6.0,"7",{"member_array":[true,48,-1,1,-2,2,-3,3,-4,4,5.0,6.0,"7",{"member_array":[true,48,-1,1,-2,2,-3,3,-4,4,5.0,6.0,"7"],"member_bool":true,"member_char":48,"member_double":6.0,"member_float":5.0,"member_int":-3,"member_long":-4,"member_short":-2,"member_signed_char":-1,"member_string":"7","member_unsigned_char":1,"member_unsigned_int":3,"member_unsigned_long":4,"member_unsigned_short":2}],"member_bool":true,"member_char":48,"member_double":6.0,"member_float":5.0,"member_int":-3,"member_long":-4,"member_short":-2,"member_signed_char":-1,"member_string":"7","member_unsigned_char":1,"member_unsigned_int":3,"member_unsigned_long":4,"member_unsigned_short":2}]]
value(array)[0] Type: 2 -> array           [true,48,-1,1,-2,2,-3,3,-4,4,5.0,6.0,"7",{"member_array":[true,48,-1,1,-2,2,-3,3,-4,4,5.0,6.0,"7",{"member_array":[true,48,-1,1,-2,2,-3,3,-4,4,5.0,6.0,"7"],"member_bool":true,"member_char":48,"member_double":6.0,"member_float":5.0,"member_int":-3,"member_long":-4,"member_short":-2,"member_signed_char":-1,"member_string":"7","member_unsigned_char":1,"member_unsigned_int":3,"member_unsigned_long":4,"member_unsigned_short":2}],"member_bool":true,"member_char":48,"member_double":6.0,"member_float":5.0,"member_int":-3,"member_long":-4,"member_short":-2,"member_signed_char":-1,"member_string":"7","member_unsigned_char":1,"member_unsigned_int":3,"member_unsigned_long":4,"member_unsigned_short":2},[true,48,-1,1,-2,2,-3,3,-4,4,5.0,6.0,"7",{"member_array":[true,48,-1,1,-2,2,-3,3,-4,4,5.0,6.0,"7",{"member_array":[true,48,-1,1,-2,2,-3,3,-4,4,5.0,6.0,"7"],"member_bool":true,"member_char":48,"member_double":6.0,"member_float":5.0,"member_int":-3,"member_long":-4,"member_short":-2,"member_signed_char":-1,"member_string":"7","member_unsigned_char":1,"member_unsigned_int":3,"member_unsigned_long":4,"member_unsigned_short":2}],"member_bool":true,"member_char":48,"member_double":6.0,"member_float":5.0,"member_int":-3,"member_long":-4,"member_short":-2,"member_signed_char":-1,"member_string":"7","member_unsigned_char":1,"member_unsigned_int":3,"member_unsigned_long":4,"member_unsigned_short":2}]]
value(array)[0](array)[0] Type: 4 -> boolean         true
value(array)[0](array)[0] Type: 5 -> number_integer  48
value(array)[0](array)[0] Type: 5 -> number_integer  -1
value(array)[0](array)[0] Type: 6 -> number_unsigned 1
value(array)[0](array)[0] Type: 5 -> number_integer  -2
value(array)[0](array)[0] Type: 6 -> number_unsigned 2
value(array)[0](array)[0] Type: 5 -> number_integer  -3
value(array)[0](array)[0] Type: 6 -> number_unsigned 3
value(array)[0](array)[0] Type: 5 -> number_integer  -4
value(array)[0](array)[0] Type: 6 -> number_unsigned 4
value(array)[0](array)[0] Type: 7 -> number_float    5.0
value(array)[0](array)[0] Type: 7 -> number_float    6.0
value(array)[0](array)[0] Type: 3 -> string          "7"
value(array)[0](array)[0] Type: 1 -> object          {"member_array":[true,48,-1,1,-2,2,-3,3,-4,4,5.0,6.0,"7",{"member_array":[true,48,-1,1,-2,2,-3,3,-4,4,5.0,6.0,"7"],"member_bool":true,"member_char":48,"member_double":6.0,"member_float":5.0,"member_int":-3,"member_long":-4,"member_short":-2,"member_signed_char":-1,"member_string":"7","member_unsigned_char":1,"member_unsigned_int":3,"member_unsigned_long":4,"member_unsigned_short":2}],"member_bool":true,"member_char":48,"member_double":6.0,"member_float":5.0,"member_int":-3,"member_long":-4,"member_short":-2,"member_signed_char":-1,"member_string":"7","member_unsigned_char":1,"member_unsigned_int":3,"member_unsigned_long":4,"member_unsigned_short":2}
value(array)[0](array)[0](struct).member_array Type: 2 -> array           [true,48,-1,1,-2,2,-3,3,-4,4,5.0,6.0,"7",{"member_array":[true,48,-1,1,-2,2,-3,3,-4,4,5.0,6.0,"7"],"member_bool":true,"member_char":48,"member_double":6.0,"member_float":5.0,"member_int":-3,"member_long":-4,"member_short":-2,"member_signed_char":-1,"member_string":"7","member_unsigned_char":1,"member_unsigned_int":3,"member_unsigned_long":4,"member_unsigned_short":2}]
value(array)[0](array)[0](struct).member_array(array)[0] Type: 4 -> boolean         true
value(array)[0](array)[0](struct).member_array(array)[0] Type: 5 -> number_integer  48
value(array)[0](array)[0](struct).member_array(array)[0] Type: 5 -> number_integer  -1
value(array)[0](array)[0](struct).member_array(array)[0] Type: 6 -> number_unsigned 1
value(array)[0](array)[0](struct).member_array(array)[0] Type: 5 -> number_integer  -2
value(array)[0](array)[0](struct).member_array(array)[0] Type: 6 -> number_unsigned 2
value(array)[0](array)[0](struct).member_array(array)[0] Type: 5 -> number_integer  -3
value(array)[0](array)[0](struct).member_array(array)[0] Type: 6 -> number_unsigned 3
value(array)[0](array)[0](struct).member_array(array)[0] Type: 5 -> number_integer  -4
value(array)[0](array)[0](struct).member_array(array)[0] Type: 6 -> number_unsigned 4
value(array)[0](array)[0](struct).member_array(array)[0] Type: 7 -> number_float    5.0
value(array)[0](array)[0](struct).member_array(array)[0] Type: 7 -> number_float    6.0
value(array)[0](array)[0](struct).member_array(array)[0] Type: 3 -> string          "7"
value(array)[0](array)[0](struct).member_array(array)[0] Type: 1 -> object          {"member_array":[true,48,-1,1,-2,2,-3,3,-4,4,5.0,6.0,"7"],"member_bool":true,"member_char":48,"member_double":6.0,"member_float":5.0,"member_int":-3,"member_long":-4,"member_short":-2,"member_signed_char":-1,"member_string":"7","member_unsigned_char":1,"member_unsigned_int":3,"member_unsigned_long":4,"member_unsigned_short":2}
value(array)[0](array)[0](struct).member_array(array)[0](struct).member_array Type: 2 -> array           [true,48,-1,1,-2,2,-3,3,-4,4,5.0,6.0,"7"]
value(array)[0](array)[0](struct).member_array(array)[0](struct).member_array(array)[0] Type: 4 -> boolean         true
value(array)[0](array)[0](struct).member_array(array)[0](struct).member_array(array)[0] Type: 5 -> number_integer  48
value(array)[0](array)[0](struct).member_array(array)[0](struct).member_array(array)[0] Type: 5 -> number_integer  -1
value(array)[0](array)[0](struct).member_array(array)[0](struct).member_array(array)[0] Type: 6 -> number_unsigned 1
value(array)[0](array)[0](struct).member_array(array)[0](struct).member_array(array)[0] Type: 5 -> number_integer  -2
value(array)[0](array)[0](struct).member_array(array)[0](struct).member_array(array)[0] Type: 6 -> number_unsigned 2
value(array)[0](array)[0](struct).member_array(array)[0](struct).member_array(array)[0] Type: 5 -> number_integer  -3
value(array)[0](array)[0](struct).member_array(array)[0](struct).member_array(array)[0] Type: 6 -> number_unsigned 3
value(array)[0](array)[0](struct).member_array(array)[0](struct).member_array(array)[0] Type: 5 -> number_integer  -4
value(array)[0](array)[0](struct).member_array(array)[0](struct).member_array(array)[0] Type: 6 -> number_unsigned 4
value(array)[0](array)[0](struct).member_array(array)[0](struct).member_array(array)[0] Type: 7 -> number_float    5.0
value(array)[0](array)[0](struct).member_array(array)[0](struct).member_array(array)[0] Type: 7 -> number_float    6.0
value(array)[0](array)[0](struct).member_array(array)[0](struct).member_array(array)[0] Type: 3 -> string          "7"
value(array)[0](array)[0](struct).member_array(array)[0](struct).member_bool Type: 4 -> boolean         true
value(array)[0](array)[0](struct).member_array(array)[0](struct).member_char Type: 5 -> number_integer  48
value(array)[0](array)[0](struct).member_array(array)[0](struct).member_double Type: 7 -> number_float    6.0
value(array)[0](array)[0](struct).member_array(array)[0](struct).member_float Type: 7 -> number_float    5.0
value(array)[0](array)[0](struct).member_array(array)[0](struct).member_int Type: 5 -> number_integer  -3
value(array)[0](array)[0](struct).member_array(array)[0](struct).member_long Type: 5 -> number_integer  -4
value(array)[0](array)[0](struct).member_array(array)[0](struct).member_short Type: 5 -> number_integer  -2
value(array)[0](array)[0](struct).member_array(array)[0](struct).member_signed_char Type: 5 -> number_integer  -1
value(array)[0](array)[0](struct).member_array(array)[0](struct).member_string Type: 3 -> string          "7"
value(array)[0](array)[0](struct).member_array(array)[0](struct).member_unsigned_char Type: 6 -> number_unsigned 1
value(array)[0](array)[0](struct).member_array(array)[0](struct).member_unsigned_int Type: 6 -> number_unsigned 3
value(array)[0](array)[0](struct).member_array(array)[0](struct).member_unsigned_long Type: 6 -> number_unsigned 4
value(array)[0](array)[0](struct).member_array(array)[0](struct).member_unsigned_short Type: 6 -> number_unsigned 2
value(array)[0](array)[0](struct).member_bool Type: 4 -> boolean         true
value(array)[0](array)[0](struct).member_char Type: 5 -> number_integer  48
value(array)[0](array)[0](struct).member_double Type: 7 -> number_float    6.0
value(array)[0](array)[0](struct).member_float Type: 7 -> number_float    5.0
value(array)[0](array)[0](struct).member_int Type: 5 -> number_integer  -3
value(array)[0](array)[0](struct).member_long Type: 5 -> number_integer  -4
value(array)[0](array)[0](struct).member_short Type: 5 -> number_integer  -2
value(array)[0](array)[0](struct).member_signed_char Type: 5 -> number_integer  -1
value(array)[0](array)[0](struct).member_string Type: 3 -> string          "7"
value(array)[0](array)[0](struct).member_unsigned_char Type: 6 -> number_unsigned 1
value(array)[0](array)[0](struct).member_unsigned_int Type: 6 -> number_unsigned 3
value(array)[0](array)[0](struct).member_unsigned_long Type: 6 -> number_unsigned 4
value(array)[0](array)[0](struct).member_unsigned_short Type: 6 -> number_unsigned 2
value(array)[0](array)[0] Type: 2 -> array           [true,48,-1,1,-2,2,-3,3,-4,4,5.0,6.0,"7",{"member_array":[true,48,-1,1,-2,2,-3,3,-4,4,5.0,6.0,"7",{"member_array":[true,48,-1,1,-2,2,-3,3,-4,4,5.0,6.0,"7"],"member_bool":true,"member_char":48,"member_double":6.0,"member_float":5.0,"member_int":-3,"member_long":-4,"member_short":-2,"member_signed_char":-1,"member_string":"7","member_unsigned_char":1,"member_unsigned_int":3,"member_unsigned_long":4,"member_unsigned_short":2}],"member_bool":true,"member_char":48,"member_double":6.0,"member_float":5.0,"member_int":-3,"member_long":-4,"member_short":-2,"member_signed_char":-1,"member_string":"7","member_unsigned_char":1,"member_unsigned_int":3,"member_unsigned_long":4,"member_unsigned_short":2}]
value(array)[0](array)[0](array)[0] Type: 4 -> boolean         true
value(array)[0](array)[0](array)[0] Type: 5 -> number_integer  48
value(array)[0](array)[0](array)[0] Type: 5 -> number_integer  -1
value(array)[0](array)[0](array)[0] Type: 6 -> number_unsigned 1
value(array)[0](array)[0](array)[0] Type: 5 -> number_integer  -2
value(array)[0](array)[0](array)[0] Type: 6 -> number_unsigned 2
value(array)[0](array)[0](array)[0] Type: 5 -> number_integer  -3
value(array)[0](array)[0](array)[0] Type: 6 -> number_unsigned 3
value(array)[0](array)[0](array)[0] Type: 5 -> number_integer  -4
value(array)[0](array)[0](array)[0] Type: 6 -> number_unsigned 4
value(array)[0](array)[0](array)[0] Type: 7 -> number_float    5.0
value(array)[0](array)[0](array)[0] Type: 7 -> number_float    6.0
value(array)[0](array)[0](array)[0] Type: 3 -> string          "7"
value(array)[0](array)[0](array)[0] Type: 1 -> object          {"member_array":[true,48,-1,1,-2,2,-3,3,-4,4,5.0,6.0,"7",{"member_array":[true,48,-1,1,-2,2,-3,3,-4,4,5.0,6.0,"7"],"member_bool":true,"member_char":48,"member_double":6.0,"member_float":5.0,"member_int":-3,"member_long":-4,"member_short":-2,"member_signed_char":-1,"member_string":"7","member_unsigned_char":1,"member_unsigned_int":3,"member_unsigned_long":4,"member_unsigned_short":2}],"member_bool":true,"member_char":48,"member_double":6.0,"member_float":5.0,"member_int":-3,"member_long":-4,"member_short":-2,"member_signed_char":-1,"member_string":"7","member_unsigned_char":1,"member_unsigned_int":3,"member_unsigned_long":4,"member_unsigned_short":2}
value(array)[0](array)[0](array)[0](struct).member_array Type: 2 -> array           [true,48,-1,1,-2,2,-3,3,-4,4,5.0,6.0,"7",{"member_array":[true,48,-1,1,-2,2,-3,3,-4,4,5.0,6.0,"7"],"member_bool":true,"member_char":48,"member_double":6.0,"member_float":5.0,"member_int":-3,"member_long":-4,"member_short":-2,"member_signed_char":-1,"member_string":"7","member_unsigned_char":1,"member_unsigned_int":3,"member_unsigned_long":4,"member_unsigned_short":2}]
value(array)[0](array)[0](array)[0](struct).member_array(array)[0] Type: 4 -> boolean         true
value(array)[0](array)[0](array)[0](struct).member_array(array)[0] Type: 5 -> number_integer  48
value(array)[0](array)[0](array)[0](struct).member_array(array)[0] Type: 5 -> number_integer  -1
value(array)[0](array)[0](array)[0](struct).member_array(array)[0] Type: 6 -> number_unsigned 1
value(array)[0](array)[0](array)[0](struct).member_array(array)[0] Type: 5 -> number_integer  -2
value(array)[0](array)[0](array)[0](struct).member_array(array)[0] Type: 6 -> number_unsigned 2
value(array)[0](array)[0](array)[0](struct).member_array(array)[0] Type: 5 -> number_integer  -3
value(array)[0](array)[0](array)[0](struct).member_array(array)[0] Type: 6 -> number_unsigned 3
value(array)[0](array)[0](array)[0](struct).member_array(array)[0] Type: 5 -> number_integer  -4
value(array)[0](array)[0](array)[0](struct).member_array(array)[0] Type: 6 -> number_unsigned 4
value(array)[0](array)[0](array)[0](struct).member_array(array)[0] Type: 7 -> number_float    5.0
value(array)[0](array)[0](array)[0](struct).member_array(array)[0] Type: 7 -> number_float    6.0
value(array)[0](array)[0](array)[0](struct).member_array(array)[0] Type: 3 -> string          "7"
value(array)[0](array)[0](array)[0](struct).member_array(array)[0] Type: 1 -> object          {"member_array":[true,48,-1,1,-2,2,-3,3,-4,4,5.0,6.0,"7"],"member_bool":true,"member_char":48,"member_double":6.0,"member_float":5.0,"member_int":-3,"member_long":-4,"member_short":-2,"member_signed_char":-1,"member_string":"7","member_unsigned_char":1,"member_unsigned_int":3,"member_unsigned_long":4,"member_unsigned_short":2}
value(array)[0](array)[0](array)[0](struct).member_array(array)[0](struct).member_array Type: 2 -> array           [true,48,-1,1,-2,2,-3,3,-4,4,5.0,6.0,"7"]
value(array)[0](array)[0](array)[0](struct).member_array(array)[0](struct).member_array(array)[0] Type: 4 -> boolean         true
value(array)[0](array)[0](array)[0](struct).member_array(array)[0](struct).member_array(array)[0] Type: 5 -> number_integer  48
value(array)[0](array)[0](array)[0](struct).member_array(array)[0](struct).member_array(array)[0] Type: 5 -> number_integer  -1
value(array)[0](array)[0](array)[0](struct).member_array(array)[0](struct).member_array(array)[0] Type: 6 -> number_unsigned 1
value(array)[0](array)[0](array)[0](struct).member_array(array)[0](struct).member_array(array)[0] Type: 5 -> number_integer  -2
value(array)[0](array)[0](array)[0](struct).member_array(array)[0](struct).member_array(array)[0] Type: 6 -> number_unsigned 2
value(array)[0](array)[0](array)[0](struct).member_array(array)[0](struct).member_array(array)[0] Type: 5 -> number_integer  -3
value(array)[0](array)[0](array)[0](struct).member_array(array)[0](struct).member_array(array)[0] Type: 6 -> number_unsigned 3
value(array)[0](array)[0](array)[0](struct).member_array(array)[0](struct).member_array(array)[0] Type: 5 -> number_integer  -4
value(array)[0](array)[0](array)[0](struct).member_array(array)[0](struct).member_array(array)[0] Type: 6 -> number_unsigned 4
value(array)[0](array)[0](array)[0](struct).member_array(array)[0](struct).member_array(array)[0] Type: 7 -> number_float    5.0
value(array)[0](array)[0](array)[0](struct).member_array(array)[0](struct).member_array(array)[0] Type: 7 -> number_float    6.0
value(array)[0](array)[0](array)[0](struct).member_array(array)[0](struct).member_array(array)[0] Type: 3 -> string          "7"
value(array)[0](array)[0](array)[0](struct).member_array(array)[0](struct).member_bool Type: 4 -> boolean         true
value(array)[0](array)[0](array)[0](struct).member_array(array)[0](struct).member_char Type: 5 -> number_integer  48
value(array)[0](array)[0](array)[0](struct).member_array(array)[0](struct).member_double Type: 7 -> number_float    6.0
value(array)[0](array)[0](array)[0](struct).member_array(array)[0](struct).member_float Type: 7 -> number_float    5.0
value(array)[0](array)[0](array)[0](struct).member_array(array)[0](struct).member_int Type: 5 -> number_integer  -3
value(array)[0](array)[0](array)[0](struct).member_array(array)[0](struct).member_long Type: 5 -> number_integer  -4
value(array)[0](array)[0](array)[0](struct).member_array(array)[0](struct).member_short Type: 5 -> number_integer  -2
value(array)[0](array)[0](array)[0](struct).member_array(array)[0](struct).member_signed_char Type: 5 -> number_integer  -1
value(array)[0](array)[0](array)[0](struct).member_array(array)[0](struct).member_string Type: 3 -> string          "7"
value(array)[0](array)[0](array)[0](struct).member_array(array)[0](struct).member_unsigned_char Type: 6 -> number_unsigned 1
value(array)[0](array)[0](array)[0](struct).member_array(array)[0](struct).member_unsigned_int Type: 6 -> number_unsigned 3
value(array)[0](array)[0](array)[0](struct).member_array(array)[0](struct).member_unsigned_long Type: 6 -> number_unsigned 4
value(array)[0](array)[0](array)[0](struct).member_array(array)[0](struct).member_unsigned_short Type: 6 -> number_unsigned 2
value(array)[0](array)[0](array)[0](struct).member_bool Type: 4 -> boolean         true
value(array)[0](array)[0](array)[0](struct).member_char Type: 5 -> number_integer  48
value(array)[0](array)[0](array)[0](struct).member_double Type: 7 -> number_float    6.0
value(array)[0](array)[0](array)[0](struct).member_float Type: 7 -> number_float    5.0
value(array)[0](array)[0](array)[0](struct).member_int Type: 5 -> number_integer  -3
value(array)[0](array)[0](array)[0](struct).member_long Type: 5 -> number_integer  -4
value(array)[0](array)[0](array)[0](struct).member_short Type: 5 -> number_integer  -2
value(array)[0](array)[0](array)[0](struct).member_signed_char Type: 5 -> number_integer  -1
value(array)[0](array)[0](array)[0](struct).member_string Type: 3 -> string          "7"
value(array)[0](array)[0](array)[0](struct).member_unsigned_char Type: 6 -> number_unsigned 1
value(array)[0](array)[0](array)[0](struct).member_unsigned_int Type: 6 -> number_unsigned 3
value(array)[0](array)[0](array)[0](struct).member_unsigned_long Type: 6 -> number_unsigned 4
value(array)[0](array)[0](array)[0](struct).member_unsigned_short Type: 6 -> number_unsigned 2
value(array)[0] Type: 2 -> array           [true,48,-1,1,-2,2,-3,3,-4,4,5.0,6.0,"7",{"member_array":[true,48,-1,1,-2,2,-3,3,-4,4,5.0,6.0,"7",{"member_array":[true,48,-1,1,-2,2,-3,3,-4,4,5.0,6.0,"7"],"member_bool":true,"member_char":48,"member_double":6.0,"member_float":5.0,"member_int":-3,"member_long":-4,"member_short":-2,"member_signed_char":-1,"member_string":"7","member_unsigned_char":1,"member_unsigned_int":3,"member_unsigned_long":4,"member_unsigned_short":2}],"member_bool":true,"member_char":48,"member_double":6.0,"member_float":5.0,"member_int":-3,"member_long":-4,"member_short":-2,"member_signed_char":-1,"member_string":"7","member_unsigned_char":1,"member_unsigned_int":3,"member_unsigned_long":4,"member_unsigned_short":2}]
value(array)[0](array)[0] Type: 4 -> boolean         true
value(array)[0](array)[0] Type: 5 -> number_integer  48
value(array)[0](array)[0] Type: 5 -> number_integer  -1
value(array)[0](array)[0] Type: 6 -> number_unsigned 1
value(array)[0](array)[0] Type: 5 -> number_integer  -2
value(array)[0](array)[0] Type: 6 -> number_unsigned 2
value(array)[0](array)[0] Type: 5 -> number_integer  -3
value(array)[0](array)[0] Type: 6 -> number_unsigned 3
value(array)[0](array)[0] Type: 5 -> number_integer  -4
value(array)[0](array)[0] Type: 6 -> number_unsigned 4
value(array)[0](array)[0] Type: 7 -> number_float    5.0
value(array)[0](array)[0] Type: 7 -> number_float    6.0
value(array)[0](array)[0] Type: 3 -> string          "7"
value(array)[0](array)[0] Type: 1 -> object          {"member_array":[true,48,-1,1,-2,2,-3,3,-4,4,5.0,6.0,"7",{"member_array":[true,48,-1,1,-2,2,-3,3,-4,4,5.0,6.0,"7"],"member_bool":true,"member_char":48,"member_double":6.0,"member_float":5.0,"member_int":-3,"member_long":-4,"member_short":-2,"member_signed_char":-1,"member_string":"7","member_unsigned_char":1,"member_unsigned_int":3,"member_unsigned_long":4,"member_unsigned_short":2}],"member_bool":true,"member_char":48,"member_double":6.0,"member_float":5.0,"member_int":-3,"member_long":-4,"member_short":-2,"member_signed_char":-1,"member_string":"7","member_unsigned_char":1,"member_unsigned_int":3,"member_unsigned_long":4,"member_unsigned_short":2}
value(array)[0](array)[0](struct).member_array Type: 2 -> array           [true,48,-1,1,-2,2,-3,3,-4,4,5.0,6.0,"7",{"member_array":[true,48,-1,1,-2,2,-3,3,-4,4,5.0,6.0,"7"],"member_bool":true,"member_char":48,"member_double":6.0,"member_float":5.0,"member_int":-3,"member_long":-4,"member_short":-2,"member_signed_char":-1,"member_string":"7","member_unsigned_char":1,"member_unsigned_int":3,"member_unsigned_long":4,"member_unsigned_short":2}]
value(array)[0](array)[0](struct).member_array(array)[0] Type: 4 -> boolean         true
value(array)[0](array)[0](struct).member_array(array)[0] Type: 5 -> number_integer  48
value(array)[0](array)[0](struct).member_array(array)[0] Type: 5 -> number_integer  -1
value(array)[0](array)[0](struct).member_array(array)[0] Type: 6 -> number_unsigned 1
value(array)[0](array)[0](struct).member_array(array)[0] Type: 5 -> number_integer  -2
value(array)[0](array)[0](struct).member_array(array)[0] Type: 6 -> number_unsigned 2
value(array)[0](array)[0](struct).member_array(array)[0] Type: 5 -> number_integer  -3
value(array)[0](array)[0](struct).member_array(array)[0] Type: 6 -> number_unsigned 3
value(array)[0](array)[0](struct).member_array(array)[0] Type: 5 -> number_integer  -4
value(array)[0](array)[0](struct).member_array(array)[0] Type: 6 -> number_unsigned 4
value(array)[0](array)[0](struct).member_array(array)[0] Type: 7 -> number_float    5.0
value(array)[0](array)[0](struct).member_array(array)[0] Type: 7 -> number_float    6.0
value(array)[0](array)[0](struct).member_array(array)[0] Type: 3 -> string          "7"
value(array)[0](array)[0](struct).member_array(array)[0] Type: 1 -> object          {"member_array":[true,48,-1,1,-2,2,-3,3,-4,4,5.0,6.0,"7"],"member_bool":true,"member_char":48,"member_double":6.0,"member_float":5.0,"member_int":-3,"member_long":-4,"member_short":-2,"member_signed_char":-1,"member_string":"7","member_unsigned_char":1,"member_unsigned_int":3,"member_unsigned_long":4,"member_unsigned_short":2}
value(array)[0](array)[0](struct).member_array(array)[0](struct).member_array Type: 2 -> array           [true,48,-1,1,-2,2,-3,3,-4,4,5.0,6.0,"7"]
value(array)[0](array)[0](struct).member_array(array)[0](struct).member_array(array)[0] Type: 4 -> boolean         true
value(array)[0](array)[0](struct).member_array(array)[0](struct).member_array(array)[0] Type: 5 -> number_integer  48
value(array)[0](array)[0](struct).member_array(array)[0](struct).member_array(array)[0] Type: 5 -> number_integer  -1
value(array)[0](array)[0](struct).member_array(array)[0](struct).member_array(array)[0] Type: 6 -> number_unsigned 1
value(array)[0](array)[0](struct).member_array(array)[0](struct).member_array(array)[0] Type: 5 -> number_integer  -2
value(array)[0](array)[0](struct).member_array(array)[0](struct).member_array(array)[0] Type: 6 -> number_unsigned 2
value(array)[0](array)[0](struct).member_array(array)[0](struct).member_array(array)[0] Type: 5 -> number_integer  -3
value(array)[0](array)[0](struct).member_array(array)[0](struct).member_array(array)[0] Type: 6 -> number_unsigned 3
value(array)[0](array)[0](struct).member_array(array)[0](struct).member_array(array)[0] Type: 5 -> number_integer  -4
value(array)[0](array)[0](struct).member_array(array)[0](struct).member_array(array)[0] Type: 6 -> number_unsigned 4
value(array)[0](array)[0](struct).member_array(array)[0](struct).member_array(array)[0] Type: 7 -> number_float    5.0
value(array)[0](array)[0](struct).member_array(array)[0](struct).member_array(array)[0] Type: 7 -> number_float    6.0
value(array)[0](array)[0](struct).member_array(array)[0](struct).member_array(array)[0] Type: 3 -> string          "7"
value(array)[0](array)[0](struct).member_array(array)[0](struct).member_bool Type: 4 -> boolean         true
value(array)[0](array)[0](struct).member_array(array)[0](struct).member_char Type: 5 -> number_integer  48
value(array)[0](array)[0](struct).member_array(array)[0](struct).member_double Type: 7 -> number_float    6.0
value(array)[0](array)[0](struct).member_array(array)[0](struct).member_float Type: 7 -> number_float    5.0
value(array)[0](array)[0](struct).member_array(array)[0](struct).member_int Type: 5 -> number_integer  -3
value(array)[0](array)[0](struct).member_array(array)[0](struct).member_long Type: 5 -> number_integer  -4
value(array)[0](array)[0](struct).member_array(array)[0](struct).member_short Type: 5 -> number_integer  -2
value(array)[0](array)[0](struct).member_array(array)[0](struct).member_signed_char Type: 5 -> number_integer  -1
value(array)[0](array)[0](struct).member_array(array)[0](struct).member_string Type: 3 -> string          "7"
value(array)[0](array)[0](struct).member_array(array)[0](struct).member_unsigned_char Type: 6 -> number_unsigned 1
value(array)[0](array)[0](struct).member_array(array)[0](struct).member_unsigned_int Type: 6 -> number_unsigned 3
value(array)[0](array)[0](struct).member_array(array)[0](struct).member_unsigned_long Type: 6 -> number_unsigned 4
value(array)[0](array)[0](struct).member_array(array)[0](struct).member_unsigned_short Type: 6 -> number_unsigned 2
value(array)[0](array)[0](struct).member_bool Type: 4 -> boolean         true
value(array)[0](array)[0](struct).member_char Type: 5 -> number_integer  48
value(array)[0](array)[0](struct).member_double Type: 7 -> number_float    6.0
value(array)[0](array)[0](struct).member_float Type: 7 -> number_float    5.0
value(array)[0](array)[0](struct).member_int Type: 5 -> number_integer  -3
value(array)[0](array)[0](struct).member_long Type: 5 -> number_integer  -4
value(array)[0](array)[0](struct).member_short Type: 5 -> number_integer  -2
value(array)[0](array)[0](struct).member_signed_char Type: 5 -> number_integer  -1
value(array)[0](array)[0](struct).member_string Type: 3 -> string          "7"
value(array)[0](array)[0](struct).member_unsigned_char Type: 6 -> number_unsigned 1
value(array)[0](array)[0](struct).member_unsigned_int Type: 6 -> number_unsigned 3
value(array)[0](array)[0](struct).member_unsigned_long Type: 6 -> number_unsigned 4
value(array)[0](array)[0](struct).member_unsigned_short Type: 6 -> number_unsigned 2
value(array)[0] Type: 2 -> array           [true,48,-1,1,-2,2,-3,3,-4,4,5.0,6.0,"7",{"member_array":[true,48,-1,1,-2,2,-3,3,-4,4,5.0,6.0,"7",{"member_array":[true,48,-1,1,-2,2,-3,3,-4,4,5.0,6.0,"7"],"member_bool":true,"member_char":48,"member_double":6.0,"member_float":5.0,"member_int":-3,"member_long":-4,"member_short":-2,"member_signed_char":-1,"member_string":"7","member_unsigned_char":1,"member_unsigned_int":3,"member_unsigned_long":4,"member_unsigned_short":2}],"member_bool":true,"member_char":48,"member_double":6.0,"member_float":5.0,"member_int":-3,"member_long":-4,"member_short":-2,"member_signed_char":-1,"member_string":"7","member_unsigned_char":1,"member_unsigned_int":3,"member_unsigned_long":4,"member_unsigned_short":2}]
value(array)[0](array)[0] Type: 4 -> boolean         true
value(array)[0](array)[0] Type: 5 -> number_integer  48
value(array)[0](array)[0] Type: 5 -> number_integer  -1
value(array)[0](array)[0] Type: 6 -> number_unsigned 1
value(array)[0](array)[0] Type: 5 -> number_integer  -2
value(array)[0](array)[0] Type: 6 -> number_unsigned 2
value(array)[0](array)[0] Type: 5 -> number_integer  -3
value(array)[0](array)[0] Type: 6 -> number_unsigned 3
value(array)[0](array)[0] Type: 5 -> number_integer  -4
value(array)[0](array)[0] Type: 6 -> number_unsigned 4
value(array)[0](array)[0] Type: 7 -> number_float    5.0
value(array)[0](array)[0] Type: 7 -> number_float    6.0
value(array)[0](array)[0] Type: 3 -> string          "7"
value(array)[0](array)[0] Type: 1 -> object          {"member_array":[true,48,-1,1,-2,2,-3,3,-4,4,5.0,6.0,"7",{"member_array":[true,48,-1,1,-2,2,-3,3,-4,4,5.0,6.0,"7"],"member_bool":true,"member_char":48,"member_double":6.0,"member_float":5.0,"member_int":-3,"member_long":-4,"member_short":-2,"member_signed_char":-1,"member_string":"7","member_unsigned_char":1,"member_unsigned_int":3,"member_unsigned_long":4,"member_unsigned_short":2}],"member_bool":true,"member_char":48,"member_double":6.0,"member_float":5.0,"member_int":-3,"member_long":-4,"member_short":-2,"member_signed_char":-1,"member_string":"7","member_unsigned_char":1,"member_unsigned_int":3,"member_unsigned_long":4,"member_unsigned_short":2}
value(array)[0](array)[0](struct).member_array Type: 2 -> array           [true,48,-1,1,-2,2,-3,3,-4,4,5.0,6.0,"7",{"member_array":[true,48,-1,1,-2,2,-3,3,-4,4,5.0,6.0,"7"],"member_bool":true,"member_char":48,"member_double":6.0,"member_float":5.0,"member_int":-3,"member_long":-4,"member_short":-2,"member_signed_char":-1,"member_string":"7","member_unsigned_char":1,"member_unsigned_int":3,"member_unsigned_long":4,"member_unsigned_short":2}]
value(array)[0](array)[0](struct).member_array(array)[0] Type: 4 -> boolean         true
value(array)[0](array)[0](struct).member_array(array)[0] Type: 5 -> number_integer  48
value(array)[0](array)[0](struct).member_array(array)[0] Type: 5 -> number_integer  -1
value(array)[0](array)[0](struct).member_array(array)[0] Type: 6 -> number_unsigned 1
value(array)[0](array)[0](struct).member_array(array)[0] Type: 5 -> number_integer  -2
value(array)[0](array)[0](struct).member_array(array)[0] Type: 6 -> number_unsigned 2
value(array)[0](array)[0](struct).member_array(array)[0] Type: 5 -> number_integer  -3
value(array)[0](array)[0](struct).member_array(array)[0] Type: 6 -> number_unsigned 3
value(array)[0](array)[0](struct).member_array(array)[0] Type: 5 -> number_integer  -4
value(array)[0](array)[0](struct).member_array(array)[0] Type: 6 -> number_unsigned 4
value(array)[0](array)[0](struct).member_array(array)[0] Type: 7 -> number_float    5.0
value(array)[0](array)[0](struct).member_array(array)[0] Type: 7 -> number_float    6.0
value(array)[0](array)[0](struct).member_array(array)[0] Type: 3 -> string          "7"
value(array)[0](array)[0](struct).member_array(array)[0] Type: 1 -> object          {"member_array":[true,48,-1,1,-2,2,-3,3,-4,4,5.0,6.0,"7"],"member_bool":true,"member_char":48,"member_double":6.0,"member_float":5.0,"member_int":-3,"member_long":-4,"member_short":-2,"member_signed_char":-1,"member_string":"7","member_unsigned_char":1,"member_unsigned_int":3,"member_unsigned_long":4,"member_unsigned_short":2}
value(array)[0](array)[0](struct).member_array(array)[0](struct).member_array Type: 2 -> array           [true,48,-1,1,-2,2,-3,3,-4,4,5.0,6.0,"7"]
value(array)[0](array)[0](struct).member_array(array)[0](struct).member_array(array)[0] Type: 4 -> boolean         true
value(array)[0](array)[0](struct).member_array(array)[0](struct).member_array(array)[0] Type: 5 -> number_integer  48
value(array)[0](array)[0](struct).member_array(array)[0](struct).member_array(array)[0] Type: 5 -> number_integer  -1
value(array)[0](array)[0](struct).member_array(array)[0](struct).member_array(array)[0] Type: 6 -> number_unsigned 1
value(array)[0](array)[0](struct).member_array(array)[0](struct).member_array(array)[0] Type: 5 -> number_integer  -2
value(array)[0](array)[0](struct).member_array(array)[0](struct).member_array(array)[0] Type: 6 -> number_unsigned 2
value(array)[0](array)[0](struct).member_array(array)[0](struct).member_array(array)[0] Type: 5 -> number_integer  -3
value(array)[0](array)[0](struct).member_array(array)[0](struct).member_array(array)[0] Type: 6 -> number_unsigned 3
value(array)[0](array)[0](struct).member_array(array)[0](struct).member_array(array)[0] Type: 5 -> number_integer  -4
value(array)[0](array)[0](struct).member_array(array)[0](struct).member_array(array)[0] Type: 6 -> number_unsigned 4
value(array)[0](array)[0](struct).member_array(array)[0](struct).member_array(array)[0] Type: 7 -> number_float    5.0
value(array)[0](array)[0](struct).member_array(array)[0](struct).member_array(array)[0] Type: 7 -> number_float    6.0
value(array)[0](array)[0](struct).member_array(array)[0](struct).member_array(array)[0] Type: 3 -> string          "7"
value(array)[0](array)[0](struct).member_array(array)[0](struct).member_bool Type: 4 -> boolean         true
value(array)[0](array)[0](struct).member_array(array)[0](struct).member_char Type: 5 -> number_integer  48
value(array)[0](array)[0](struct).member_array(array)[0](struct).member_double Type: 7 -> number_float    6.0
value(array)[0](array)[0](struct).member_array(array)[0](struct).member_float Type: 7 -> number_float    5.0
value(array)[0](array)[0](struct).member_array(array)[0](struct).member_int Type: 5 -> number_integer  -3
value(array)[0](array)[0](struct).member_array(array)[0](struct).member_long Type: 5 -> number_integer  -4
value(array)[0](array)[0](struct).member_array(array)[0](struct).member_short Type: 5 -> number_integer  -2
value(array)[0](array)[0](struct).member_array(array)[0](struct).member_signed_char Type: 5 -> number_integer  -1
value(array)[0](array)[0](struct).member_array(array)[0](struct).member_string Type: 3 -> string          "7"
value(array)[0](array)[0](struct).member_array(array)[0](struct).member_unsigned_char Type: 6 -> number_unsigned 1
value(array)[0](array)[0](struct).member_array(array)[0](struct).member_unsigned_int Type: 6 -> number_unsigned 3
value(array)[0](array)[0](struct).member_array(array)[0](struct).member_unsigned_long Type: 6 -> number_unsigned 4
value(array)[0](array)[0](struct).member_array(array)[0](struct).member_unsigned_short Type: 6 -> number_unsigned 2
value(array)[0](array)[0](struct).member_bool Type: 4 -> boolean         true
value(array)[0](array)[0](struct).member_char Type: 5 -> number_integer  48
value(array)[0](array)[0](struct).member_double Type: 7 -> number_float    6.0
value(array)[0](array)[0](struct).member_float Type: 7 -> number_float    5.0
value(array)[0](array)[0](struct).member_int Type: 5 -> number_integer  -3
value(array)[0](array)[0](struct).member_long Type: 5 -> number_integer  -4
value(array)[0](array)[0](struct).member_short Type: 5 -> number_integer  -2
value(array)[0](array)[0](struct).member_signed_char Type: 5 -> number_integer  -1
value(array)[0](array)[0](struct).member_string Type: 3 -> string          "7"
value(array)[0](array)[0](struct).member_unsigned_char Type: 6 -> number_unsigned 1
value(array)[0](array)[0](struct).member_unsigned_int Type: 6 -> number_unsigned 3
value(array)[0](array)[0](struct).member_unsigned_long Type: 6 -> number_unsigned 4
value(array)[0](array)[0](struct).member_unsigned_short Type: 6 -> number_unsigned 2
TEST>  Counts: Total score: 260
