JobOptionsSvc        INFO # (1,1): ApplicationMgr.ExtSvc = ["Gaudi::MultiFileCatalog/FileCatalog", "Gaudi::IODataManager/IODataManager"]
JobOptionsSvc        INFO # (1,1): ApplicationMgr.HistogramPersistency = "NONE"
JobOptionsSvc        INFO # (2,1): JobOptionSvc.OutputLevel = 4
JobOptionsSvc        INFO # (3,1): EventPersistencySvc.CnvServices += ["Gaudi::RootCnvSvc/RootCnvSvc"]
JobOptionsSvc        INFO # (4,1): MessageSvc.OutputLevel = 3
JobOptionsSvc        INFO # (5,1): ApplicationMgr.AuditAlgorithms = 1
JobOptionsSvc        INFO # (6,1): ApplicationMgr.ExtSvc += ["AuditorSvc"]
JobOptionsSvc        INFO # (7,1): ApplicationMgr.EvtMax = -1
JobOptionsSvc        INFO # (8,1): AuditorSvc.Auditors += ["ChronoAuditor"]
JobOptionsSvc        INFO # (9,1): FileCatalog.Catalogs = ["xmlcatalog_file:ROOTIO.xml"]
JobOptionsSvc        INFO # (10,1): EventSelector.PrintFreq = 500
JobOptionsSvc        INFO # (11,1): EventDataSvc.RootCLID = 1
JobOptionsSvc        INFO # (12,1): ReadAlg.OutputLevel = 4
JobOptionsSvc        INFO # (13,1): RootCnvSvc.CacheSize = 50000000
JobOptionsSvc        INFO # (14,1): RootCnvSvc.GlobalCompression = "LZMA:3"
JobOptionsSvc        INFO # (15,1): ApplicationMgr.SvcOptMapping += ["Gaudi::MultiFileCatalog/FileCatalog", "Gaudi::IODataManager/IODataManager"]
JobOptionsSvc        INFO # (16,1): ChronoStatSvc.OutputLevel = 4
JobOptionsSvc        INFO # (2,1): ApplicationMgr.TopAlg = ["EvtCollectionWrite/Writer"]
JobOptionsSvc        INFO # (3,1): ApplicationMgr.ExtSvc += ["TagCollectionSvc/EvtTupleSvc"]
JobOptionsSvc        INFO # (4,1): ReadAlg.OutputLevel = 4
JobOptionsSvc        INFO # (5,1): Writer.OutputLevel = 3
JobOptionsSvc        INFO # (6,1): Writer.NumMcTracks = 1
JobOptionsSvc        INFO # (2,1): EventSelector.Input = ["DATAFILE='PFN:ROOTIO.3.dst' SVC='Gaudi::RootEvtSelector'"]
JobOptionsSvc        INFO # (3,1): EventSelector.Input += ["DATAFILE='PFN:ROOTIO.3.mdst' SVC='Gaudi::RootEvtSelector'"]
JobOptionsSvc        INFO # (4,1): EvtTupleSvc.Output = ["EvtColl DATAFILE='PFN:ROOTIO.3.tags' OPT='RECREATE' SVC='Gaudi::RootCnvSvc'"]
ApplicationMgr    SUCCESS
====================================================================================================================================
====================================================================================================================================
ApplicationMgr       INFO Application Manager Configured successfully
EvtTupleSvc          INFO Added stream file:PFN:ROOTIO.3.tags as EvtColl
Gaudi::RootData...   INFO Recreate Database file:PFN:ROOTIO.3.tags as /EvtColl
RootCnvSvc           INFO Setting global ROOT compression to:LZMA:3
EventPersistenc...   INFO Added successfully Conversion service RootCnvSvc
EventSelector        INFO Stream:EventSelector.DataStreamTool_1 Def:DATAFILE='PFN:ROOTIO.3.dst' SVC='Gaudi::RootEvtSelector'
ApplicationMgr       INFO Application Manager Initialized successfully
ApplicationMgr       INFO Application Manager Started successfully
EventSelector     SUCCESS Reading Event record 1. Record number within stream 1: 1
Writer               INFO ================ EVENT:1 RUN:999 ====== N(Track)=39 PASSED selection (>=1) ============
Writer               INFO ================ EVENT:2 RUN:999 ====== N(Track)=93 PASSED selection (>=1) ============
Writer               INFO ================ EVENT:3 RUN:999 ====== N(Track)=76 PASSED selection (>=1) ============
Writer               INFO ================ EVENT:4 RUN:999 ====== N(Track)=93 PASSED selection (>=1) ============
Writer               INFO ================ EVENT:5 RUN:999 ====== N(Track)=4 PASSED selection (>=1) ============
Writer               INFO ================ EVENT:6 RUN:999 ====== N(Track)=54 PASSED selection (>=1) ============
Writer               INFO ================ EVENT:7 RUN:999 ====== N(Track)=20 PASSED selection (>=1) ============
Writer               INFO ================ EVENT:8 RUN:999 ====== N(Track)=30 PASSED selection (>=1) ============
Writer               INFO ================ EVENT:9 RUN:999 ====== N(Track)=43 PASSED selection (>=1) ============
Writer               INFO ================ EVENT:500 RUN:999 ====== N(Track)=52 PASSED selection (>=1) ============
EventSelector        INFO Stream:EventSelector.DataStreamTool_2 Def:DATAFILE='PFN:ROOTIO.3.mdst' SVC='Gaudi::RootEvtSelector'
EventSelector     SUCCESS Reading Event record 501. Record number within stream 2: 1
Writer               INFO ================ EVENT:1 RUN:999 ====== N(Track)=39 PASSED selection (>=1) ============
Writer               INFO ================ EVENT:2 RUN:999 ====== N(Track)=93 PASSED selection (>=1) ============
Writer               INFO ================ EVENT:3 RUN:999 ====== N(Track)=76 PASSED selection (>=1) ============
Writer               INFO ================ EVENT:4 RUN:999 ====== N(Track)=93 PASSED selection (>=1) ============
Writer               INFO ================ EVENT:5 RUN:999 ====== N(Track)=4 PASSED selection (>=1) ============
Writer               INFO ================ EVENT:6 RUN:999 ====== N(Track)=54 PASSED selection (>=1) ============
Writer               INFO ================ EVENT:7 RUN:999 ====== N(Track)=20 PASSED selection (>=1) ============
Writer               INFO ================ EVENT:8 RUN:999 ====== N(Track)=30 PASSED selection (>=1) ============
Writer               INFO ================ EVENT:9 RUN:999 ====== N(Track)=43 PASSED selection (>=1) ============
Writer               INFO ================ EVENT:500 RUN:999 ====== N(Track)=52 PASSED selection (>=1) ============
EventLoopMgr         INFO No more events in event selection
ApplicationMgr       INFO Application Manager Stopped successfully
EventLoopMgr         INFO Histograms converted successfully according to request.
RootCnvSvc           INFO Disconnected data IO:########-####-####-####-############ [ROOTIO.3.dst]
RootCnvSvc           INFO Disconnected data IO:########-####-####-####-############ [ROOTIO.3.mdst]
ToolSvc              INFO Removing all tools created by ToolSvc
EvtTupleSvc          INFO NTuples saved successfully
EvtTupleSvc.Evt...   INFO Disconnected data IO:########-####-####-####-############ [ROOTIO.3.tags]
*****Chrono*****     INFO ****************************************************************************************************
*****Chrono*****     INFO  The Final CPU consumption ( Chrono ) Table (ordered)
*****Chrono*****     INFO ****************************************************************************************************
*****Chrono*****     INFO ****************************************************************************************************
ChronoStatSvc.f...   INFO  Service finalized successfully
ApplicationMgr       INFO Application Manager Finalized successfully
ApplicationMgr       INFO Application Manager Terminated successfully
