+----------------------------------------------------------------------------------------------------
|        Buffer Manager summary  [ (.*)_##ID## ]
+----------------------------------------------------------------------------------------------------
|  +++++ MBM buffer section sucessfully mapped.
|
|  ======================== MBM Bufer summary for buffer "Events_0_##ID##" ========================
|
|                              Space(kB):[Tot:999755 Free:999755] Users:[Tot:3 Max:20]
|
|   Name                           Partition Type State   Produced %prod     #seen %seen Reqs Buffer
|   ##ID##_EBReader_0               feed    P  #MBM#         1   100
|   CONS_ONE                            feed    C                                1   100   1  Events_0_##ID##
|
|  ======================== MBM Bufer summary for buffer "Events_1_##ID##" ========================
|
|                              Space(kB):[Tot:999755 Free:999755] Users:[Tot:3 Max:20]
|
|   Name                           Partition Type State   Produced %prod     #seen %seen Reqs Buffer
|   ##ID##_EBReader_1               feed    P  #MBM#         1   100
|   CONS_ONE                            feed    C                                1   100   1  Events_1_##ID##
|
|  ======================== MBM Bufer summary for buffer "Output_##ID##" ========================
|
|                              Space(kB):[Tot:29992 Free:29992] Users:[Tot:4 Max:10]
|
|   Name                           Partition Type State   Produced %prod     #seen %seen Reqs Buffer
|   ##ID##_EBStorage_0              feed    C  #MBM#                      6000   100    A Output_##ID##
|   PROD_ONE                            feed    P             6000   100       Output_##ID##
|
|  +++++ MBM summary finished.
+----------------------------------------------------------------------------------------------------
