# setting LC_ALL to "C"
ApplicationMgr       INFO Application Manager Configured successfully
{'ApplicationMgr': {'AppName': '',
                    'AuditAlgorithms': True,
                    'EvtMax': -1,
                    'ExtSvc': ['Gaudi::MultiFileCatalog/FileCatalog',
                               'Gaudi::IODataManager/IODataManager',
                               'AuditorSvc'],
                    'HistogramPersistency': 'NONE',
                    'OutStream': ['OutputStream/TAEMini'],
                    'SvcOptMapping': ['Gaudi::MultiFileCatalog/FileCatalog',
                                      'Gaudi::IODataManager/IODataManager'],
                    'TopAlg': ['Online::Tell1BankDump/Dump',
                               'StoreExplorerAlg/Explorer']},
 'AuditorSvc': {'Auditors': ['ChronoAuditor']},
 'ChronoStatSvc': {'OutputLevel': 4},
 'Dump': {'CheckData': False,
          'DumpData': False,
          'FullDump': False,
          'OutputLevel': 3},
 'EventDataSvc': {'EnableFaultHandler': True,
                  'ForceLeaves': True,
                  'RootCLID': 1},
 'EventPersistencySvc': {'CnvServices': ['LHCb::RawDataCnvSvc/RawDataCnvSvc',
                                         'Gaudi::RootCnvSvc/RootCnvSvc']},
 'EventSelector': {'Input': ["DATA='file://taeData.dat' SVC='LHCb::MDFSelector'"],
                   'PrintFreq': 200},
 'Explorer': {'AccessForeign': True,
              'Load': True,
              'OutputLevel': 3,
              'PrintFreq': 0.00021},
 'FileCatalog': {'Catalogs': ['xmlcatalog_file:ROOTIO.xml']},
 'IODataManager': {'AgeLimit': 1, 'OutputLevel': 3},
 'JobOptionSvc': {'OutputLevel': 4},
 'MessageSvc': {'OutputLevel': 3},
 'ReadAlg': {'OutputLevel': 4},
 'RootCnvSvc': {'CacheSize': 50000000, 'GlobalCompression': 'LZMA:3'},
 'TAEMini': {'ItemList': ['/Event#1',
                          '/Event/DAQ#1',
                          '/Event/Prev1/DAQ',
                          '/Event/Prev2',
                          '/Event/Next1/DAQ/RawEvent'],
             'Output': "DATAFILE='PFN:taeROOT.dat' SVC='RootCnvSvc' OPT='RECREATE'"}}
+-------------------> Start processing events
RootCnvSvc           INFO Setting global ROOT compression to:LZMA:3
EventPersistenc...   INFO Added successfully Conversion service:RootCnvSvc
TAEMini              INFO Data source: EventDataSvc output: DATAFILE='PFN:taeROOT.dat' SVC='RootCnvSvc' OPT='RECREATE'
IODataManager       ERROR Referring to existing dataset file://taeData.dat by its physical name.
IODataManager       ERROR You may not be able to navigate back to the input file -- processing continues
EventSelector        INFO Stream:EventSelector.DataStreamTool_1 Def:DATA='file://taeData.dat' SVC='LHCb::MDFSelector'
HistogramPersis...WARNING Histograms saving not required.
ApplicationMgr       INFO Application Manager Initialized successfully
ApplicationMgr       INFO Application Manager Started successfully
EventSelector.D...   INFO Compression:0 Checksum:1
EventSelector     SUCCESS Reading Event record 1. Record number within stream 1: 1
EventPersistenc...   INFO Added successfully Conversion service:RawDataCnvSvc
Explorer             INFO ========= /Event[0x10492490@EventDataSvc]:
Explorer             INFO +--> /Event [Address: CLID=0x1 Type=0xa000000]  DataObject
Explorer             INFO | +--> /Prev5 [Address: CLID=0x1 Type=0xa000000]  DataObject
Explorer             INFO | | +--> /DAQ [Address: CLID=0x1 Type=0xa000000]  DataObject
Explorer             INFO | |   +--> /RawEvent [Address: CLID=0x3ea Type=0xa000000]  LHCb::RawEvent
Explorer             INFO | +--> /Prev4 [Address: CLID=0x1 Type=0xa000000]  DataObject
Explorer             INFO | | +--> /DAQ [Address: CLID=0x1 Type=0xa000000]  DataObject
Explorer             INFO | |   +--> /RawEvent [Address: CLID=0x3ea Type=0xa000000]  LHCb::RawEvent
Explorer             INFO | +--> /Prev3 [Address: CLID=0x1 Type=0xa000000]  DataObject
Explorer             INFO | | +--> /DAQ [Address: CLID=0x1 Type=0xa000000]  DataObject
Explorer             INFO | |   +--> /RawEvent [Address: CLID=0x3ea Type=0xa000000]  LHCb::RawEvent
Explorer             INFO | +--> /Prev2 [Address: CLID=0x1 Type=0xa000000]  DataObject
Explorer             INFO | | +--> /DAQ [Address: CLID=0x1 Type=0xa000000]  DataObject
Explorer             INFO | |   +--> /RawEvent [Address: CLID=0x3ea Type=0xa000000]  LHCb::RawEvent
Explorer             INFO | +--> /Prev1 [Address: CLID=0x1 Type=0xa000000]  DataObject
Explorer             INFO | | +--> /DAQ [Address: CLID=0x1 Type=0xa000000]  DataObject
Explorer             INFO | |   +--> /RawEvent [Address: CLID=0x3ea Type=0xa000000]  LHCb::RawEvent
Explorer             INFO | +--> /DAQ [Address: CLID=0x1 Type=0xa000000]  DataObject
Explorer             INFO | | +--> /RawEvent [Address: CLID=0x3ea Type=0xa000000]  LHCb::RawEvent
Explorer             INFO | +--> /Next1 [Address: CLID=0x1 Type=0xa000000]  DataObject
Explorer             INFO | | +--> /DAQ [Address: CLID=0x1 Type=0xa000000]  DataObject
Explorer             INFO | |   +--> /RawEvent [Address: CLID=0x3ea Type=0xa000000]  LHCb::RawEvent
Explorer             INFO | +--> /Next2 [Address: CLID=0x1 Type=0xa000000]  DataObject
Explorer             INFO | | +--> /DAQ [Address: CLID=0x1 Type=0xa000000]  DataObject
Explorer             INFO | |   +--> /RawEvent [Address: CLID=0x3ea Type=0xa000000]  LHCb::RawEvent
Explorer             INFO | +--> /Next3 [Address: CLID=0x1 Type=0xa000000]  DataObject
Explorer             INFO | | +--> /DAQ [Address: CLID=0x1 Type=0xa000000]  DataObject
Explorer             INFO | |   +--> /RawEvent [Address: CLID=0x3ea Type=0xa000000]  LHCb::RawEvent
Explorer             INFO | +--> /Next4 [Address: CLID=0x1 Type=0xa000000]  DataObject
Explorer             INFO | | +--> /DAQ [Address: CLID=0x1 Type=0xa000000]  DataObject
Explorer             INFO | |   +--> /RawEvent [Address: CLID=0x3ea Type=0xa000000]  LHCb::RawEvent
Explorer             INFO   +--> /Next5 [Address: CLID=0x1 Type=0xa000000]  DataObject
Explorer             INFO     +--> /DAQ [Address: CLID=0x1 Type=0xa000000]  DataObject
Explorer             INFO       +--> /RawEvent [Address: CLID=0x3ea Type=0xa000000]  LHCb::RawEvent
EventSelector     SUCCESS Reading Event record 201. Record number within stream 1: 201
EventSelector     SUCCESS Reading Event record 401. Record number within stream 1: 401
EventSelector     SUCCESS Reading Event record 601. Record number within stream 1: 601
EventSelector     SUCCESS Reading Event record 801. Record number within stream 1: 801
EventSelector     SUCCESS Reading Event record 1001. Record number within stream 1: 1001
EventSelector     SUCCESS Reading Event record 1201. Record number within stream 1: 1201
EventSelector     SUCCESS Reading Event record 1401. Record number within stream 1: 1401
EventSelector     SUCCESS Reading Event record 1601. Record number within stream 1: 1601
EventSelector     SUCCESS Reading Event record 1801. Record number within stream 1: 1801
EventSelector     SUCCESS Reading Event record 2001. Record number within stream 1: 2001
EventSelector     SUCCESS Reading Event record 2201. Record number within stream 1: 2201
EventSelector     SUCCESS Reading Event record 2401. Record number within stream 1: 2401
EventSelector     SUCCESS Reading Event record 2601. Record number within stream 1: 2601
EventSelector     SUCCESS Reading Event record 2801. Record number within stream 1: 2801
EventSelector.D...   INFO Cannot read more data  (Header). End-of-File reached.
EventLoopMgr         INFO No more events in event selection
+-------------------> Finished processing events
ApplicationMgr       INFO Application Manager Stopped successfully
TAEMini              INFO Events output: 3000
EventLoopMgr         INFO Histograms converted successfully according to request.
ToolSvc              INFO Removing all tools created by ToolSvc
RootCnvSvc           INFO Disconnected data IO:BA4F204E-627C-E311-A59D-02163E00A623 [taeROOT.dat]
*****Chrono*****     INFO ****************************************************************************************************
*****Chrono*****     INFO  The Final CPU consumption ( Chrono ) Table (ordered)
*****Chrono*****     INFO ****************************************************************************************************
Explorer:Stop        INFO Time User   : Tot=    0 [us]                                             #=  1
TAEMini:Start        INFO Time User   : Tot=    0 [us]                                             #=  1
TAEMini:Stop         INFO Time User   : Tot=    0 [us]                                             #=  1
Explorer:Start       INFO Time User   : Tot=    0 [us]                                             #=  1
Dump:Finalize        INFO Time User   : Tot=    0 [us]                                             #=  1
Dump:Stop            INFO Time User   : Tot=    0 [us]                                             #=  1
Dump:Start           INFO Time User   : Tot=    0 [us]                                             #=  1
Explorer:Finalize    INFO Time User   : Tot=    0 [us]                                             #=  1
Dump:Initialize      INFO Time User   : Tot=    0 [us]                                             #=  1
TAEMini:Finalize     INFO Time User   : Tot=    0 [us]                                             #=  1
Explorer:Initia...   INFO Time User   : Tot=    0 [us]                                             #=  1
Explorer:Execute     INFO Time User   : Tot=   30 [ms] Ave/Min/Max= 0.01(+-0.316)/    0/   10 [ms] #=3000
TAEMini:Initialize   INFO Time User   : Tot=   60 [ms]                                             #=  1
Dump:Execute         INFO Time User   : Tot=  430 [ms] Ave/Min/Max=0.143(+- 1.19)/    0/   10 [ms] #=3000
TAEMini:Execute      INFO Time User   : Tot= 1.38  [s] Ave/Min/Max=0.00046(+-0.0025)/    0/ 0.08  [s] #=3000
*****Chrono*****     INFO ****************************************************************************************************
ChronoStatSvc.f...   INFO  Service finalized successfully
ApplicationMgr       INFO Application Manager Finalized successfully
ApplicationMgr       INFO Application Manager Terminated successfully
