Test output:
INFO     RTL                   +++ TaskDB server: localhost:#HOST#/TDBDATA/XMLRPC REACHABLE.
INFO     RTL                   +++ Successfully tested TaskDB server. ret = 0
INFO     RTL                   +++ Started TaskDB server TDBSRV_0x######## on host:#HOST# port:####
INFO     RTL                   +++ All processes finished work...
==== Server log:
INFO     RTL                   Running HTTP xmlrpc service on http://localhost:####/TDBDATA/XMLRPC with 0 additional threads.
==== Client log:
+-------------------------------------------------------------------
| Executing: taskdb_task -match=* -host=localhost -port=####
+-------------------------------------------------------------------
Task: name:        AA_Test
      utgid:       AA_Test
      command:     <SCRIPTS>/test.sh
      params:      -none
      submit:      -none
      restart:     -K 120 -M 5 -X 300
      description: Please do not delete! ----------------------------------- Dummy Task to test TaskDBCheck and TaskDBCache. Nothing serious behind. Any implementation should not go beyond sleep.....
Task: name:        AMQWatch
      utgid:       AMQWatch
      command:     <SCRIPTS>/AMQWatch.sh
      params:
      submit:      -E /dev/shm/logs.dev -O /dev/shm/logs.dev -p 0 -g onliners -n online
      restart:     -K 120 -M 5 -X 300
      description:
Task: name:        ActiveMQ
      utgid:       ActiveMQ
      command:     <SCRIPTS>/ActiveMQ.sh
      params:      ecs03
      submit:      -E /dev/shm/logs.dev -O /dev/shm/logs.dev -p 0 -g onliners -n online
      restart:     -K 120 -M 5 -X 300
      description:
Task: name:        CCPCReset
      utgid:       CCPCReset
      command:     /home/beat/CCPCReset-Linux/ccpcreset.sh
      params:
      submit:      -E /run/fmc/logSrv.fifo -O /run/fmc/logSrv.fifo -p 0 -g root -n root
      restart:     -K 120 -M 5 -X 300
      description: Reset Program for Credit-Card PCs
Task: name:        ConditionsPush
      utgid:       ConditionsPush
      command:     <SCRIPTS>/ConditionsPush.sh
      params:
      submit:      -E /dev/shm/logs.dev -O /dev/shm/logs.dev -p 0 -g onliners -n online
      restart:     -K 120 -M 5 -X 300
      description: RUN3: Task pushing new conditions to gitlab
Task: name:        DidServer
      utgid:       DidServer
      command:     <SCRIPTS>/DidServer.sh
      params:
      submit:      -E /dev/shm/logs.dev -O /dev/shm/logs.dev -p 0 -g onliners -n online
      restart:     -K 120 -M 5 -X 300
      description:
Task: name:        ElogExtract
      utgid:       ElogExtract
      command:     <SCRIPTS>/elog_extract.py
      params:
      submit:      -E /dev/shm/logs.dev -O /dev/shm/logs.dev -p 0 -g onliners -n online
      restart:     -K 120 -M 5 -X 300
      description: RUN3: ELOG to ActiveMQ data extractor
Task: name:        ElogPublish
      utgid:       ElogPublish
      command:     <SCRIPTS>/elog_publish.sh ecs04
      params:
      submit:      -E /dev/shm/logs.dev -O /dev/shm/logs.dev -p 0 -g onliners -n online
      restart:     -K 120 -M 5 -X 300
      description:
Task: name:        FarmStatSrv_0
      utgid:       FarmStatSrv_0
      command:     <SCRIPTS>/FarmStatSrv.sh
      params:      -target=fmc01 -mbm
      submit:      -E /dev/shm/logs.dev -O /dev/shm/logs.dev -p 0 -g onliners -n online
      restart:     -K 120 -M 5 -X 300
      description:
Task: name:        FarmStatSrv_1
      utgid:       FarmStatSrv_1
      command:     <SCRIPTS>/FarmStatSrv.sh
      params:      -target=fmc01 -mbm
      submit:      -E /dev/shm/logs.dev -O /dev/shm/logs.dev -p 0 -g onliners -n online
      restart:     -K 120 -M 5 -X 300
      description:
Task: name:        FileStatistics
      utgid:       FileStatistics
      command:     <SCRIPTS>/FileStatistics.sh
      params:
      submit:      -E /dev/shm/logs.dev -O /dev/shm/logs.dev -p 0 -g onliners -n online
      restart:     -K 120 -M 5 -X 300
      description: Kafka message publisher for messages produced on the local node
Task: name:        HistogramAdder
      utgid:       HistogramAdder
      command:     <SCRIPTS>/HistogramAdder.sh
      params:
      submit:      -E /dev/shm/logs.dev -O /dev/shm/logs.dev -p 0 -g onliners -n online
      restart:     -K 120 -M 5 -X 300
      description: RUN3: Generic Histogram adder task
Task: name:        HistogramAdderLogs
      utgid:       HistogramAdderLogs
      command:     <SCRIPTS>/HistogramAdderLogs.sh
      params:
      submit:      -E /dev/shm/logs.dev -O /dev/shm/logs.dev -p 0 -g onliners -n online
      restart:     -K 120 -M 5 -X 300
      description: RUN3: Generic Histogram adder task log file collector
Task: name:        HistogramServer
      utgid:       HistogramServer
      command:     <SCRIPTS>/HistogramServer.sh
      params:
      submit:      -E /dev/shm/logs.dev -O /dev/shm/logs.dev -p 0 -g onliners -n online
      restart:     -K 120 -M 5 -X 300
      description: RUN3: Generic Histogram server for monitoring
Task: name:        LogDef
      utgid:       LogDef
      command:     <SCRIPTS>/LogCollect.sh
      params:      -l 3 -s fmc -o /run/fmc/logsum.fifo
      submit:      -E /run/fmc/logSrv.fifo -O /run/fmc/logSrv.fifo -p 0 -g onliners -n online
      restart:     -K 120 -M 5 -X 300
      description:
Task: name:        LogDefaultSrv
      utgid:       LogDefaultSrv
      command:     <SCRIPTS>/LogServer.sh
      params:      ECS03 -S 100 -l 1 -s default -p /tmp/logSrv.fifo
      submit:      -E /run/fmc/logSrv.fifo -O /run/fmc/logSrv.fifo -p 0 -g onliners -n online
      restart:     -K 120 -M 5 -X 300
      description:
Task: name:        LogGaudi
      utgid:       LogGaudi
      command:     <SCRIPTS>/LogCollect.sh
      params:      -l 1 -s gaudi -o /run/fmc/gaudisum.fifo
      submit:      -E /run/fmc/logSrv.fifo -O /run/fmc/logSrv.fifo -p 0 -g onliners -n online
      restart:     -K 120 -M 5 -X 300
      description: Gaudi output logger
Task: name:        LogGaudiSrv
      utgid:       LogGaudiSrv
      command:     <SCRIPTS>/LogServer.sh
      params:      <DIM_DNS> -S 100 -l 1 -s gaudi -p /run/fmc/logGaudi.fifo
      submit:      -E /run/fmc/logSrv.fifo -O /run/fmc/logSrv.fifo -p 0 -g onliners -n online
      restart:     -K 120 -M 5 -X 300
      description: Gaudi output logger
Task: name:        NodeDns
      utgid:       NodeDns
      command:     /usr/local/bin/dns
      params:
      submit:      -E /run/fmc/logSrv.fifo -O /run/fmc/logSrv.fifo -p 0 -g online -n online
      restart:     -K 120 -M 5 -X 300
      description:
Task: name:        NodeElastic
      utgid:       NodeElastic
      command:     <SCRIPTS>/NodeElastic.sh
      params:
      submit:      -E /dev/shm/logs.dev -O /dev/shm/logs.dev -p 0 -g onliners -n online
      restart:     -K 120 -M 5 -X 300
      description: Elastic search message publisher for messages produced on the local node
Task: name:        NodeKafka
      utgid:       NodeKafka
      command:     <SCRIPTS>/NodeKafka.sh
      params:
      submit:      -E /dev/shm/logs.dev -O /dev/shm/logs.dev -p 0 -g onliners -n online
      restart:     -K 120 -M 5 -X 300
      description: Kafka message publisher for messages produced on the local node
Task: name:        NodeLogPublish
      utgid:       NodeLogPublish
      command:     <SCRIPTS>/NodeLogPublish.sh
      params:
      submit:      -E /dev/shm/logs.dev -O /dev/shm/logs.dev -p 0 -g onliners -n online
      restart:     -K 120 -M 5 -X 300
      description: Kafka message publisher to top level logger for messages produced on the local node
Task: name:        NodeLogger
      utgid:       NodeLogger
      command:     <SCRIPTS>/NodeLogger.sh
      params:
      submit:      -E /run/fmc/logSrv.fifo -O /run/fmc/logSrv.fifo -p 0 -g onliners -n online
      restart:     -K 120 -M 5 -X 300
      description: Kafka message publisher for messages produced on the local node
Task: name:        OrbitedSrv
      utgid:       OrbitedSrv
      command:     <SCRIPTS>/OrbitedSrv.sh
      params:      orbited/orbited.activeMQ.0.cfg
      submit:      -E /dev/shm/logs.dev -O /dev/shm/logs.dev -p 0 -g onliners -n online
      restart:     -K 120 -M 5 -X 300
      description:
Task: name:        PropertyInfo
      utgid:       PropertyInfo
      command:     <SCRIPTS>/PropertyInfo.sh
      params:
      submit:      -E /dev/shm/logs.dev -O /dev/shm/logs.dev -p 0 -g onliners -n online
      restart:     -K 120 -M 5 -X 300
      description:
Task: name:        PropertyServer
      utgid:       PropertyServer
      command:     <SCRIPTS>/PropertyServer.sh
      params:
      submit:      -E /dev/shm/logs.dev -O /dev/shm/logs.dev -p 0 -g onliners -n online
      restart:     -K 120 -M 5 -X 300
      description:
Task: name:        ROLogBridge
      utgid:       ROLogBridge
      command:     <SCRIPTS>/ROLogBridge.sh
      params:
      submit:      -E /dev/shm/logs.dev -O /dev/shm/logs.dev -p 0 -g onliners -n online -DMATCHES=OTHER
      restart:     -K 120 -M 5 -X 300
      description: Kafka message bridge
Task: name:        ROLogBridge_DAQ
      utgid:       ROLogBridge_DAQ
      command:     <SCRIPTS>/ROLogBridge.sh
      params:
      submit:      -E /dev/shm/logs.dev -O /dev/shm/logs.dev -p 0 -g onliners -n online -DMATCHES=DAQ
      restart:     -K 120 -M 5 -X 300
      description: Kafka message bridge
Task: name:        ROLogBridge_HLT2
      utgid:       ROLogBridge_HLT2
      command:     <SCRIPTS>/ROLogBridge.sh
      params:
      submit:      -E /dev/shm/logs.dev -O /dev/shm/logs.dev -p 0 -g onliners -n online -DMATCHES=HLT2
      restart:     -K 120 -M 5 -X 300
      description: Kafka message bridge
Task: name:        ROLogBridge_HLT6
      utgid:       ROLogBridge_HLT6
      command:     <SCRIPTS>/ROLogBridge.sh
      params:
      submit:      -E /dev/shm/logs.dev -O /dev/shm/logs.dev -p 0 -g onliners -n online -DMATCHES=HLT6
      restart:     -K 120 -M 5 -X 300
      description: Kafka message bridge
Task: name:        RObridge
      utgid:       RObridge
      command:     <SCRIPTS>/ROBridge.sh
      params:
      submit:      -E /dev/shm/logs.dev -O /dev/shm/logs.dev -p 0 -g onliners -n online
      restart:     -K 120 -M 5 -X 300
      description: Kafka message publisher for messages produced on the local node
Task: name:        ROcollect
      utgid:       ROcollect
      command:     <SCRIPTS>/ROcollect.sh
      params:
      submit:      -E /dev/shm/logs.dev -O /dev/shm/logs.dev -p 0 -g root -n root
      restart:     -K 120 -M 5 -X 300
      description:
Task: name:        ROlogger
      utgid:       ROlogger
      command:     <SCRIPTS>/ROLogger.sh
      params:
      submit:      -E /dev/shm/logs.dev -O /dev/shm/logs.dev -p 0 -g onliners -n online
      restart:     -K 120 -M 5 -X 300
      description: Kafka message publisher for messages produced on the local node
Task: name:        ROpublish
      utgid:       ROpublish
      command:     <SCRIPTS>/ROpublish.sh
      params:      <TOP_LOGGER> -statDelay=8000 -mbmDelay=1376
      submit:      -E /dev/shm/logs.dev -O /dev/shm/logs.dev -p 0 -g onliners -n online
      restart:     -K 120 -M 5 -X 300
      description:
Task: name:        ROpublish_DATAFLOW
      utgid:       ROpublish_DATAFLOW
      command:     <SCRIPTS>/ROpublish.sh
      params:      <TOP_LOGGER> -statDelay=8000 -mbmDelay=1376
      submit:      -E /dev/shm/logs.dev -O /dev/shm/logs.dev -p 0 -g onliners -n online -DEB_MATCH=DATAFLOW
      restart:     -K 120 -M 5 -X 300
      description:
Task: name:        ROpublish_RICH
      utgid:       ROpublish_RICH
      command:     <SCRIPTS>/ROpublish.sh
      params:      <TOP_LOGGER> -statDelay=8000 -mbmDelay=1376
      submit:      -E /dev/shm/logs.dev -O /dev/shm/logs.dev -p 0 -g onliners -n online -DEB_MATCH=RICH
      restart:     -K 120 -M 5 -X 300
      description:
Task: name:        ROpublish_SCIFI
      utgid:       ROpublish_SCIFI
      command:     <SCRIPTS>/ROpublish.sh
      params:      <TOP_LOGGER> -statDelay=8000 -mbmDelay=1376
      submit:      -E /dev/shm/logs.dev -O /dev/shm/logs.dev -p 0 -g onliners -n online -DEB_MATCH=SCIFI
      restart:     -K 120 -M 5 -X 300
      description:
Task: name:        ROpublish_SMALL
      utgid:       ROpublish_SMALL
      command:     <SCRIPTS>/ROpublish.sh
      params:      <TOP_LOGGER> -statDelay=8000 -mbmDelay=1376
      submit:      -E /dev/shm/logs.dev -O /dev/shm/logs.dev -p 0 -g onliners -n online -DEB_MATCH=SMALL
      restart:     -K 120 -M 5 -X 300
      description:
Task: name:        ROpublish_UT
      utgid:       ROpublish_UT
      command:     <SCRIPTS>/ROpublish.sh
      params:      <TOP_LOGGER> -statDelay=8000 -mbmDelay=1376
      submit:      -E /dev/shm/logs.dev -O /dev/shm/logs.dev -p 0 -g onliners -n online -DEB_MATCH=UT
      restart:     -K 120 -M 5 -X 300
      description:
Task: name:        ROpublish_VELO
      utgid:       ROpublish_VELO
      command:     <SCRIPTS>/ROpublish.sh
      params:      <TOP_LOGGER> -statDelay=8000 -mbmDelay=1376
      submit:      -E /dev/shm/logs.dev -O /dev/shm/logs.dev -p 0 -g onliners -n online -DEB_MATCH=VELO
      restart:     -K 120 -M 5 -X 300
      description:
Task: name:        Slice00_Srv
      utgid:       Slice00_Srv
      command:     <SCRIPTS>/LogServer.sh
      params:      ECS03 -S 100 -l 1 -s MonitoringSlice00 -p /dev/shm/Slice00.fifo
      submit:      -E /run/fmc/logSrv.fifo -O /run/fmc/logSrv.fifo -p 0 -g onliners -n online
      restart:     -K 120 -M 5 -X 300
      description:
Task: name:        StatusMQTT
      utgid:       StatusMQTT
      command:     <SCRIPTS>/StompSrv.sh
      params:      ecs04 -topic=/topic/item -protocol=MQTT
      submit:      -E /dev/shm/logs.dev -O /dev/shm/logs.dev -p 0 -g onliners -n online
      restart:     -K 120 -M 5 -X 300
      description:
Task: name:        StatusStomp
      utgid:       StatusStomp
      command:     <SCRIPTS>/StompSrv.sh
      params:      ecs04 -topic=/topic/status -protocol=AMQ
      submit:      -E /dev/shm/logs.dev -O /dev/shm/logs.dev -p 0 -g onliners -n online
      restart:     -K 120 -M 5 -X 300
      description:
Task: name:        StorageFS
      utgid:       StorageFS
      command:     <SCRIPTS>/StorageFS.sh
      params:
      submit:      -E /dev/shm/logs.dev -O /dev/shm/logs.dev -p 0 -g onliners -n online
      restart:     -K 120 -M 5 -X 300
      description: NFS Storage server
Task: name:        TANServ
      utgid:       TANServ
      command:     <SCRIPTS>/TanServ.sh
      params:
      submit:      -E /dev/shm/logs.dev -O /dev/shm/logs.dev -p 0 -g onliners -n online
      restart:     -K 120 -M 5 -X 300
      description:
Task: name:        TFCOpcServer
      utgid:       TFCOPC
      command:     /home/beat/TFCOpcServer.sh
      params:
      submit:      -E /run/fmc/logSrv.fifo -O /run/fmc/logSrv.fifo -p 0 -g root -n root
      restart:     -K 120 -M 5 -X 300
      description: OPC Server for TFC Crate CCPC
Task: name:        TaskDBCache
      utgid:       TaskDBCache
      command:     <SCRIPTS>/TaskDBCacheSrv.sh
      params:      -port=####
      submit:      -E /dev/shm/logs.dev -O /dev/shm/logs.dev -p 0 -g onliners -n online
      restart:     -K 120 -M 5 -X 300
      description: Task DB relay cache (read-only)
Task: name:        TaskDBCache1
      utgid:       TaskDBCache1
      command:     <SCRIPTS>/TaskDBCacheSrv.sh
      params:      -port=####
      submit:      -E /dev/shm/logs.dev -O /dev/shm/logs.dev -p 0 -g onliners -n online
      restart:     -K 120 -M 5 -X 300
      description: Task DB relay cache (read-only)
Task: name:        TaskDBCache2
      utgid:       TaskDBCache2
      command:     <SCRIPTS>/TaskDBCacheSrv.sh
      params:      -port=####
      submit:      -E /dev/shm/logs.dev -O /dev/shm/logs.dev -p 0 -g onliners -n online
      restart:     -K 120 -M 5 -X 300
      description: Task DB relay cache (read-only)
Task: name:        TaskDBCache3
      utgid:       TaskDBCache3
      command:     <SCRIPTS>/TaskDBCacheSrv.sh
      params:      -port=####
      submit:      -E /dev/shm/logs.dev -O /dev/shm/logs.dev -p 0 -g onliners -n online
      restart:     -K 120 -M 5 -X 300
      description: Task DB relay cache (read-only)
Task: name:        TaskDBCache4
      utgid:       TaskDBCache4
      command:     <SCRIPTS>/TaskDBCacheSrv.sh
      params:      -port=####
      submit:      -E /dev/shm/logs.dev -O /dev/shm/logs.dev -p 0 -g onliners -n online
      restart:     -K 120 -M 5 -X 300
      description: Task DB relay cache (read-only)
Task: name:        TaskSupervisor
      utgid:       TaskSupervisor
      command:     <SCRIPTS>/TaskSupervisor.sh
      params:
      submit:      -E /dev/shm/logs.dev -O /dev/shm/logs.dev -p 0 -g onliners -n online
      restart:     -K 120 -M 5 -X 300
      description:
Task: name:        TaskSupervisor_DATAFLOW
      utgid:       TaskSupervisor_DATAFLOW
      command:     <SCRIPTS>/TaskSupervisor.sh
      params:
      submit:      -E /dev/shm/logs.dev -O /dev/shm/logs.dev -p 0 -g onliners -n online -DCONFIG_GROUP=DATAFLOW
      restart:     -K 120 -M 5 -X 300
      description: RUN3: EventbuilderAdder task supervisor
Task: name:        TaskSupervisor_RICH
      utgid:       TaskSupervisor_RICH
      command:     <SCRIPTS>/TaskSupervisor.sh
      params:
      submit:      -E /dev/shm/logs.dev -O /dev/shm/logs.dev -p 0 -g onliners -n online -DCONFIG_GROUP=EBRICH
      restart:     -K 120 -M 5 -X 300
      description: RUN3: RICH 1 Eventbuilder task supervisor
Task: name:        TaskSupervisor_SCIFI
      utgid:       TaskSupervisor_SCIFI
      command:     <SCRIPTS>/TaskSupervisor.sh
      params:
      submit:      -E /dev/shm/logs.dev -O /dev/shm/logs.dev -p 0 -g onliners -n online -DCONFIG_GROUP=EBSCIFI
      restart:     -K 120 -M 5 -X 300
      description: RUN3: SicFi SIde A Eventbuilder task supervisor
Task: name:        TaskSupervisor_SMALL
      utgid:       TaskSupervisor_SMALL
      command:     <SCRIPTS>/TaskSupervisor.sh
      params:
      submit:      -E /dev/shm/logs.dev -O /dev/shm/logs.dev -p 0 -g onliners -n online -DCONFIG_GROUP=EBSMALL
      restart:     -K 120 -M 5 -X 300
      description: RUN3: UT Side C Eventbuilder task supervisor
Task: name:        TaskSupervisor_UT
      utgid:       TaskSupervisor_UT
      command:     <SCRIPTS>/TaskSupervisor.sh
      params:
      submit:      -E /dev/shm/logs.dev -O /dev/shm/logs.dev -p 0 -g onliners -n online -DCONFIG_GROUP=EBUT
      restart:     -K 120 -M 5 -X 300
      description: RUN3: UT Side C Eventbuilder task supervisor
Task: name:        TaskSupervisor_VELO
      utgid:       TaskSupervisor_VELO
      command:     <SCRIPTS>/TaskSupervisor.sh
      params:
      submit:      -E /dev/shm/logs.dev -O /dev/shm/logs.dev -p 0 -g onliners -n online -DCONFIG_GROUP=EBVELO
      restart:     -K 120 -M 5 -X 300
      description: RUN3: VP Side A Eventbuilder task supervisor
Task: name:        diracmon
      utgid:       diracmon
      command:     /group/online/dataflow/scripts/diracmon.sh
      params:
      submit:      -E /run/fmc/logSrv.fifo -O /run/fmc/logSrv.fifo -p 0 -g root -n root
      restart:     -K 120 -M 5 -X 300
      description:
Task: name:        flukamon
      utgid:       flukamon
      command:     /home/beat/scripts/flukamon.sh
      params:
      submit:      -E /run/fmc/logSrv.fifo -O /run/fmc/logSrv.fifo -p 0 -g root -n root
      restart:     -K 120 -M 5 -X 300
      description:
Task: name:        fmcLog
      utgid:       fmcLog
      command:     <SCRIPTS>/LogServer.sh
      params:      <DIM_DNS> -S 100 -l 1 -s default -p /tmp/logSrv.fifo
      submit:      -E /run/fmc/logSrv.fifo -O /run/fmc/logSrv.fifo -p 0 -g onliners -n online
      restart:     -K 120 -M 5 -X 300
      description:
Task: name:        ipmi_aseb
      utgid:       ipmi_aseb
      command:     /home/beat/ipmistart.sh
      params:      -c /home/beat/IPMIConfigs-test/ipmi_aseb.config -n ipmi_aseb -p /FMC
      submit:      -E /dev/shm/logs.dev -O /dev/shm/logs.dev -g root -p 0 -n root
      restart:     -K 120 -M 5 -X 300
      description: IPMI Server for farm aseb
Task: name:        ipmi_cieb
      utgid:       ipmi_cieb
      command:     /home/beat/ipmistart.sh
      params:      -c /home/beat/IPMIConfigs-test/ipmi_cieb.config -n ipmi_cieb -p /FMC
      submit:      -E /dev/shm/logs.dev -O /dev/shm/logs.dev -g root -p 0 -n root
      restart:     -K 120 -M 5 -X 300
      description: IPMI Server for farm cieb
Task: name:        ipmi_eceb
      utgid:       ipmi_eceb
      command:     /home/beat/ipmistart.sh
      params:      -c /home/beat/IPMIConfigs-test/ipmi_eceb.config -n ipmi_eceb -p /FMC
      submit:      -E /dev/shm/logs.dev -O /dev/shm/logs.dev -g root -p 0 -n root
      restart:     -K 120 -M 5 -X 300
      description: IPMI Server for farm eceb
Task: name:        ipmi_hceb
      utgid:       ipmi_hceb
      command:     /home/beat/ipmistart.sh
      params:      -c /home/beat/IPMIConfigs-test/ipmi_hceb.config -n ipmi_hceb -p /FMC
      submit:      -E /dev/shm/logs.dev -O /dev/shm/logs.dev -g root -p 0 -n root
      restart:     -K 120 -M 5 -X 300
      description: IPMI Server for farm hceb
Task: name:        ipmi_hlt141
      utgid:       ipmi_hlt141
      command:     /home/beat/ipmistart.sh
      params:      -c /home/beat/IPMIConfigs-test/ipmi_hlt141.config -n ipmi_hlt141 -p /FMC
      submit:      -E /dev/shm/logs.dev -O /dev/shm/logs.dev -g root -p 0 -n root
      restart:     -K 120 -M 5 -X 300
      description: IPMI Server for farm hlt141
Task: name:        ipmi_hlt142
      utgid:       ipmi_hlt142
      command:     /home/beat/ipmistart.sh
      params:      -c /home/beat/IPMIConfigs-test/ipmi_hlt142.config -n ipmi_hlt142 -p /FMC
      submit:      -E /dev/shm/logs.dev -O /dev/shm/logs.dev -g root -p 0 -n root
      restart:     -K 120 -M 5 -X 300
      description: IPMI Server for farm hlt142
Task: name:        ipmi_hlt201
      utgid:       ipmi_hlt201
      command:     /home/beat/ipmistart.sh
      params:      -c /home/beat/IPMIConfigs-test/ipmi_hlt201.config -n ipmi_hlt201 -p /FMC
      submit:      -E /dev/shm/logs.dev -O /dev/shm/logs.dev -g root -p 0 -n root
      restart:     -K 120 -M 5 -X 300
      description: IPMI Server for farm hlt201
Task: name:        ipmi_hlt202
      utgid:       ipmi_hlt202
      command:     /home/beat/ipmistart.sh
      params:      -c /home/beat/IPMIConfigs-test/ipmi_hlt202.config -n ipmi_hlt202 -p /FMC
      submit:      -E /dev/shm/logs.dev -O /dev/shm/logs.dev -g root -p 0 -n root
      restart:     -K 120 -M 5 -X 300
      description: IPMI Server for farm hlt202
Task: name:        ipmi_hlt202-good
      utgid:       ipmi_hlt202
      command:     /home/beat/ipmistart.sh
      params:      -c /home/beat/IPMIConfigs-test/ipmi_hlt202.config -n ipmi_hlt202 -p /FMC
      submit:      -E /dev/shm/logs.dev -O /dev/shm/logs.dev -g root -p 0 -n root
      restart:     -K 120 -M 5 -X 300
      description: IPMI Server for farm hlt202
Task: name:        ipmi_hlt203
      utgid:       ipmi_hlt203
      command:     /home/beat/ipmistart.sh
      params:      -c /home/beat/IPMIConfigs-test/ipmi_hlt203.config -n ipmi_hlt203 -p /FMC
      submit:      -E /dev/shm/logs.dev -O /dev/shm/logs.dev -g root -p 0 -n root
      restart:     -K 120 -M 5 -X 300
      description: IPMI Server for farm hlt203
Task: name:        ipmi_hlt204
      utgid:       ipmi_hlt204
      command:     /home/beat/ipmistart.sh
      params:      -c /home/beat/IPMIConfigs-test/ipmi_hlt204.config -n ipmi_hlt204 -p /FMC
      submit:      -E /dev/shm/logs.dev -O /dev/shm/logs.dev -g root -p 0 -n root
      restart:     -K 120 -M 5 -X 300
      description: IPMI Server for farm hlt204
Task: name:        ipmi_hlt205
      utgid:       ipmi_hlt205
      command:     /home/beat/ipmistart.sh
      params:      -c /home/beat/IPMIConfigs-test/ipmi_hlt205.config -n ipmi_hlt205 -p /FMC
      submit:      -E /dev/shm/logs.dev -O /dev/shm/logs.dev -g root -p 0 -n root
      restart:     -K 120 -M 5 -X 300
      description: IPMI Server for farm hlt205
Task: name:        ipmi_hlt206
      utgid:       ipmi_hlt206
      command:     /home/beat/ipmistart.sh
      params:      -c /home/beat/IPMIConfigs-test/ipmi_hlt206.config -n ipmi_hlt206 -p /FMC
      submit:      -E /dev/shm/logs.dev -O /dev/shm/logs.dev -g root -p 0 -n root
      restart:     -K 120 -M 5 -X 300
      description: IPMI Server for farm hlt206
Task: name:        ipmi_hlt207
      utgid:       ipmi_hlt207
      command:     /home/beat/ipmistart.sh
      params:      -c /home/beat/IPMIConfigs-test/ipmi_hlt207.config -n ipmi_hlt207 -p /FMC
      submit:      -E /dev/shm/logs.dev -O /dev/shm/logs.dev -g root -p 0 -n root
      restart:     -K 120 -M 5 -X 300
      description: IPMI Server for farm hlt207
Task: name:        ipmi_hlt208
      utgid:       ipmi_hlt208
      command:     /home/beat/ipmistart.sh
      params:      -c /home/beat/IPMIConfigs-test/ipmi_hlt208.config -n ipmi_hlt208 -p /FMC
      submit:      -E /dev/shm/logs.dev -O /dev/shm/logs.dev -g root -p 0 -n root
      restart:     -K 120 -M 5 -X 300
      description: IPMI Server for farm hlt208
Task: name:        ipmi_hlt209
      utgid:       ipmi_hlt209
      command:     /home/beat/ipmistart.sh
      params:      -c /home/beat/IPMIConfigs-test/ipmi_hlt209.config -n ipmi_hlt209 -p /FMC
      submit:      -E /dev/shm/logs.dev -O /dev/shm/logs.dev -g root -p 0 -n root
      restart:     -K 120 -M 5 -X 300
      description: IPMI Server for farm hlt209
Task: name:        ipmi_hlt210
      utgid:       ipmi_hlt210
      command:     /home/beat/ipmistart.sh
      params:      -c /home/beat/IPMIConfigs-test/ipmi_hlt210.config -n ipmi_hlt210 -p /FMC
      submit:      -E /dev/shm/logs.dev -O /dev/shm/logs.dev -g root -p 0 -n root
      restart:     -K 120 -M 5 -X 300
      description: IPMI Server for farm hlt210
Task: name:        ipmi_hlt211
      utgid:       ipmi_hlt211
      command:     /home/beat/ipmistart.sh
      params:      -c /home/beat/IPMIConfigs-test/ipmi_hlt211.config -n ipmi_hlt211 -p /FMC
      submit:      -E /dev/shm/logs.dev -O /dev/shm/logs.dev -g root -p 0 -n root
      restart:     -K 120 -M 5 -X 300
      description: IPMI Server for farm hlt211
Task: name:        ipmi_hlt212
      utgid:       ipmi_hlt212
      command:     /home/beat/ipmistart.sh
      params:      -c /home/beat/IPMIConfigs-test/ipmi_hlt212.config -n ipmi_hlt212 -p /FMC
      submit:      -E /dev/shm/logs.dev -O /dev/shm/logs.dev -g root -p 0 -n root
      restart:     -K 120 -M 5 -X 300
      description: IPMI Server for farm hlt212
Task: name:        ipmi_hlt213
      utgid:       ipmi_hlt213
      command:     /home/beat/ipmistart.sh
      params:      -c /home/beat/IPMIConfigs-test/ipmi_hlt213.config -n ipmi_hlt213 -p /FMC
      submit:      -E /dev/shm/logs.dev -O /dev/shm/logs.dev -g root -p 0 -n root
      restart:     -K 120 -M 5 -X 300
      description: IPMI Server for farm hlt213
Task: name:        ipmi_hlt214
      utgid:       ipmi_hlt214
      command:     /home/beat/ipmistart.sh
      params:      -c /home/beat/IPMIConfigs-test/ipmi_hlt214.config -n ipmi_hlt214 -p /FMC
      submit:      -E /dev/shm/logs.dev -O /dev/shm/logs.dev -g root -p 0 -n root
      restart:     -K 120 -M 5 -X 300
      description: IPMI Server for farm hlt214
Task: name:        ipmi_hlt215
      utgid:       ipmi_hlt215
      command:     /home/beat/ipmistart.sh
      params:      -c /home/beat/IPMIConfigs-test/ipmi_hlt215.config -n ipmi_hlt215 -p /FMC
      submit:      -E /dev/shm/logs.dev -O /dev/shm/logs.dev -g root -p 0 -n root
      restart:     -K 120 -M 5 -X 300
      description: IPMI Server for farm hlt215
Task: name:        ipmi_hlt216
      utgid:       ipmi_hlt216
      command:     /home/beat/ipmistart.sh
      params:      -c /home/beat/IPMIConfigs-test/ipmi_hlt216.config -n ipmi_hlt216 -p /FMC
      submit:      -E /dev/shm/logs.dev -O /dev/shm/logs.dev -g root -p 0 -n root
      restart:     -K 120 -M 5 -X 300
      description: IPMI Server for farm hlt216
Task: name:        ipmi_hlt217
      utgid:       ipmi_hlt217
      command:     /home/beat/ipmistart.sh
      params:      -c /home/beat/IPMIConfigs-test/ipmi_hlt217.config -n ipmi_hlt217 -p /FMC
      submit:      -E /dev/shm/logs.dev -O /dev/shm/logs.dev -g root -p 0 -n root
      restart:     -K 120 -M 5 -X 300
      description: IPMI Server for farm hlt217
Task: name:        ipmi_hlt218
      utgid:       ipmi_hlt218
      command:     /home/beat/ipmistart.sh
      params:      -c /home/beat/IPMIConfigs-test/ipmi_hlt218.config -n ipmi_hlt218 -p /FMC
      submit:      -E /dev/shm/logs.dev -O /dev/shm/logs.dev -g root -p 0 -n root
      restart:     -K 120 -M 5 -X 300
      description: IPMI Server for farm hlt218
Task: name:        ipmi_hlt219
      utgid:       ipmi_hlt219
      command:     /home/beat/ipmistart.sh
      params:      -c /home/beat/IPMIConfigs-test/ipmi_hlt219.config -n ipmi_hlt219 -p /FMC
      submit:      -E /dev/shm/logs.dev -O /dev/shm/logs.dev -g root -p 0 -n root
      restart:     -K 120 -M 5 -X 300
      description: IPMI Server for farm hlt219
Task: name:        ipmi_hlt220
      utgid:       ipmi_hlt220
      command:     /home/beat/ipmistart.sh
      params:      -c /home/beat/IPMIConfigs-test/ipmi_hlt220.config -n ipmi_hlt220 -p /FMC
      submit:      -E /dev/shm/logs.dev -O /dev/shm/logs.dev -g root -p 0 -n root
      restart:     -K 120 -M 5 -X 300
      description: IPMI Server for farm hlt220
Task: name:        ipmi_hlt221
      utgid:       ipmi_hlt221
      command:     /home/beat/ipmistart.sh
      params:      -c /home/beat/IPMIConfigs-test/ipmi_hlt221.config -n ipmi_hlt221 -p /FMC
      submit:      -E /dev/shm/logs.dev -O /dev/shm/logs.dev -g root -p 0 -n root
      restart:     -K 120 -M 5 -X 300
      description: IPMI Server for farm hlt221
Task: name:        ipmi_hlt222
      utgid:       ipmi_hlt222
      command:     /home/beat/ipmistart.sh
      params:      -c /home/beat/IPMIConfigs-test/ipmi_hlt222.config -n ipmi_hlt222 -p /FMC
      submit:      -E /dev/shm/logs.dev -O /dev/shm/logs.dev -g root -p 0 -n root
      restart:     -K 120 -M 5 -X 300
      description: IPMI Server for farm hlt222
Task: name:        ipmi_hlt225
      utgid:       ipmi_hlt225
      command:     /home/beat/ipmistart.sh
      params:      -c /home/beat/IPMIConfigs-test/ipmi_hlt225.config -n ipmi_hlt225 -p /FMC
      submit:      -E /dev/shm/logs.dev -O /dev/shm/logs.dev -g root -p 0 -n root
      restart:     -K 120 -M 5 -X 300
      description: IPMI Server for farm hlt225
Task: name:        ipmi_hlt226
      utgid:       ipmi_hlt226
      command:     /home/beat/ipmistart.sh
      params:      -c /home/beat/IPMIConfigs-test/ipmi_hlt226.config -n ipmi_hlt226 -p /FMC
      submit:      -E /dev/shm/logs.dev -O /dev/shm/logs.dev -g root -p 0 -n root
      restart:     -K 120 -M 5 -X 300
      description: IPMI Server for farm hlt226
Task: name:        ipmi_hlt227
      utgid:       ipmi_hlt227
      command:     /home/beat/ipmistart.sh
      params:      -c /home/beat/IPMIConfigs-test/ipmi_hlt227.config -n ipmi_hlt227 -p /FMC
      submit:      -E /dev/shm/logs.dev -O /dev/shm/logs.dev -g root -p 0 -n root
      restart:     -K 120 -M 5 -X 300
      description: IPMI Server for farm hlt227
Task: name:        ipmi_hlt228
      utgid:       ipmi_hlt228
      command:     /home/beat/ipmistart.sh
      params:      -c /home/beat/IPMIConfigs-test/ipmi_hlt228.config -n ipmi_hlt228 -p /FMC
      submit:      -E /dev/shm/logs.dev -O /dev/shm/logs.dev -g root -p 0 -n root
      restart:     -K 120 -M 5 -X 300
      description: IPMI Server for farm hlt228
Task: name:        ipmi_hlt229
      utgid:       ipmi_hlt229
      command:     /home/beat/ipmistart.sh
      params:      -c /home/beat/IPMIConfigs-test/ipmi_hlt229.config -n ipmi_hlt229 -p /FMC
      submit:      -E /dev/shm/logs.dev -O /dev/shm/logs.dev -g root -p 0 -n root
      restart:     -K 120 -M 5 -X 300
      description: IPMI Server for farm hlt229
Task: name:        ipmi_hlt230
      utgid:       ipmi_hlt230
      command:     /home/beat/ipmistart.sh
      params:      -c /home/beat/IPMIConfigs-test/ipmi_hlt230.config -n ipmi_hlt230 -p /FMC
      submit:      -E /dev/shm/logs.dev -O /dev/shm/logs.dev -g root -p 0 -n root
      restart:     -K 120 -M 5 -X 300
      description: IPMI Server for farm hlt230
Task: name:        ipmi_hlt231
      utgid:       ipmi_hlt231
      command:     /home/beat/ipmistart.sh
      params:      -c /home/beat/IPMIConfigs-test/ipmi_hlt231.config -n ipmi_hlt231 -p /FMC
      submit:      -E /dev/shm/logs.dev -O /dev/shm/logs.dev -g root -p 0 -n root
      restart:     -K 120 -M 5 -X 300
      description: IPMI Server for farm hlt231
Task: name:        ipmi_hlt232
      utgid:       ipmi_hlt232
      command:     /home/beat/ipmistart.sh
      params:      -c /home/beat/IPMIConfigs-test/ipmi_hlt232.config -n ipmi_hlt232 -p /FMC
      submit:      -E /dev/shm/logs.dev -O /dev/shm/logs.dev -g root -p 0 -n root
      restart:     -K 120 -M 5 -X 300
      description: IPMI Server for farm hlt232
Task: name:        ipmi_hlt233
      utgid:       ipmi_hlt233
      command:     /home/beat/ipmistart.sh
      params:      -c /home/beat/IPMIConfigs-test/ipmi_hlt233.config -n ipmi_hlt233 -p /FMC
      submit:      -E /dev/shm/logs.dev -O /dev/shm/logs.dev -g root -p 0 -n root
      restart:     -K 120 -M 5 -X 300
      description: IPMI Server for farm hlt233
Task: name:        ipmi_hlt234
      utgid:       ipmi_hlt234
      command:     /home/beat/ipmistart.sh
      params:      -c /home/beat/IPMIConfigs-test/ipmi_hlt234.config -n ipmi_hlt234 -p /FMC
      submit:      -E /dev/shm/logs.dev -O /dev/shm/logs.dev -g root -p 0 -n root
      restart:     -K 120 -M 5 -X 300
      description: IPMI Server for farm hlt234
Task: name:        ipmi_hlt235
      utgid:       ipmi_hlt235
      command:     /home/beat/ipmistart.sh
      params:      -c /home/beat/IPMIConfigs-test/ipmi_hlt235.config -n ipmi_hlt235 -p /FMC
      submit:      -E /dev/shm/logs.dev -O /dev/shm/logs.dev -g root -p 0 -n root
      restart:     -K 120 -M 5 -X 300
      description: IPMI Server for farm hlt235
Task: name:        ipmi_hlt236
      utgid:       ipmi_hlt236
      command:     /home/beat/ipmistart.sh
      params:      -c /home/beat/IPMIConfigs-test/ipmi_hlt236.config -n ipmi_hlt236 -p /FMC
      submit:      -E /dev/shm/logs.dev -O /dev/shm/logs.dev -g root -p 0 -n root
      restart:     -K 120 -M 5 -X 300
      description: IPMI Server for farm hlt236
Task: name:        ipmi_hlt237
      utgid:       ipmi_hlt237
      command:     /home/beat/ipmistart.sh
      params:      -c /home/beat/IPMIConfigs-test/ipmi_hlt237.config -n ipmi_hlt237 -p /FMC
      submit:      -E /dev/shm/logs.dev -O /dev/shm/logs.dev -g root -p 0 -n root
      restart:     -K 120 -M 5 -X 300
      description: IPMI Server for farm hlt237
Task: name:        ipmi_hlt238
      utgid:       ipmi_hlt238
      command:     /home/beat/ipmistart.sh
      params:      -c /home/beat/IPMIConfigs-test/ipmi_hlt238.config -n ipmi_hlt238 -p /FMC
      submit:      -E /dev/shm/logs.dev -O /dev/shm/logs.dev -g root -p 0 -n root
      restart:     -K 120 -M 5 -X 300
      description: IPMI Server for farm hlt238
Task: name:        ipmi_hlt239
      utgid:       ipmi_hlt239
      command:     /home/beat/ipmistart.sh
      params:      -c /home/beat/IPMIConfigs-test/ipmi_hlt239.config -n ipmi_hlt239 -p /FMC
      submit:      -E /dev/shm/logs.dev -O /dev/shm/logs.dev -g root -p 0 -n root
      restart:     -K 120 -M 5 -X 300
      description: IPMI Server for farm hlt239
Task: name:        ipmi_hlt240
      utgid:       ipmi_hlt240
      command:     /home/beat/ipmistart.sh
      params:      -c /home/beat/IPMIConfigs-test/ipmi_hlt240.config -n ipmi_hlt240 -p /FMC
      submit:      -E /dev/shm/logs.dev -O /dev/shm/logs.dev -g root -p 0 -n root
      restart:     -K 120 -M 5 -X 300
      description: IPMI Server for farm hlt240
Task: name:        ipmi_hlt241
      utgid:       ipmi_hlt241
      command:     /home/beat/ipmistart.sh
      params:      -c /home/beat/IPMIConfigs-test/ipmi_hlt241.config -n ipmi_hlt241 -p /FMC
      submit:      -E /dev/shm/logs.dev -O /dev/shm/logs.dev -g root -p 0 -n root
      restart:     -K 120 -M 5 -X 300
      description: IPMI Server for farm hlt241
Task: name:        ipmi_hlt242
      utgid:       ipmi_hlt242
      command:     /home/beat/ipmistart.sh
      params:      -c /home/beat/IPMIConfigs-test/ipmi_hlt242.config -n ipmi_hlt242 -p /FMC
      submit:      -E /dev/shm/logs.dev -O /dev/shm/logs.dev -g root -p 0 -n root
      restart:     -K 120 -M 5 -X 300
      description: IPMI Server for farm hlt242
Task: name:        ipmi_hlt243
      utgid:       ipmi_hlt243
      command:     /home/beat/ipmistart.sh
      params:      -c /home/beat/IPMIConfigs-test/ipmi_hlt243.config -n ipmi_hlt243 -p /FMC
      submit:      -E /dev/shm/logs.dev -O /dev/shm/logs.dev -g root -p 0 -n root
      restart:     -K 120 -M 5 -X 300
      description: IPMI Server for farm hlt243
Task: name:        ipmi_hlt244
      utgid:       ipmi_hlt244
      command:     /home/beat/ipmistart.sh
      params:      -c /home/beat/IPMIConfigs-test/ipmi_hlt244.config -n ipmi_hlt244 -p /FMC
      submit:      -E /dev/shm/logs.dev -O /dev/shm/logs.dev -g root -p 0 -n root
      restart:     -K 120 -M 5 -X 300
      description: IPMI Server for farm hlt244
Task: name:        ipmi_hlt245
      utgid:       ipmi_hlt245
      command:     /home/beat/ipmistart.sh
      params:      -c /home/beat/IPMIConfigs-test/ipmi_hlt245.config -n ipmi_hlt245 -p /FMC
      submit:      -E /dev/shm/logs.dev -O /dev/shm/logs.dev -g root -p 0 -n root
      restart:     -K 120 -M 5 -X 300
      description: IPMI Server for farm hlt245
Task: name:        ipmi_hlt246
      utgid:       ipmi_hlt246
      command:     /home/beat/ipmistart.sh
      params:      -c /home/beat/IPMIConfigs-test/ipmi_hlt246.config -n ipmi_hlt246 -p /FMC
      submit:      -E /dev/shm/logs.dev -O /dev/shm/logs.dev -g root -p 0 -n root
      restart:     -K 120 -M 5 -X 300
      description: IPMI Server for farm hlt246
Task: name:        ipmi_hlt247
      utgid:       ipmi_hlt247
      command:     /home/beat/ipmistart.sh
      params:      -c /home/beat/IPMIConfigs-test/ipmi_hlt247.config -n ipmi_hlt247 -p /FMC
      submit:      -E /dev/shm/logs.dev -O /dev/shm/logs.dev -g root -p 0 -n root
      restart:     -K 120 -M 5 -X 300
      description: IPMI Server for farm hlt247
Task: name:        ipmi_hlt248
      utgid:       ipmi_hlt248
      command:     /home/beat/ipmistart.sh
      params:      -c /home/beat/IPMIConfigs-test/ipmi_hlt248.config -n ipmi_hlt248 -p /FMC
      submit:      -E /dev/shm/logs.dev -O /dev/shm/logs.dev -g root -p 0 -n root
      restart:     -K 120 -M 5 -X 300
      description: IPMI Server for farm hlt248
Task: name:        ipmi_hlt601
      utgid:       ipmi_hlt601
      command:     /home/beat/ipmistart.sh
      params:      -c /home/beat/IPMIConfigs-test/ipmi_hlt601.config -n ipmi_hlt601 -p /FMC
      submit:      -E /dev/shm/logs.dev -O /dev/shm/logs.dev -g root -p 0 -n root
      restart:     -K 120 -M 5 -X 300
      description: IPMI Server for farm hlt601
Task: name:        ipmi_hlt602
      utgid:       ipmi_hlt602
      command:     /home/beat/ipmistart.sh
      params:      -c /home/beat/IPMIConfigs-test/ipmi_hlt602.config -n ipmi_hlt602 -p /FMC
      submit:      -E /dev/shm/logs.dev -O /dev/shm/logs.dev -g root -p 0 -n root
      restart:     -K 120 -M 5 -X 300
      description: IPMI Server for farm hlt602
Task: name:        ipmi_hlt603
      utgid:       ipmi_hlt603
      command:     /home/beat/ipmistart.sh
      params:      -c /home/beat/IPMIConfigs-test/ipmi_hlt603.config -n ipmi_hlt603 -p /FMC
      submit:      -E /dev/shm/logs.dev -O /dev/shm/logs.dev -g root -p 0 -n root
      restart:     -K 120 -M 5 -X 300
      description: IPMI Server for farm hlt603
Task: name:        ipmi_hlt604
      utgid:       ipmi_hlt604
      command:     /home/beat/ipmistart.sh
      params:      -c /home/beat/IPMIConfigs-test/ipmi_hlt604.config -n ipmi_hlt604 -p /FMC
      submit:      -E /dev/shm/logs.dev -O /dev/shm/logs.dev -g root -p 0 -n root
      restart:     -K 120 -M 5 -X 300
      description: IPMI Server for farm hlt604
Task: name:        ipmi_hlt605
      utgid:       ipmi_hlt605
      command:     /home/beat/ipmistart.sh
      params:      -c /home/beat/IPMIConfigs-test/ipmi_hlt605.config -n ipmi_hlt605 -p /FMC
      submit:      -E /dev/shm/logs.dev -O /dev/shm/logs.dev -g root -p 0 -n root
      restart:     -K 120 -M 5 -X 300
      description: IPMI Server for farm hlt605
Task: name:        ipmi_hlt606
      utgid:       ipmi_hlt606
      command:     /home/beat/ipmistart.sh
      params:      -c /home/beat/IPMIConfigs-test/ipmi_hlt606.config -n ipmi_hlt606 -p /FMC
      submit:      -E /dev/shm/logs.dev -O /dev/shm/logs.dev -g root -p 0 -n root
      restart:     -K 120 -M 5 -X 300
      description: IPMI Server for farm hlt606
Task: name:        ipmi_hlt607
      utgid:       ipmi_hlt607
      command:     /home/beat/ipmistart.sh
      params:      -c /home/beat/IPMIConfigs-test/ipmi_hlt607.config -n ipmi_hlt607 -p /FMC
      submit:      -E /dev/shm/logs.dev -O /dev/shm/logs.dev -g root -p 0 -n root
      restart:     -K 120 -M 5 -X 300
      description: IPMI Server for farm hlt607
Task: name:        ipmi_hlt608
      utgid:       ipmi_hlt608
      command:     /home/beat/ipmistart.sh
      params:      -c /home/beat/IPMIConfigs-test/ipmi_hlt608.config -n ipmi_hlt608 -p /FMC
      submit:      -E /dev/shm/logs.dev -O /dev/shm/logs.dev -g root -p 0 -n root
      restart:     -K 120 -M 5 -X 300
      description: IPMI Server for farm hlt608
Task: name:        ipmi_hlt609
      utgid:       ipmi_hlt609
      command:     /home/beat/ipmistart.sh
      params:      -c /home/beat/IPMIConfigs-test/ipmi_hlt609.config -n ipmi_hlt609 -p /FMC
      submit:      -E /dev/shm/logs.dev -O /dev/shm/logs.dev -g root -p 0 -n root
      restart:     -K 120 -M 5 -X 300
      description: IPMI Server for farm hlt609
Task: name:        ipmi_hlt610
      utgid:       ipmi_hlt610
      command:     /home/beat/ipmistart.sh
      params:      -c /home/beat/IPMIConfigs-test/ipmi_hlt610.config -n ipmi_hlt610 -p /FMC
      submit:      -E /dev/shm/logs.dev -O /dev/shm/logs.dev -g root -p 0 -n root
      restart:     -K 120 -M 5 -X 300
      description: IPMI Server for farm hlt610
Task: name:        ipmi_hlt611
      utgid:       ipmi_hlt611
      command:     /home/beat/ipmistart.sh
      params:      -c /home/beat/IPMIConfigs-test/ipmi_hlt611.config -n ipmi_hlt611 -p /FMC
      submit:      -E /dev/shm/logs.dev -O /dev/shm/logs.dev -g root -p 0 -n root
      restart:     -K 120 -M 5 -X 300
      description: IPMI Server for farm hlt611
Task: name:        ipmi_hlt612
      utgid:       ipmi_hlt612
      command:     /home/beat/ipmistart.sh
      params:      -c /home/beat/IPMIConfigs-test/ipmi_hlt612.config -n ipmi_hlt612 -p /FMC
      submit:      -E /dev/shm/logs.dev -O /dev/shm/logs.dev -g root -p 0 -n root
      restart:     -K 120 -M 5 -X 300
      description: IPMI Server for farm hlt612
Task: name:        ipmi_hlt613
      utgid:       ipmi_hlt613
      command:     /home/beat/ipmistart.sh
      params:      -c /home/beat/IPMIConfigs-test/ipmi_hlt613.config -n ipmi_hlt613 -p /FMC
      submit:      -E /dev/shm/logs.dev -O /dev/shm/logs.dev -g root -p 0 -n root
      restart:     -K 120 -M 5 -X 300
      description: IPMI Server for farm hlt613
Task: name:        ipmi_hlt614
      utgid:       ipmi_hlt614
      command:     /home/beat/ipmistart.sh
      params:      -c /home/beat/IPMIConfigs-test/ipmi_hlt614.config -n ipmi_hlt614 -p /FMC
      submit:      -E /dev/shm/logs.dev -O /dev/shm/logs.dev -g root -p 0 -n root
      restart:     -K 120 -M 5 -X 300
      description: IPMI Server for farm hlt614
Task: name:        ipmi_hlt615
      utgid:       ipmi_hlt615
      command:     /home/beat/ipmistart.sh
      params:      -c /home/beat/IPMIConfigs-test/ipmi_hlt615.config -n ipmi_hlt615 -p /FMC
      submit:      -E /dev/shm/logs.dev -O /dev/shm/logs.dev -g root -p 0 -n root
      restart:     -K 120 -M 5 -X 300
      description: IPMI Server for farm hlt615
Task: name:        ipmi_hlt616
      utgid:       ipmi_hlt616
      command:     /home/beat/ipmistart.sh
      params:      -c /home/beat/IPMIConfigs-test/ipmi_hlt616.config -n ipmi_hlt616 -p /FMC
      submit:      -E /dev/shm/logs.dev -O /dev/shm/logs.dev -g root -p 0 -n root
      restart:     -K 120 -M 5 -X 300
      description: IPMI Server for farm hlt616
Task: name:        ipmi_hlt617
      utgid:       ipmi_hlt617
      command:     /home/beat/ipmistart.sh
      params:      -c /home/beat/IPMIConfigs-test/ipmi_hlt617.config -n ipmi_hlt617 -p /FMC
      submit:      -E /dev/shm/logs.dev -O /dev/shm/logs.dev -g root -p 0 -n root
      restart:     -K 120 -M 5 -X 300
      description: IPMI Server for farm hlt617
Task: name:        ipmi_hlt618
      utgid:       ipmi_hlt618
      command:     /home/beat/ipmistart.sh
      params:      -c /home/beat/IPMIConfigs-test/ipmi_hlt618.config -n ipmi_hlt618 -p /FMC
      submit:      -E /dev/shm/logs.dev -O /dev/shm/logs.dev -g root -p 0 -n root
      restart:     -K 120 -M 5 -X 300
      description: IPMI Server for farm hlt618
Task: name:        ipmi_hlt619
      utgid:       ipmi_hlt619
      command:     /home/beat/ipmistart.sh
      params:      -c /home/beat/IPMIConfigs-test/ipmi_hlt619.config -n ipmi_hlt619 -p /FMC
      submit:      -E /dev/shm/logs.dev -O /dev/shm/logs.dev -g root -p 0 -n root
      restart:     -K 120 -M 5 -X 300
      description: IPMI Server for farm hlt619
Task: name:        ipmi_hlt620
      utgid:       ipmi_hlt620
      command:     /home/beat/ipmistart.sh
      params:      -c /home/beat/IPMIConfigs-test/ipmi_hlt620.config -n ipmi_hlt620 -p /FMC
      submit:      -E /dev/shm/logs.dev -O /dev/shm/logs.dev -g root -p 0 -n root
      restart:     -K 120 -M 5 -X 300
      description: IPMI Server for farm hlt620
Task: name:        ipmi_hlt621
      utgid:       ipmi_hlt621
      command:     /home/beat/ipmistart.sh
      params:      -c /home/beat/IPMIConfigs-test/ipmi_hlt621.config -n ipmi_hlt621 -p /FMC
      submit:      -E /dev/shm/logs.dev -O /dev/shm/logs.dev -g root -p 0 -n root
      restart:     -K 120 -M 5 -X 300
      description: IPMI Server for farm hlt621
Task: name:        ipmi_hlt622
      utgid:       ipmi_hlt622
      command:     /home/beat/ipmistart.sh
      params:      -c /home/beat/IPMIConfigs-test/ipmi_hlt622.config -n ipmi_hlt622 -p /FMC
      submit:      -E /dev/shm/logs.dev -O /dev/shm/logs.dev -g root -p 0 -n root
      restart:     -K 120 -M 5 -X 300
      description: IPMI Server for farm hlt622
Task: name:        ipmi_hlt625
      utgid:       ipmi_hlt625
      command:     /home/beat/ipmistart.sh
      params:      -c /home/beat/IPMIConfigs-test/ipmi_hlt625.config -n ipmi_hlt625 -p /FMC
      submit:      -E /dev/shm/logs.dev -O /dev/shm/logs.dev -g root -p 0 -n root
      restart:     -K 120 -M 5 -X 300
      description: IPMI Server for farm hlt625
Task: name:        ipmi_hlt626
      utgid:       ipmi_hlt626
      command:     /home/beat/ipmistart.sh
      params:      -c /home/beat/IPMIConfigs-test/ipmi_hlt626.config -n ipmi_hlt626 -p /FMC
      submit:      -E /dev/shm/logs.dev -O /dev/shm/logs.dev -g root -p 0 -n root
      restart:     -K 120 -M 5 -X 300
      description: IPMI Server for farm hlt626
Task: name:        ipmi_hlt627
      utgid:       ipmi_hlt627
      command:     /home/beat/ipmistart.sh
      params:      -c /home/beat/IPMIConfigs-test/ipmi_hlt627.config -n ipmi_hlt627 -p /FMC
      submit:      -E /dev/shm/logs.dev -O /dev/shm/logs.dev -g root -p 0 -n root
      restart:     -K 120 -M 5 -X 300
      description: IPMI Server for farm hlt627
Task: name:        ipmi_hlt628
      utgid:       ipmi_hlt628
      command:     /home/beat/ipmistart.sh
      params:      -c /home/beat/IPMIConfigs-test/ipmi_hlt628.config -n ipmi_hlt628 -p /FMC
      submit:      -E /dev/shm/logs.dev -O /dev/shm/logs.dev -g root -p 0 -n root
      restart:     -K 120 -M 5 -X 300
      description: IPMI Server for farm hlt628
Task: name:        ipmi_hlt629
      utgid:       ipmi_hlt629
      command:     /home/beat/ipmistart.sh
      params:      -c /home/beat/IPMIConfigs-test/ipmi_hlt629.config -n ipmi_hlt629 -p /FMC
      submit:      -E /dev/shm/logs.dev -O /dev/shm/logs.dev -g root -p 0 -n root
      restart:     -K 120 -M 5 -X 300
      description: IPMI Server for farm hlt629
Task: name:        ipmi_hlt630
      utgid:       ipmi_hlt630
      command:     /home/beat/ipmistart.sh
      params:      -c /home/beat/IPMIConfigs-test/ipmi_hlt630.config -n ipmi_hlt630 -p /FMC
      submit:      -E /dev/shm/logs.dev -O /dev/shm/logs.dev -g root -p 0 -n root
      restart:     -K 120 -M 5 -X 300
      description: IPMI Server for farm hlt630
Task: name:        ipmi_hlt631
      utgid:       ipmi_hlt631
      command:     /home/beat/ipmistart.sh
      params:      -c /home/beat/IPMIConfigs-test/ipmi_hlt631.config -n ipmi_hlt631 -p /FMC
      submit:      -E /dev/shm/logs.dev -O /dev/shm/logs.dev -g root -p 0 -n root
      restart:     -K 120 -M 5 -X 300
      description: IPMI Server for farm hlt631
Task: name:        ipmi_hlt632
      utgid:       ipmi_hlt632
      command:     /home/beat/ipmistart.sh
      params:      -c /home/beat/IPMIConfigs-test/ipmi_hlt632.config -n ipmi_hlt632 -p /FMC
      submit:      -E /dev/shm/logs.dev -O /dev/shm/logs.dev -g root -p 0 -n root
      restart:     -K 120 -M 5 -X 300
      description: IPMI Server for farm hlt632
Task: name:        ipmi_hlt633
      utgid:       ipmi_hlt633
      command:     /home/beat/ipmistart.sh
      params:      -c /home/beat/IPMIConfigs-test/ipmi_hlt633.config -n ipmi_hlt633 -p /FMC
      submit:      -E /dev/shm/logs.dev -O /dev/shm/logs.dev -g root -p 0 -n root
      restart:     -K 120 -M 5 -X 300
      description: IPMI Server for farm hlt633
Task: name:        ipmi_hlt634
      utgid:       ipmi_hlt634
      command:     /home/beat/ipmistart.sh
      params:      -c /home/beat/IPMIConfigs-test/ipmi_hlt634.config -n ipmi_hlt634 -p /FMC
      submit:      -E /dev/shm/logs.dev -O /dev/shm/logs.dev -g root -p 0 -n root
      restart:     -K 120 -M 5 -X 300
      description: IPMI Server for farm hlt634
Task: name:        ipmi_hlt635
      utgid:       ipmi_hlt635
      command:     /home/beat/ipmistart.sh
      params:      -c /home/beat/IPMIConfigs-test/ipmi_hlt635.config -n ipmi_hlt635 -p /FMC
      submit:      -E /dev/shm/logs.dev -O /dev/shm/logs.dev -g root -p 0 -n root
      restart:     -K 120 -M 5 -X 300
      description: IPMI Server for farm hlt635
Task: name:        ipmi_hlt636
      utgid:       ipmi_hlt636
      command:     /home/beat/ipmistart.sh
      params:      -c /home/beat/IPMIConfigs-test/ipmi_hlt636.config -n ipmi_hlt636 -p /FMC
      submit:      -E /dev/shm/logs.dev -O /dev/shm/logs.dev -g root -p 0 -n root
      restart:     -K 120 -M 5 -X 300
      description: IPMI Server for farm hlt636
Task: name:        ipmi_hlt637
      utgid:       ipmi_hlt637
      command:     /home/beat/ipmistart.sh
      params:      -c /home/beat/IPMIConfigs-test/ipmi_hlt637.config -n ipmi_hlt637 -p /FMC
      submit:      -E /dev/shm/logs.dev -O /dev/shm/logs.dev -g root -p 0 -n root
      restart:     -K 120 -M 5 -X 300
      description: IPMI Server for farm hlt637
Task: name:        ipmi_hlt638
      utgid:       ipmi_hlt638
      command:     /home/beat/ipmistart.sh
      params:      -c /home/beat/IPMIConfigs-test/ipmi_hlt638.config -n ipmi_hlt638 -p /FMC
      submit:      -E /dev/shm/logs.dev -O /dev/shm/logs.dev -g root -p 0 -n root
      restart:     -K 120 -M 5 -X 300
      description: IPMI Server for farm hlt638
Task: name:        ipmi_hlt639
      utgid:       ipmi_hlt639
      command:     /home/beat/ipmistart.sh
      params:      -c /home/beat/IPMIConfigs-test/ipmi_hlt639.config -n ipmi_hlt639 -p /FMC
      submit:      -E /dev/shm/logs.dev -O /dev/shm/logs.dev -g root -p 0 -n root
      restart:     -K 120 -M 5 -X 300
      description: IPMI Server for farm hlt639
Task: name:        ipmi_hlt640
      utgid:       ipmi_hlt640
      command:     /home/beat/ipmistart.sh
      params:      -c /home/beat/IPMIConfigs-test/ipmi_hlt640.config -n ipmi_hlt640 -p /FMC
      submit:      -E /dev/shm/logs.dev -O /dev/shm/logs.dev -g root -p 0 -n root
      restart:     -K 120 -M 5 -X 300
      description: IPMI Server for farm hlt640
Task: name:        ipmi_hlt641
      utgid:       ipmi_hlt641
      command:     /home/beat/ipmistart.sh
      params:      -c /home/beat/IPMIConfigs-test/ipmi_hlt641.config -n ipmi_hlt641 -p /FMC
      submit:      -E /dev/shm/logs.dev -O /dev/shm/logs.dev -g root -p 0 -n root
      restart:     -K 120 -M 5 -X 300
      description: IPMI Server for farm hlt641
Task: name:        ipmi_hlt642
      utgid:       ipmi_hlt642
      command:     /home/beat/ipmistart.sh
      params:      -c /home/beat/IPMIConfigs-test/ipmi_hlt642.config -n ipmi_hlt642 -p /FMC
      submit:      -E /dev/shm/logs.dev -O /dev/shm/logs.dev -g root -p 0 -n root
      restart:     -K 120 -M 5 -X 300
      description: IPMI Server for farm hlt642
Task: name:        ipmi_hlt643
      utgid:       ipmi_hlt643
      command:     /home/beat/ipmistart.sh
      params:      -c /home/beat/IPMIConfigs-test/ipmi_hlt643.config -n ipmi_hlt643 -p /FMC
      submit:      -E /dev/shm/logs.dev -O /dev/shm/logs.dev -g root -p 0 -n root
      restart:     -K 120 -M 5 -X 300
      description: IPMI Server for farm hlt643
Task: name:        ipmi_hlt644
      utgid:       ipmi_hlt644
      command:     /home/beat/ipmistart.sh
      params:      -c /home/beat/IPMIConfigs-test/ipmi_hlt644.config -n ipmi_hlt644 -p /FMC
      submit:      -E /dev/shm/logs.dev -O /dev/shm/logs.dev -g root -p 0 -n root
      restart:     -K 120 -M 5 -X 300
      description: IPMI Server for farm hlt644
Task: name:        ipmi_hlt645
      utgid:       ipmi_hlt645
      command:     /home/beat/ipmistart.sh
      params:      -c /home/beat/IPMIConfigs-test/ipmi_hlt645.config -n ipmi_hlt645 -p /FMC
      submit:      -E /dev/shm/logs.dev -O /dev/shm/logs.dev -g root -p 0 -n root
      restart:     -K 120 -M 5 -X 300
      description: IPMI Server for farm hlt645
Task: name:        ipmi_hlt646
      utgid:       ipmi_hlt646
      command:     /home/beat/ipmistart.sh
      params:      -c /home/beat/IPMIConfigs-test/ipmi_hlt646.config -n ipmi_hlt646 -p /FMC
      submit:      -E /dev/shm/logs.dev -O /dev/shm/logs.dev -g root -p 0 -n root
      restart:     -K 120 -M 5 -X 300
      description: IPMI Server for farm hlt646
Task: name:        ipmi_hlt647
      utgid:       ipmi_hlt647
      command:     /home/beat/ipmistart.sh
      params:      -c /home/beat/IPMIConfigs-test/ipmi_hlt647.config -n ipmi_hlt647 -p /FMC
      submit:      -E /dev/shm/logs.dev -O /dev/shm/logs.dev -g root -p 0 -n root
      restart:     -K 120 -M 5 -X 300
      description: IPMI Server for farm hlt647
Task: name:        ipmi_hlt648
      utgid:       ipmi_hlt648
      command:     /home/beat/ipmistart.sh
      params:      -c /home/beat/IPMIConfigs-test/ipmi_hlt648.config -n ipmi_hlt648 -p /FMC
      submit:      -E /dev/shm/logs.dev -O /dev/shm/logs.dev -g root -p 0 -n root
      restart:     -K 120 -M 5 -X 300
      description: IPMI Server for farm hlt648
Task: name:        ipmi_maeb
      utgid:       ipmi_maeb
      command:     /home/beat/ipmistart.sh
      params:      -c /home/beat/IPMIConfigs-test/ipmi_maeb.config -n ipmi_maeb -p /FMC
      submit:      -E /dev/shm/logs.dev -O /dev/shm/logs.dev -g root -p 0 -n root
      restart:     -K 120 -M 5 -X 300
      description: IPMI Server for farm maeb
Task: name:        ipmi_mceb
      utgid:       ipmi_mceb
      command:     /home/beat/ipmistart.sh
      params:      -c /home/beat/IPMIConfigs-test/ipmi_mceb.config -n ipmi_mceb -p /FMC
      submit:      -E /dev/shm/logs.dev -O /dev/shm/logs.dev -g root -p 0 -n root
      restart:     -K 120 -M 5 -X 300
      description: IPMI Server for farm mceb
Task: name:        ipmi_pleb
      utgid:       ipmi_pleb
      command:     /home/beat/ipmistart.sh
      params:      -c /home/beat/IPMIConfigs-test/ipmi_pleb.config -n ipmi_pleb -p /FMC
      submit:      -E /dev/shm/logs.dev -O /dev/shm/logs.dev -g root -p 0 -n root
      restart:     -K 120 -M 5 -X 300
      description: IPMI Server for farm pleb
Task: name:        ipmi_r1eb
      utgid:       ipmi_r1eb
      command:     /home/beat/ipmistart.sh
      params:      -c /home/beat/IPMIConfigs-test/ipmi_r1eb.config -n ipmi_r1eb -p /FMC
      submit:      -E /dev/shm/logs.dev -O /dev/shm/logs.dev -g root -p 0 -n root
      restart:     -K 120 -M 5 -X 300
      description: IPMI Server for farm r1eb
Task: name:        ipmi_r2eb
      utgid:       ipmi_r2eb
      command:     /home/beat/ipmistart.sh
      params:      -c /home/beat/IPMIConfigs-test/ipmi_r2eb.config -n ipmi_r2eb -p /FMC
      submit:      -E /dev/shm/logs.dev -O /dev/shm/logs.dev -g root -p 0 -n root
      restart:     -K 120 -M 5 -X 300
      description: IPMI Server for farm r2eb
Task: name:        ipmi_saeb
      utgid:       ipmi_saeb
      command:     /home/beat/ipmistart.sh
      params:      -c /home/beat/IPMIConfigs-test/ipmi_saeb.config -n ipmi_saeb -p /FMC
      submit:      -E /dev/shm/logs.dev -O /dev/shm/logs.dev -g root -p 0 -n root
      restart:     -K 120 -M 5 -X 300
      description: IPMI Server for farm saeb
Task: name:        ipmi_sceb
      utgid:       ipmi_sceb
      command:     /home/beat/ipmistart.sh
      params:      -c /home/beat/IPMIConfigs-test/ipmi_sceb.config -n ipmi_sceb -p /FMC
      submit:      -E /dev/shm/logs.dev -O /dev/shm/logs.dev -g root -p 0 -n root
      restart:     -K 120 -M 5 -X 300
      description: IPMI Server for farm sceb
Task: name:        ipmi_sodin
      utgid:       ipmi_sodin
      command:     /home/beat/ipmistart.sh
      params:      -c /home/beat/IPMIConfigs-test/ipmi_sodin.config -n ipmi_sodin -p /FMC
      submit:      -E /dev/shm/logs.dev -O /dev/shm/logs.dev -g root -p 0 -n root
      restart:     -K 120 -M 5 -X 300
      description: IPMI Server for farm sodin
Task: name:        ipmi_sol
      utgid:       ipmi_sol
      command:     /home/beat/ipmistart.sh
      params:      -c /home/beat/IPMIConfigs-test/ipmi_sol40.config -n ipmi_sol -p /FMC
      submit:      -E /dev/shm/logs.dev -O /dev/shm/logs.dev -g root -p 0 -n root
      restart:     -K 120 -M 5 -X 300
      description: IPMI Server for SOL40s
Task: name:        ipmi_tdeb
      utgid:       ipmi_tdeb
      command:     /home/beat/ipmistart.sh
      params:      -c /home/beat/IPMIConfigs-test/ipmi_tdeb.config -n ipmi_tdeb -p /FMC
      submit:      -E /dev/shm/logs.dev -O /dev/shm/logs.dev -g root -p 0 -n root
      restart:     -K 120 -M 5 -X 300
      description: IPMI Server for farm tdeb
Task: name:        ipmi_uaeb
      utgid:       ipmi_uaeb
      command:     /home/beat/ipmistart.sh
      params:      -c /home/beat/IPMIConfigs-test/ipmi_uaeb.config -n ipmi_uaeb -p /FMC
      submit:      -E /dev/shm/logs.dev -O /dev/shm/logs.dev -g root -p 0 -n root
      restart:     -K 120 -M 5 -X 300
      description: IPMI Server for farm uaeb
Task: name:        ipmi_uceb
      utgid:       ipmi_uceb
      command:     /home/beat/ipmistart.sh
      params:      -c /home/beat/IPMIConfigs-test/ipmi_uceb.config -n ipmi_uceb -p /FMC
      submit:      -E /dev/shm/logs.dev -O /dev/shm/logs.dev -g root -p 0 -n root
      restart:     -K 120 -M 5 -X 300
      description: IPMI Server for farm uceb
Task: name:        ipmi_vaeb
      utgid:       ipmi_vaeb
      command:     /home/beat/ipmistart.sh
      params:      -c /home/beat/IPMIConfigs-test/ipmi_vaeb.config -n ipmi_vaeb -p /FMC
      submit:      -E /dev/shm/logs.dev -O /dev/shm/logs.dev -g root -p 0 -n root
      restart:     -K 120 -M 5 -X 300
      description: IPMI Server for farm vaeb
Task: name:        ipmi_vceb
      utgid:       ipmi_vceb
      command:     /home/beat/ipmistart.sh
      params:      -c /home/beat/IPMIConfigs-test/ipmi_vceb.config -n ipmi_vceb -p /FMC
      submit:      -E /dev/shm/logs.dev -O /dev/shm/logs.dev -g root -p 0 -n root
      restart:     -K 120 -M 5 -X 300
      description: IPMI Server for farm vceb
Task: name:        ipmi_xxeb
      utgid:       ipmi_xxeb
      command:     /home/beat/ipmistart.sh
      params:      -c /home/beat/IPMIConfigs-test/ipmi_xxeb.config -n ipmi_xxeb -p /FMC
      submit:      -E /dev/shm/logs.dev -O /dev/shm/logs.dev -g root -p 0 -n root
      restart:     -K 120 -M 5 -X 300
      description: IPMI Server for farm xxeb
Task: name:        pingSrv
      utgid:       pingSrv
      command:     <SCRIPTS>/PingSrv.sh
      params:
      submit:      -E /dev/shm/logs.dev -O /dev/shm/logs.dev -p 0 -g onliners -n online
      restart:     -K 120 -M 5 -X 300
      description:
Task: name:        tmSrv_ecstms
      utgid:       tmSrv_ecstms
      command:     /opt/FMC/sbin/tmSrv
      params:      -l 1 -N ecstms01 -p 2 -u root -U root --no-auth --no-ptrace-workaround
      submit:      -E /tmp/logSrv.fifo -O /tmp/logSrv.fifo -p 0 -g root -n root
      restart:     -K 120 -M 5 -X 300
      description:
Task: name:        tmSrv_onldirac
      utgid:       tmSrv_onldirac
      command:     /opt/FMC/sbin/tmSrv
      params:      -l 1 -N onldirac01 -p 2 -u lhcbprod -U root --no-auth --no-ptrace-workaround
      submit:      -E /run/fmc/logSrv.fifo -O /run/fmc/logSrv.fifo -p 0 -g root -n root
      restart:     -K 120 -M 5 -X 300
      description:
Task: name:        tmSrv_onlfluka
      utgid:       tmSrv_onlfluka
      command:     /opt/FMC/sbin/tmSrv
      params:      -l 1 -N onlfluka01 -p 2 -u lhcbrad -U root --no-auth --no-ptrace-workaround
      submit:      -E /run/fmc/logSrv.fifo -O /run/fmc/logSrv.fifo -p 0 -g root -n root
      restart:     -K 120 -M 5 -X 300
      description:
Task: name:        webDID
      utgid:       webDID
      command:     <SCRIPTS>/webDID.sh
      params:
      submit:      -E /dev/shm/logs.dev -O /dev/shm/logs.dev -p 0 -g onliners -n online
      restart:     -K 120 -M 5 -X 300
      description:
Task: name:        webDID_caecs01
      utgid:       webDID_caecs01
      command:     <SCRIPTS>/webDID.sh
      params:
      submit:      -E /dev/shm/logs.dev -O /dev/shm/logs.dev -p 0 -g onliners -n online -DDIM_DNS_NODE=caecs01 -DDIM_DID_PORT=2712
      restart:     -K 120 -M 5 -X 300
      description:
Task: name:        webDID_ecdaqtell01
      utgid:       webDID_ecdaqtell01
      command:     <SCRIPTS>/webDID.sh
      params:
      submit:      -E /dev/shm/logs.dev -O /dev/shm/logs.dev -p 0 -g onliners -n online -DDIM_DNS_NODE=ecdaqtell01 -DDIM_DID_PORT=2726
      restart:     -K 120 -M 5 -X 300
      description:
Task: name:        webDID_ecs01
      utgid:       webDID_ecs01
      command:     <SCRIPTS>/webDID.sh
      params:
      submit:      -E /dev/shm/logs.dev -O /dev/shm/logs.dev -p 0 -g onliners -n online -DDIM_DNS_NODE=ecs01 -DDIM_DID_PORT=2701
      restart:     -K 120 -M 5 -X 300
      description:
Task: name:        webDID_ecs04
      utgid:       webDID_ecs04
      command:     <SCRIPTS>/webDID.sh
      params:
      submit:      -E /dev/shm/logs.dev -O /dev/shm/logs.dev -p 0 -g onliners -n online -DDIM_DNS_NODE=ecs04 -DDIM_DID_PORT=2704
      restart:     -K 120 -M 5 -X 300
      description:
Task: name:        webDID_ecs05
      utgid:       webDID_ecs05
      command:     <SCRIPTS>/webDID.sh
      params:
      submit:      -E /dev/shm/logs.dev -O /dev/shm/logs.dev -p 0 -g onliners -n online -DDIM_DNS_NODE=ecs05 -DDIM_DID_PORT=2705
      restart:     -K 120 -M 5 -X 300
      description:
Task: name:        webDID_ecstms01
      utgid:       webDID_ecstms01
      command:     <SCRIPTS>/webDID.sh
      params:
      submit:      -E /dev/shm/logs.dev -O /dev/shm/logs.dev -p 0 -g onliners -n online -DDIM_DNS_NODE=ecstms01 -DDIM_DID_PORT=2733
      restart:     -K 120 -M 5 -X 300
      description:
Task: name:        webDID_hcdaqtell01
      utgid:       webDID_hcdaqtell01
      command:     <SCRIPTS>/webDID.sh
      params:
      submit:      -E /dev/shm/logs.dev -O /dev/shm/logs.dev -p 0 -g onliners -n online -DDIM_DNS_NODE=hcdaqtell01 -DDIM_DID_PORT=2727
      restart:     -K 120 -M 5 -X 300
      description:
Task: name:        webDID_hchva01
      utgid:       webDID_hchva01
      command:     <SCRIPTS>/webDID.sh
      params:
      submit:      -E /dev/shm/logs.dev -O /dev/shm/logs.dev -p 0 -g onliners -n online -DDIM_DNS_NODE=hchva01 -DDIM_DID_PORT=2719
      restart:     -K 120 -M 5 -X 300
      description:
Task: name:        webDID_infdai01
      utgid:       webDID_infdai01
      command:     <SCRIPTS>/webDID.sh
      params:
      submit:      -E /dev/shm/logs.dev -O /dev/shm/logs.dev -p 0 -g onliners -n online -DDIM_DNS_NODE=infdai01 -DDIM_DID_PORT=2730
      restart:     -K 120 -M 5 -X 300
      description:
Task: name:        webDID_infmag01
      utgid:       webDID_infmag01
      command:     <SCRIPTS>/webDID.sh
      params:
      submit:      -E /dev/shm/logs.dev -O /dev/shm/logs.dev -p 0 -g onliners -n online -DDIM_DNS_NODE=infmag01 -DDIM_DID_PORT=2732
      restart:     -K 120 -M 5 -X 300
      description:
Task: name:        webDID_mudaqtell01
      utgid:       webDID_mudaqtell01
      command:     <SCRIPTS>/webDID.sh
      params:
      submit:      -E /dev/shm/logs.dev -O /dev/shm/logs.dev -p 0 -g onliners -n online -DDIM_DNS_NODE=mudaqtell01 -DDIM_DID_PORT=2728
      restart:     -K 120 -M 5 -X 300
      description:
Task: name:        webDID_muecs01
      utgid:       webDID_muecs01
      command:     <SCRIPTS>/webDID.sh
      params:
      submit:      -E /dev/shm/logs.dev -O /dev/shm/logs.dev -p 0 -g onliners -n online -DDIM_DNS_NODE=muecs01 -DDIM_DID_PORT=2716
      restart:     -K 120 -M 5 -X 300
      description:
Task: name:        webDID_plecs01
      utgid:       webDID_plecs01
      command:     <SCRIPTS>/webDID.sh
      params:
      submit:      -E /dev/shm/logs.dev -O /dev/shm/logs.dev -p 0 -g onliners -n online -DDIM_DNS_NODE=plecs01 -DDIM_DID_PORT=2715
      restart:     -K 120 -M 5 -X 300
      description:
Task: name:        webDID_r1daq01
      utgid:       webDID_r1daq01
      command:     <SCRIPTS>/webDID.sh
      params:
      submit:      -E /dev/shm/logs.dev -O /dev/shm/logs.dev -p 0 -g onliners -n online -DDIM_DNS_NODE=r1daq01 -DDIM_DID_PORT=2717
      restart:     -K 120 -M 5 -X 300
      description:
Task: name:        webDID_r2daq01
      utgid:       webDID_r2daq01
      command:     <SCRIPTS>/webDID.sh
      params:
      submit:      -E /dev/shm/logs.dev -O /dev/shm/logs.dev -p 0 -g onliners -n online -DDIM_DNS_NODE=r2daq01 -DDIM_DID_PORT=2718
      restart:     -K 120 -M 5 -X 300
      description:
Task: name:        webDID_riecs01
      utgid:       webDID_riecs01
      command:     <SCRIPTS>/webDID.sh
      params:
      submit:      -E /dev/shm/logs.dev -O /dev/shm/logs.dev -p 0 -g onliners -n online -DDIM_DNS_NODE=riecs01 -DDIM_DID_PORT=2711
      restart:     -K 120 -M 5 -X 300
      description:
Task: name:        webDID_sadaqtell01
      utgid:       webDID_sadaqtell01
      command:     <SCRIPTS>/webDID.sh
      params:
      submit:      -E /dev/shm/logs.dev -O /dev/shm/logs.dev -p 0 -g onliners -n online -DDIM_DNS_NODE=sadaqtell01 -DDIM_DID_PORT=2724
      restart:     -K 120 -M 5 -X 300
      description:
Task: name:        webDID_scdaqtell01
      utgid:       webDID_scdaqtell01
      command:     <SCRIPTS>/webDID.sh
      params:
      submit:      -E /dev/shm/logs.dev -O /dev/shm/logs.dev -p 0 -g onliners -n online -DDIM_DNS_NODE=scdaqtell01 -DDIM_DID_PORT=2725
      restart:     -K 120 -M 5 -X 300
      description:
Task: name:        webDID_sfecs01
      utgid:       webDID_sfecs01
      command:     <SCRIPTS>/webDID.sh
      params:
      submit:      -E /dev/shm/logs.dev -O /dev/shm/logs.dev -p 0 -g onliners -n online -DDIM_DNS_NODE=sfecs01 -DDIM_DID_PORT=2714
      restart:     -K 120 -M 5 -X 300
      description:
Task: name:        webDID_utecs01
      utgid:       webDID_utecs01
      command:     <SCRIPTS>/webDID.sh
      params:
      submit:      -E /dev/shm/logs.dev -O /dev/shm/logs.dev -p 0 -g onliners -n online -DDIM_DNS_NODE=utecs01 -DDIM_DID_PORT=2707
      restart:     -K 120 -M 5 -X 300
      description:
Task: name:        webDID_vadaqtell01
      utgid:       webDID_vadaqtell01
      command:     <SCRIPTS>/webDID.sh
      params:
      submit:      -E /dev/shm/logs.dev -O /dev/shm/logs.dev -p 0 -g onliners -n online -DDIM_DNS_NODE=vadaqtell01 -DDIM_DID_PORT=2721
      restart:     -K 120 -M 5 -X 300
      description:
Task: name:        webDID_vcdaqtell01
      utgid:       webDID_vcdaqtell01
      command:     <SCRIPTS>/webDID.sh
      params:
      submit:      -E /dev/shm/logs.dev -O /dev/shm/logs.dev -p 0 -g onliners -n online -DDIM_DNS_NODE=vcdaqtell01 -DDIM_DID_PORT=2722
      restart:     -K 120 -M 5 -X 300
      description:
Task: name:        webDID_veecs01
      utgid:       webDID_veecs01
      command:     <SCRIPTS>/webDID.sh
      params:
      submit:      -E /dev/shm/logs.dev -O /dev/shm/logs.dev -p 0 -g onliners -n online -DDIM_DNS_NODE=veecs01 -DDIM_DID_PORT=2706
      restart:     -K 120 -M 5 -X 300
      description:
Got a total of 203 tasks.
