Test output:
INFO     RTL                   +++ TaskDB server: localhost:#HOST#/TDBDATA/XMLRPC REACHABLE.
INFO     RTL                   +++ Successfully tested TaskDB server. ret = 0
INFO     RTL                   +++ Started TaskDB server TDBSRV_0x######## on host:#HOST# port:####
INFO     RTL                   +++ All processes finished work...
==== Server log:
INFO     RTL                   Running HTTP xmlrpc service on http://localhost:####/TDBDATA/XMLRPC with 0 additional threads.
==== Client log:
+-------------------------------------------------------------------
| Executing: taskdb_class -match=* -host=localhost -port=####
+-------------------------------------------------------------------
Node class: name:  AdderNode
      description: RUN3: Node infrastructure for top level adder tasks
Node class: name:  CCPCs
      description: RUN3: Credit-Card PCs
Node class: name:  DiracNode
      description: RUN3: DIRAC job processing node
Node class: name:  EBAdderNode
      description: RUN3: Node infrastructure for top level adder tasks
Node class: name:  EBControlsNode
      description: RUN3: Node class for EventBuilder control node
Node class: name:  ECS03
      description: RUN3: Main information server
Node class: name:  EventBuilderNode
      description: RUN3: Event builder node tasks
Node class: name:  FMC01
      description:
Node class: name:  FPGADevelopmentNode
      description: RUN3: daqvXXXX nodes for R.Fantechi
Node class: name:  FlukaNode
      description: RUN3: Fluka job processing node
Node class: name:  HLTControlsNode
      description: RUN3: Node class for HLT controls nodes
Node class: name:  HLTWorkerNode
      description: RUN3: Node class of an HLT worker node
Node class: name:  HLTWorkerNode_6
      description: RUN3: Node class of an HLT worker node
Node class: name:  HistogramAdder
      description: RUN3: Worker Node to add histograms
Node class: name:  MinimalNode
      description: RUN3: Minimal node configuration
Node class: name:  MonitoringControlsPC
      description: RUN3: Monitoring controls PC node type
Node class: name:  MonitoringWorker
      description: RUN3: Monitoring Worker Node type for mon01[01-07]
Node class: name:  TFCOPC
      description: Node running OPC server for TFC crate
Got a total of 18 node classes.
