+++ Opened file     data/pcie40_converted_mep.mdf Size on disk: 687290660 bytes
| -->  TELL1 event        1: Buffer:0x######## End:0x######## Size:(22896,22896,22896) Comp:  0 HdrVsn:3
| -->  TELL1 event        2: Buffer:0x######## End:0x######## Size:(22904,22904,22904) Comp:  0 HdrVsn:3
| -->  TELL1 event        3: Buffer:0x######## End:0x######## Size:(22904,22904,22904) Comp:  0 HdrVsn:3
| -->  TELL1 event        4: Buffer:0x######## End:0x######## Size:(22904,22904,22904) Comp:  0 HdrVsn:3
| -->  TELL1 event        5: Buffer:0x######## End:0x######## Size:(22908,22908,22908) Comp:  0 HdrVsn:3
| -->  TELL1 event        6: Buffer:0x######## End:0x######## Size:(22896,22896,22896) Comp:  0 HdrVsn:3
| -->  TELL1 event        7: Buffer:0x######## End:0x######## Size:(22896,22896,22896) Comp:  0 HdrVsn:3
| -->  TELL1 event        8: Buffer:0x######## End:0x######## Size:(22900,22900,22900) Comp:  0 HdrVsn:3
| -->  TELL1 event        9: Buffer:0x######## End:0x######## Size:(22908,22908,22908) Comp:  0 HdrVsn:3
| -->  TELL1 event       10: Buffer:0x######## End:0x######## Size:(22904,22904,22904) Comp:  0 HdrVsn:3
| -->  TELL1 event       11: Buffer:0x######## End:0x######## Size:(22896,22896,22896) Comp:  0 HdrVsn:3
| -->  TELL1 event       12: Buffer:0x######## End:0x######## Size:(22900,22900,22900) Comp:  0 HdrVsn:3
| -->  TELL1 event       13: Buffer:0x######## End:0x######## Size:(22900,22900,22900) Comp:  0 HdrVsn:3
| -->  TELL1 event       14: Buffer:0x######## End:0x######## Size:(22900,22900,22900) Comp:  0 HdrVsn:3
| -->  TELL1 event       15: Buffer:0x######## End:0x######## Size:(22892,22892,22892) Comp:  0 HdrVsn:3
| -->  TELL1 event       16: Buffer:0x######## End:0x######## Size:(22904,22904,22904) Comp:  0 HdrVsn:3
| -->  TELL1 event       17: Buffer:0x######## End:0x######## Size:(22904,22904,22904) Comp:  0 HdrVsn:3
| -->  TELL1 event       18: Buffer:0x######## End:0x######## Size:(22900,22900,22900) Comp:  0 HdrVsn:3
| -->  TELL1 event       19: Buffer:0x######## End:0x######## Size:(22908,22908,22908) Comp:  0 HdrVsn:3
| -->  TELL1 event       20: Buffer:0x######## End:0x######## Size:(22900,22900,22900) Comp:  0 HdrVsn:3
| -->  TELL1 event       21: Buffer:0x######## End:0x######## Size:(22900,22900,22900) Comp:  0 HdrVsn:3
| -->  TELL1 event       22: Buffer:0x######## End:0x######## Size:(22904,22904,22904) Comp:  0 HdrVsn:3
| -->  TELL1 event       23: Buffer:0x######## End:0x######## Size:(22904,22904,22904) Comp:  0 HdrVsn:3
| -->  TELL1 event       24: Buffer:0x######## End:0x######## Size:(22912,22912,22912) Comp:  0 HdrVsn:3
| -->  TELL1 event       25: Buffer:0x######## End:0x######## Size:(22912,22912,22912) Comp:  0 HdrVsn:3
| -->  TELL1 event       26: Buffer:0x######## End:0x######## Size:(22892,22892,22892) Comp:  0 HdrVsn:3
| -->  TELL1 event       27: Buffer:0x######## End:0x######## Size:(22888,22888,22888) Comp:  0 HdrVsn:3
| -->  TELL1 event       28: Buffer:0x######## End:0x######## Size:(22908,22908,22908) Comp:  0 HdrVsn:3
| -->  TELL1 event       29: Buffer:0x######## End:0x######## Size:(22896,22896,22896) Comp:  0 HdrVsn:3
| -->  TELL1 event       30: Buffer:0x######## End:0x######## Size:(22908,22908,22908) Comp:  0 HdrVsn:3
| -->  TELL1 event       31: Buffer:0x######## End:0x######## Size:(22904,22904,22904) Comp:  0 HdrVsn:3
| -->  TELL1 event       32: Buffer:0x######## End:0x######## Size:(22900,22900,22900) Comp:  0 HdrVsn:3
| -->  TELL1 event       33: Buffer:0x######## End:0x######## Size:(22908,22908,22908) Comp:  0 HdrVsn:3
| -->  TELL1 event       34: Buffer:0x######## End:0x######## Size:(22904,22904,22904) Comp:  0 HdrVsn:3
| -->  TELL1 event       35: Buffer:0x######## End:0x######## Size:(22920,22920,22920) Comp:  0 HdrVsn:3
| -->  TELL1 event       36: Buffer:0x######## End:0x######## Size:(22904,22904,22904) Comp:  0 HdrVsn:3
| -->  TELL1 event       37: Buffer:0x######## End:0x######## Size:(22900,22900,22900) Comp:  0 HdrVsn:3
| -->  TELL1 event       38: Buffer:0x######## End:0x######## Size:(22904,22904,22904) Comp:  0 HdrVsn:3
| -->  TELL1 event       39: Buffer:0x######## End:0x######## Size:(22896,22896,22896) Comp:  0 HdrVsn:3
| -->  TELL1 event       40: Buffer:0x######## End:0x######## Size:(22892,22892,22892) Comp:  0 HdrVsn:3
| -->  TELL1 event       41: Buffer:0x######## End:0x######## Size:(22900,22900,22900) Comp:  0 HdrVsn:3
| -->  TELL1 event       42: Buffer:0x######## End:0x######## Size:(22908,22908,22908) Comp:  0 HdrVsn:3
| -->  TELL1 event       43: Buffer:0x######## End:0x######## Size:(22896,22896,22896) Comp:  0 HdrVsn:3
| -->  TELL1 event       44: Buffer:0x######## End:0x######## Size:(22908,22908,22908) Comp:  0 HdrVsn:3
| -->  TELL1 event       45: Buffer:0x######## End:0x######## Size:(22888,22888,22888) Comp:  0 HdrVsn:3
| -->  TELL1 event       46: Buffer:0x######## End:0x######## Size:(22908,22908,22908) Comp:  0 HdrVsn:3
| -->  TELL1 event       47: Buffer:0x######## End:0x######## Size:(22908,22908,22908) Comp:  0 HdrVsn:3
| -->  TELL1 event       48: Buffer:0x######## End:0x######## Size:(22908,22908,22908) Comp:  0 HdrVsn:3
| -->  TELL1 event       49: Buffer:0x######## End:0x######## Size:(22892,22892,22892) Comp:  0 HdrVsn:3
| -->  TELL1 event       50: Buffer:0x######## End:0x######## Size:(22904,22904,22904) Comp:  0 HdrVsn:3
| -->  TELL1 event       51: Buffer:0x######## End:0x######## Size:(22900,22900,22900) Comp:  0 HdrVsn:3
| -->  TELL1 event       52: Buffer:0x######## End:0x######## Size:(22896,22896,22896) Comp:  0 HdrVsn:3
| -->  TELL1 event       53: Buffer:0x######## End:0x######## Size:(22908,22908,22908) Comp:  0 HdrVsn:3
| -->  TELL1 event       54: Buffer:0x######## End:0x######## Size:(22908,22908,22908) Comp:  0 HdrVsn:3
| -->  TELL1 event       55: Buffer:0x######## End:0x######## Size:(22896,22896,22896) Comp:  0 HdrVsn:3
| -->  TELL1 event       56: Buffer:0x######## End:0x######## Size:(22904,22904,22904) Comp:  0 HdrVsn:3
| -->  TELL1 event       57: Buffer:0x######## End:0x######## Size:(22912,22912,22912) Comp:  0 HdrVsn:3
| -->  TELL1 event       58: Buffer:0x######## End:0x######## Size:(22908,22908,22908) Comp:  0 HdrVsn:3
| -->  TELL1 event       59: Buffer:0x######## End:0x######## Size:(22896,22896,22896) Comp:  0 HdrVsn:3
| -->  TELL1 event       60: Buffer:0x######## End:0x######## Size:(22900,22900,22900) Comp:  0 HdrVsn:3
| -->  TELL1 event       61: Buffer:0x######## End:0x######## Size:(22908,22908,22908) Comp:  0 HdrVsn:3
| -->  TELL1 event       62: Buffer:0x######## End:0x######## Size:(22932,22932,22932) Comp:  0 HdrVsn:3
| -->  TELL1 event       63: Buffer:0x######## End:0x######## Size:(22888,22888,22888) Comp:  0 HdrVsn:3
| -->  TELL1 event       64: Buffer:0x######## End:0x######## Size:(22904,22904,22904) Comp:  0 HdrVsn:3
| -->  TELL1 event       65: Buffer:0x######## End:0x######## Size:(22900,22900,22900) Comp:  0 HdrVsn:3
| -->  TELL1 event       66: Buffer:0x######## End:0x######## Size:(22896,22896,22896) Comp:  0 HdrVsn:3
| -->  TELL1 event       67: Buffer:0x######## End:0x######## Size:(22908,22908,22908) Comp:  0 HdrVsn:3
| -->  TELL1 event       68: Buffer:0x######## End:0x######## Size:(22900,22900,22900) Comp:  0 HdrVsn:3
| -->  TELL1 event       69: Buffer:0x######## End:0x######## Size:(22908,22908,22908) Comp:  0 HdrVsn:3
| -->  TELL1 event       70: Buffer:0x######## End:0x######## Size:(22896,22896,22896) Comp:  0 HdrVsn:3
| -->  TELL1 event       71: Buffer:0x######## End:0x######## Size:(22900,22900,22900) Comp:  0 HdrVsn:3
| -->  TELL1 event       72: Buffer:0x######## End:0x######## Size:(22904,22904,22904) Comp:  0 HdrVsn:3
| -->  TELL1 event       73: Buffer:0x######## End:0x######## Size:(22896,22896,22896) Comp:  0 HdrVsn:3
| -->  TELL1 event       74: Buffer:0x######## End:0x######## Size:(22896,22896,22896) Comp:  0 HdrVsn:3
| -->  TELL1 event       75: Buffer:0x######## End:0x######## Size:(22904,22904,22904) Comp:  0 HdrVsn:3
| -->  TELL1 event       76: Buffer:0x######## End:0x######## Size:(22916,22916,22916) Comp:  0 HdrVsn:3
| -->  TELL1 event       77: Buffer:0x######## End:0x######## Size:(22908,22908,22908) Comp:  0 HdrVsn:3
| -->  TELL1 event       78: Buffer:0x######## End:0x######## Size:(22916,22916,22916) Comp:  0 HdrVsn:3
| -->  TELL1 event       79: Buffer:0x######## End:0x######## Size:(22916,22916,22916) Comp:  0 HdrVsn:3
| -->  TELL1 event       80: Buffer:0x######## End:0x######## Size:(22900,22900,22900) Comp:  0 HdrVsn:3
| -->  TELL1 event       81: Buffer:0x######## End:0x######## Size:(22912,22912,22912) Comp:  0 HdrVsn:3
| -->  TELL1 event       82: Buffer:0x######## End:0x######## Size:(22888,22888,22888) Comp:  0 HdrVsn:3
| -->  TELL1 event       83: Buffer:0x######## End:0x######## Size:(22892,22892,22892) Comp:  0 HdrVsn:3
| -->  TELL1 event       84: Buffer:0x######## End:0x######## Size:(22900,22900,22900) Comp:  0 HdrVsn:3
| -->  TELL1 event       85: Buffer:0x######## End:0x######## Size:(22904,22904,22904) Comp:  0 HdrVsn:3
| -->  TELL1 event       86: Buffer:0x######## End:0x######## Size:(22900,22900,22900) Comp:  0 HdrVsn:3
| -->  TELL1 event       87: Buffer:0x######## End:0x######## Size:(22912,22912,22912) Comp:  0 HdrVsn:3
| -->  TELL1 event       88: Buffer:0x######## End:0x######## Size:(22908,22908,22908) Comp:  0 HdrVsn:3
| -->  TELL1 event       89: Buffer:0x######## End:0x######## Size:(22916,22916,22916) Comp:  0 HdrVsn:3
| -->  TELL1 event       90: Buffer:0x######## End:0x######## Size:(22916,22916,22916) Comp:  0 HdrVsn:3
| -->  TELL1 event       91: Buffer:0x######## End:0x######## Size:(22892,22892,22892) Comp:  0 HdrVsn:3
| -->  TELL1 event       92: Buffer:0x######## End:0x######## Size:(22908,22908,22908) Comp:  0 HdrVsn:3
| -->  TELL1 event       93: Buffer:0x######## End:0x######## Size:(22896,22896,22896) Comp:  0 HdrVsn:3
| -->  TELL1 event       94: Buffer:0x######## End:0x######## Size:(22900,22900,22900) Comp:  0 HdrVsn:3
| -->  TELL1 event       95: Buffer:0x######## End:0x######## Size:(22900,22900,22900) Comp:  0 HdrVsn:3
| -->  TELL1 event       96: Buffer:0x######## End:0x######## Size:(22900,22900,22900) Comp:  0 HdrVsn:3
| -->  TELL1 event       97: Buffer:0x######## End:0x######## Size:(22908,22908,22908) Comp:  0 HdrVsn:3
| -->  TELL1 event       98: Buffer:0x######## End:0x######## Size:(22908,22908,22908) Comp:  0 HdrVsn:3
| -->  TELL1 event       99: Buffer:0x######## End:0x######## Size:(22904,22904,22904) Comp:  0 HdrVsn:3
| -->  TELL1 event      100: Buffer:0x######## End:0x######## Size:(22904,22904,22904) Comp:  0 HdrVsn:3
| -->  TELL1 event      101: Buffer:0x######## End:0x######## Size:(22908,22908,22908) Comp:  0 HdrVsn:3
| -->  TELL1 event      102: Buffer:0x######## End:0x######## Size:(22908,22908,22908) Comp:  0 HdrVsn:3
| -->  TELL1 event      103: Buffer:0x######## End:0x######## Size:(22900,22900,22900) Comp:  0 HdrVsn:3
| -->  TELL1 event      104: Buffer:0x######## End:0x######## Size:(22900,22900,22900) Comp:  0 HdrVsn:3
| -->  TELL1 event      105: Buffer:0x######## End:0x######## Size:(22912,22912,22912) Comp:  0 HdrVsn:3
| -->  TELL1 event      106: Buffer:0x######## End:0x######## Size:(22904,22904,22904) Comp:  0 HdrVsn:3
| -->  TELL1 event      107: Buffer:0x######## End:0x######## Size:(22900,22900,22900) Comp:  0 HdrVsn:3
| -->  TELL1 event      108: Buffer:0x######## End:0x######## Size:(22900,22900,22900) Comp:  0 HdrVsn:3
| -->  TELL1 event      109: Buffer:0x######## End:0x######## Size:(22900,22900,22900) Comp:  0 HdrVsn:3
| -->  TELL1 event      110: Buffer:0x######## End:0x######## Size:(22908,22908,22908) Comp:  0 HdrVsn:3
| -->  TELL1 event      111: Buffer:0x######## End:0x######## Size:(22892,22892,22892) Comp:  0 HdrVsn:3
| -->  TELL1 event      112: Buffer:0x######## End:0x######## Size:(22912,22912,22912) Comp:  0 HdrVsn:3
| -->  TELL1 event      113: Buffer:0x######## End:0x######## Size:(22900,22900,22900) Comp:  0 HdrVsn:3
| -->  TELL1 event      114: Buffer:0x######## End:0x######## Size:(22904,22904,22904) Comp:  0 HdrVsn:3
| -->  TELL1 event      115: Buffer:0x######## End:0x######## Size:(22904,22904,22904) Comp:  0 HdrVsn:3
| -->  TELL1 event      116: Buffer:0x######## End:0x######## Size:(22920,22920,22920) Comp:  0 HdrVsn:3
| -->  TELL1 event      117: Buffer:0x######## End:0x######## Size:(22896,22896,22896) Comp:  0 HdrVsn:3
| -->  TELL1 event      118: Buffer:0x######## End:0x######## Size:(22896,22896,22896) Comp:  0 HdrVsn:3
| -->  TELL1 event      119: Buffer:0x######## End:0x######## Size:(22896,22896,22896) Comp:  0 HdrVsn:3
| -->  TELL1 event      120: Buffer:0x######## End:0x######## Size:(22900,22900,22900) Comp:  0 HdrVsn:3
| -->  TELL1 event      121: Buffer:0x######## End:0x######## Size:(22908,22908,22908) Comp:  0 HdrVsn:3
| -->  TELL1 event      122: Buffer:0x######## End:0x######## Size:(22900,22900,22900) Comp:  0 HdrVsn:3
| -->  TELL1 event      123: Buffer:0x######## End:0x######## Size:(22912,22912,22912) Comp:  0 HdrVsn:3
| -->  TELL1 event      124: Buffer:0x######## End:0x######## Size:(22912,22912,22912) Comp:  0 HdrVsn:3
| -->  TELL1 event      125: Buffer:0x######## End:0x######## Size:(22920,22920,22920) Comp:  0 HdrVsn:3
| -->  TELL1 event      126: Buffer:0x######## End:0x######## Size:(22900,22900,22900) Comp:  0 HdrVsn:3
| -->  TELL1 event      127: Buffer:0x######## End:0x######## Size:(22900,22900,22900) Comp:  0 HdrVsn:3
| -->  TELL1 event      128: Buffer:0x######## End:0x######## Size:(22908,22908,22908) Comp:  0 HdrVsn:3
| -->  TELL1 event      129: Buffer:0x######## End:0x######## Size:(22908,22908,22908) Comp:  0 HdrVsn:3
| -->  TELL1 event      130: Buffer:0x######## End:0x######## Size:(22900,22900,22900) Comp:  0 HdrVsn:3
| -->  TELL1 event      131: Buffer:0x######## End:0x######## Size:(22888,22888,22888) Comp:  0 HdrVsn:3
| -->  TELL1 event      132: Buffer:0x######## End:0x######## Size:(22900,22900,22900) Comp:  0 HdrVsn:3
| -->  TELL1 event      133: Buffer:0x######## End:0x######## Size:(22904,22904,22904) Comp:  0 HdrVsn:3
| -->  TELL1 event      134: Buffer:0x######## End:0x######## Size:(22892,22892,22892) Comp:  0 HdrVsn:3
| -->  TELL1 event      135: Buffer:0x######## End:0x######## Size:(22908,22908,22908) Comp:  0 HdrVsn:3
| -->  TELL1 event      136: Buffer:0x######## End:0x######## Size:(22904,22904,22904) Comp:  0 HdrVsn:3
| -->  TELL1 event      137: Buffer:0x######## End:0x######## Size:(22900,22900,22900) Comp:  0 HdrVsn:3
| -->  TELL1 event      138: Buffer:0x######## End:0x######## Size:(22896,22896,22896) Comp:  0 HdrVsn:3
| -->  TELL1 event      139: Buffer:0x######## End:0x######## Size:(22904,22904,22904) Comp:  0 HdrVsn:3
| -->  TELL1 event      140: Buffer:0x######## End:0x######## Size:(22904,22904,22904) Comp:  0 HdrVsn:3
| -->  TELL1 event      141: Buffer:0x######## End:0x######## Size:(22900,22900,22900) Comp:  0 HdrVsn:3
| -->  TELL1 event      142: Buffer:0x######## End:0x######## Size:(22900,22900,22900) Comp:  0 HdrVsn:3
| -->  TELL1 event      143: Buffer:0x######## End:0x######## Size:(22900,22900,22900) Comp:  0 HdrVsn:3
| -->  TELL1 event      144: Buffer:0x######## End:0x######## Size:(22908,22908,22908) Comp:  0 HdrVsn:3
| -->  TELL1 event      145: Buffer:0x######## End:0x######## Size:(22908,22908,22908) Comp:  0 HdrVsn:3
| -->  TELL1 event      146: Buffer:0x######## End:0x######## Size:(22892,22892,22892) Comp:  0 HdrVsn:3
| -->  TELL1 event      147: Buffer:0x######## End:0x######## Size:(22908,22908,22908) Comp:  0 HdrVsn:3
| -->  TELL1 event      148: Buffer:0x######## End:0x######## Size:(22908,22908,22908) Comp:  0 HdrVsn:3
| -->  TELL1 event      149: Buffer:0x######## End:0x######## Size:(22904,22904,22904) Comp:  0 HdrVsn:3
| -->  TELL1 event      150: Buffer:0x######## End:0x######## Size:(22912,22912,22912) Comp:  0 HdrVsn:3
| -->  TELL1 event      151: Buffer:0x######## End:0x######## Size:(22892,22892,22892) Comp:  0 HdrVsn:3
| -->  TELL1 event      152: Buffer:0x######## End:0x######## Size:(22896,22896,22896) Comp:  0 HdrVsn:3
| -->  TELL1 event      153: Buffer:0x######## End:0x######## Size:(22904,22904,22904) Comp:  0 HdrVsn:3
| -->  TELL1 event      154: Buffer:0x######## End:0x######## Size:(22904,22904,22904) Comp:  0 HdrVsn:3
| -->  TELL1 event      155: Buffer:0x######## End:0x######## Size:(22900,22900,22900) Comp:  0 HdrVsn:3
| -->  TELL1 event      156: Buffer:0x######## End:0x######## Size:(22888,22888,22888) Comp:  0 HdrVsn:3
| -->  TELL1 event      157: Buffer:0x######## End:0x######## Size:(22900,22900,22900) Comp:  0 HdrVsn:3
| -->  TELL1 event      158: Buffer:0x######## End:0x######## Size:(22900,22900,22900) Comp:  0 HdrVsn:3
| -->  TELL1 event      159: Buffer:0x######## End:0x######## Size:(22896,22896,22896) Comp:  0 HdrVsn:3
| -->  TELL1 event      160: Buffer:0x######## End:0x######## Size:(22908,22908,22908) Comp:  0 HdrVsn:3
| -->  TELL1 event      161: Buffer:0x######## End:0x######## Size:(22908,22908,22908) Comp:  0 HdrVsn:3
| -->  TELL1 event      162: Buffer:0x######## End:0x######## Size:(22904,22904,22904) Comp:  0 HdrVsn:3
| -->  TELL1 event      163: Buffer:0x######## End:0x######## Size:(22908,22908,22908) Comp:  0 HdrVsn:3
| -->  TELL1 event      164: Buffer:0x######## End:0x######## Size:(22908,22908,22908) Comp:  0 HdrVsn:3
| -->  TELL1 event      165: Buffer:0x######## End:0x######## Size:(22900,22900,22900) Comp:  0 HdrVsn:3
| -->  TELL1 event      166: Buffer:0x######## End:0x######## Size:(22912,22912,22912) Comp:  0 HdrVsn:3
| -->  TELL1 event      167: Buffer:0x######## End:0x######## Size:(22900,22900,22900) Comp:  0 HdrVsn:3
| -->  TELL1 event      168: Buffer:0x######## End:0x######## Size:(22912,22912,22912) Comp:  0 HdrVsn:3
| -->  TELL1 event      169: Buffer:0x######## End:0x######## Size:(22908,22908,22908) Comp:  0 HdrVsn:3
| -->  TELL1 event      170: Buffer:0x######## End:0x######## Size:(22908,22908,22908) Comp:  0 HdrVsn:3
| -->  TELL1 event      171: Buffer:0x######## End:0x######## Size:(22904,22904,22904) Comp:  0 HdrVsn:3
| -->  TELL1 event      172: Buffer:0x######## End:0x######## Size:(22904,22904,22904) Comp:  0 HdrVsn:3
| -->  TELL1 event      173: Buffer:0x######## End:0x######## Size:(22912,22912,22912) Comp:  0 HdrVsn:3
| -->  TELL1 event      174: Buffer:0x######## End:0x######## Size:(22900,22900,22900) Comp:  0 HdrVsn:3
| -->  TELL1 event      175: Buffer:0x######## End:0x######## Size:(22904,22904,22904) Comp:  0 HdrVsn:3
| -->  TELL1 event      176: Buffer:0x######## End:0x######## Size:(22924,22924,22924) Comp:  0 HdrVsn:3
| -->  TELL1 event      177: Buffer:0x######## End:0x######## Size:(22896,22896,22896) Comp:  0 HdrVsn:3
| -->  TELL1 event      178: Buffer:0x######## End:0x######## Size:(22896,22896,22896) Comp:  0 HdrVsn:3
| -->  TELL1 event      179: Buffer:0x######## End:0x######## Size:(22916,22916,22916) Comp:  0 HdrVsn:3
| -->  TELL1 event      180: Buffer:0x######## End:0x######## Size:(22896,22896,22896) Comp:  0 HdrVsn:3
| -->  TELL1 event      181: Buffer:0x######## End:0x######## Size:(22896,22896,22896) Comp:  0 HdrVsn:3
| -->  TELL1 event      182: Buffer:0x######## End:0x######## Size:(22916,22916,22916) Comp:  0 HdrVsn:3
| -->  TELL1 event      183: Buffer:0x######## End:0x######## Size:(22900,22900,22900) Comp:  0 HdrVsn:3
| -->  TELL1 event      184: Buffer:0x######## End:0x######## Size:(22900,22900,22900) Comp:  0 HdrVsn:3
| -->  TELL1 event      185: Buffer:0x######## End:0x######## Size:(22888,22888,22888) Comp:  0 HdrVsn:3
| -->  TELL1 event      186: Buffer:0x######## End:0x######## Size:(22912,22912,22912) Comp:  0 HdrVsn:3
| -->  TELL1 event      187: Buffer:0x######## End:0x######## Size:(22900,22900,22900) Comp:  0 HdrVsn:3
| -->  TELL1 event      188: Buffer:0x######## End:0x######## Size:(22896,22896,22896) Comp:  0 HdrVsn:3
| -->  TELL1 event      189: Buffer:0x######## End:0x######## Size:(22900,22900,22900) Comp:  0 HdrVsn:3
| -->  TELL1 event      190: Buffer:0x######## End:0x######## Size:(22904,22904,22904) Comp:  0 HdrVsn:3
| -->  TELL1 event      191: Buffer:0x######## End:0x######## Size:(22896,22896,22896) Comp:  0 HdrVsn:3
| -->  TELL1 event      192: Buffer:0x######## End:0x######## Size:(22912,22912,22912) Comp:  0 HdrVsn:3
| -->  TELL1 event      193: Buffer:0x######## End:0x######## Size:(22904,22904,22904) Comp:  0 HdrVsn:3
| -->  TELL1 event      194: Buffer:0x######## End:0x######## Size:(22900,22900,22900) Comp:  0 HdrVsn:3
| -->  TELL1 event      195: Buffer:0x######## End:0x######## Size:(22900,22900,22900) Comp:  0 HdrVsn:3
| -->  TELL1 event      196: Buffer:0x######## End:0x######## Size:(22904,22904,22904) Comp:  0 HdrVsn:3
| -->  TELL1 event      197: Buffer:0x######## End:0x######## Size:(22896,22896,22896) Comp:  0 HdrVsn:3
| -->  TELL1 event      198: Buffer:0x######## End:0x######## Size:(22912,22912,22912) Comp:  0 HdrVsn:3
| -->  TELL1 event      199: Buffer:0x######## End:0x######## Size:(22896,22896,22896) Comp:  0 HdrVsn:3
| -->  TELL1 event      200: Buffer:0x######## End:0x######## Size:(22904,22904,22904) Comp:  0 HdrVsn:3
+++ 200 Events Processed with 4580604 bytes.
