####-##-## TIME-### ##ID##_HLT1Writer_0     [INFO] +++ UTGID:          ##ID##_HLT1Writer_0
####-##-## TIME-### ##ID##_HLT1Writer_0     [INFO] +++ DIM_DNS    port:####
####-##-## TIME-### ##ID##_HLT1Writer_0     [INFO] +++ DIM_DNS    node:localhost
####-##-## TIME-### ##ID##_HLT1Writer_0     [INFO] +++ OPTIONS:        GaudiOnlineTests.DF
####-##-## TIME-### ##ID##_HLT1Writer_0     [INFO] +++ TASK_TYPE:      HLT1Writer
####-##-## TIME-### INFO:   Loading library: libDataflowDict
####-##-## TIME-### INFO:   Import Online namespace from ROOT
####-##-## TIME-### INFO:   +++ Setting up output logger component
####-##-## TIME-### INFO:   +++ HLT1 Writer specs: http://127.0.0.1:#### [max. 100 events per file]
####-##-## TIME-### INFO:   +++ Starting dataflow process
####-##-## TIME-### Writer               INFO      write_buffer: Saved 'http://127.0.0.1:####/data/##ID##/Full/0000012345/Run_0000012345_0001.mdf' 59.38 kB
####-##-## TIME-### Writer               INFO      write_buffer: Saved 'http://127.0.0.1:####/data/##ID##/Full/0000012345/Run_0000012345_0002.mdf' 59.38 kB
####-##-## TIME-### Writer               INFO      write_buffer: Saved 'http://127.0.0.1:####/data/##ID##/Full/0000012345/Run_0000012345_0003.mdf' 59.38 kB
####-##-## TIME-### Writer               INFO      write_buffer: Saved 'http://127.0.0.1:####/data/##ID##/Full/0000012345/Run_0000012345_0004.mdf' 59.38 kB
####-##-## TIME-### Writer               INFO      write_buffer: Saved 'http://127.0.0.1:####/data/##ID##/Full/0000012345/Run_0000012345_0005.mdf' 59.38 kB
####-##-## TIME-### Writer               INFO      write_buffer: Saved 'http://127.0.0.1:####/data/##ID##/Full/0000012345/Run_0000012345_0006.mdf' 59.38 kB
####-##-## TIME-### Writer               INFO      write_buffer: Saved 'http://127.0.0.1:####/data/##ID##/Full/0000012345/Run_0000012345_0007.mdf' 59.38 kB
####-##-## TIME-### Writer               INFO      write_buffer: Saved 'http://127.0.0.1:####/data/##ID##/Full/0000012345/Run_0000012345_0008.mdf' 59.38 kB
####-##-## TIME-### Writer               INFO      write_buffer: Saved 'http://127.0.0.1:####/data/##ID##/Full/0000012345/Run_0000012345_0009.mdf' 59.38 kB
####-##-## TIME-### Writer               WARN      write_buffer: Saved 'http://127.0.0.1:####/data/##ID##/Full/0000012345/Run_0000012345_0010.mdf' 59.38 kB
####-##-## TIME-### Writer               INFO      process: Exit condition detected. Leaving submit thread.
####-##-## TIME-### Writer               INFO      +----------------------------------------------------------------
####-##-## TIME-### Writer               INFO      | Overview of monitoring items:
####-##-## TIME-### Writer               INFO      | Number of events written to output:                       1000
####-##-## TIME-### Writer               INFO      | Number of events not written and dropped:                    0
####-##-## TIME-### Writer               INFO      | Number of bursts submitted to output:                     1000
####-##-## TIME-### Writer               INFO      | Number of files opened to write output:                     10
####-##-## TIME-### Writer               INFO      | Number of files closed to write output:                     10
####-##-## TIME-### Writer               INFO      | Number of writte errors:                                     0
####-##-## TIME-### Writer               INFO      | Number of bytes written to output:                      608000
####-##-## TIME-### Writer               INFO      | Number of bytes non-compressed written to output:       608000
####-##-## TIME-### Writer               INFO      | Number of bytes dropped from output:                         0
####-##-## TIME-### Writer               INFO      | Number of events with a bad header structure:                0
####-##-## TIME-### Writer               INFO      | Number of currently active buffers:                          0
####-##-## TIME-### Writer               INFO      | Number of current todo buffers:                              0
####-##-## TIME-### Writer               INFO      | Number of currently free buffers:                            0
####-##-## TIME-### Writer               INFO      +----------------------------------------------------------------
####-##-## TIME-### Writer               INFO      | Files successfully written:
####-##-## TIME-### Writer               INFO      +----------------------------------------------------------------
####-##-## TIME-### Writer               INFO      | /objects/data/##ID##/Full/0000012345/Run_0000012345_0001.mdf Run:     12345  ####-##-## TIME-###        100 events        60800 bytes
####-##-## TIME-### Writer               INFO      | /objects/data/##ID##/Full/0000012345/Run_0000012345_0002.mdf Run:     12345  ####-##-## TIME-###        100 events        60800 bytes
####-##-## TIME-### Writer               INFO      | /objects/data/##ID##/Full/0000012345/Run_0000012345_0003.mdf Run:     12345  ####-##-## TIME-###        100 events        60800 bytes
####-##-## TIME-### Writer               INFO      | /objects/data/##ID##/Full/0000012345/Run_0000012345_0004.mdf Run:     12345  ####-##-## TIME-###        100 events        60800 bytes
####-##-## TIME-### Writer               INFO      | /objects/data/##ID##/Full/0000012345/Run_0000012345_0005.mdf Run:     12345  ####-##-## TIME-###        100 events        60800 bytes
####-##-## TIME-### Writer               INFO      | /objects/data/##ID##/Full/0000012345/Run_0000012345_0006.mdf Run:     12345  ####-##-## TIME-###        100 events        60800 bytes
####-##-## TIME-### Writer               INFO      | /objects/data/##ID##/Full/0000012345/Run_0000012345_0007.mdf Run:     12345  ####-##-## TIME-###        100 events        60800 bytes
####-##-## TIME-### Writer               INFO      | /objects/data/##ID##/Full/0000012345/Run_0000012345_0008.mdf Run:     12345  ####-##-## TIME-###        100 events        60800 bytes
####-##-## TIME-### Writer               INFO      | /objects/data/##ID##/Full/0000012345/Run_0000012345_0009.mdf Run:     12345  ####-##-## TIME-###        100 events        60800 bytes
####-##-## TIME-### Writer               INFO      | /objects/data/##ID##/Full/0000012345/Run_0000012345_0010.mdf Run:     12345  ####-##-## TIME-###        100 events        60800 bytes
####-##-## TIME-### Writer               INFO      +----------------------------------------------------------------
####-##-## TIME-### MBM                  INFO      Excluding from buffers. No more buffer access possible.
