INFO     RTL                   +++ Storage File Server: starting.....
INFO     RTL                   +++ Storage File Server: finished...
INFO     RTL                   +++ Storage File Server: Starting <N6Online7storage2fsE> on http://127.0.0.1:#### with 1 threads.
INFO     RTL                   +++ Storage File Server: File repository: ../hlt1_data Server URI: http://127.0.0.1:#### Local URI: http://127.0.0.1:####
INFO     RTL                   +++ Storage Database Server: starting.....
INFO     RTL                   +++ Storage Database Server: sqlite-db: Table FILES created successfully
INFO     RTL                   +++ Storage Database Server: sqlite-db: ../fdb_0x########.sqlite
INFO     RTL                   +++ Storage Database Server: finished...
INFO     RTL                   +++ Storage Database Server: Starting <N6Online7storage2dbE> on http://127.0.0.1:#### with 1 threads.
INFO     RTL                   +++ Storage Database Server: Server URI: http://127.0.0.1:#### Local URI: http://127.0.0.1:####
####-##-## TIME-### RTL                  INFO      Process::ensure [FDB_FS_SERVER_0x########]: Restart Number: 0
####-##-## TIME-### RTL                  INFO      Process::ensure [FDB_DB_SERVER_0x########]: Restart Number: 0
####-##-## TIME-### INFO:   Loading library: libDataflowDict
####-##-## TIME-### INFO:   Import Online namespace from ROOT
####-##-## TIME-### INFO:   +++ Starting dataflow process
####-##-## TIME-### INFO:   +++ Setting up output logger component
####-##-## TIME-### INFO     RTL                   fdb_cli_dumpdb: Test starting....
####-##-## TIME-### INFO     RTL                   fdb_cli_dumpdb: Test finished successfully!
####-##-## TIME-### FS_STOP              INFO      Process FDB_FS_STOP_0x######## exited.
####-##-## TIME-### FS_STOP              INFO      (stop) +++ Start process: UTGID=FDB_FS_STOP_0x######## exec -a FDB_FS_STOP_0x######## wget http://127.0.0.1:####/control=exit --output-document=FDB_FS_STOP_0x########.data --output-file=FDB_FS_STOP_0x########.log
####-##-## TIME-### FS_STOP              INFO      (finalize) +++ Stop  process: UTGID=FDB_FS_STOP_0x######## exec -a FDB_FS_STOP_0x######## wget http://127.0.0.1:####/control=exit --output-document=FDB_FS_STOP_0x########.data --output-file=FDB_FS_STOP_0x########.log
####-##-## TIME-### FS_SERV              INFO      Process FDB_FS_SERVER_0x######## exited.
####-##-## TIME-### FS_SERV              INFO      (initialize) +++ Start process: UTGID=FDB_FS_SERVER_0x######## exec -a FDB_FS_SERVER_0x######## gentest libStorageServer.so fdb_fs_file_server -threads=1 -buffersize=16777216 -print=3 -local=127.0.0.1:#### -server=127.0.0.1:#### -files=../hlt1_data
####-##-## TIME-### FS_SERV              INFO      (finalize) +++ Stop  process: UTGID=FDB_FS_SERVER_0x######## exec -a FDB_FS_SERVER_0x######## gentest libStorageServer.so fdb_fs_file_server -threads=1 -buffersize=16777216 -print=3 -local=127.0.0.1:#### -server=127.0.0.1:#### -files=../hlt1_data
####-##-## TIME-### DB_STOP              INFO      Process FDB_DB_STOP_0x######## exited.
####-##-## TIME-### DB_STOP              INFO      (stop) +++ Start process: UTGID=FDB_DB_STOP_0x######## exec -a FDB_DB_STOP_0x######## wget http://127.0.0.1:####/control=exit --output-document=FDB_DB_STOP_0x########.data --output-file=FDB_DB_STOP_0x########.log
####-##-## TIME-### DB_STOP              INFO      (finalize) +++ Stop  process: UTGID=FDB_DB_STOP_0x######## exec -a FDB_DB_STOP_0x######## wget http://127.0.0.1:####/control=exit --output-document=FDB_DB_STOP_0x########.data --output-file=FDB_DB_STOP_0x########.log
####-##-## TIME-### DB_SERV              INFO      Process FDB_DB_SERVER_0x######## exited.
####-##-## TIME-### DB_SERV              INFO      (initialize) +++ Start process: UTGID=FDB_DB_SERVER_0x######## exec -a FDB_DB_SERVER_0x######## gentest libStorageServer.so fdb_sqlite_server -threads=1 -print=3 -local=127.0.0.1:#### -server=127.0.0.1:#### -database=../fdb_0x########.sqlite
####-##-## TIME-### DB_SERV              INFO      (finalize) +++ Stop  process: UTGID=FDB_DB_SERVER_0x######## exec -a FDB_DB_SERVER_0x######## gentest libStorageServer.so fdb_sqlite_server -threads=1 -print=3 -local=127.0.0.1:#### -server=127.0.0.1:#### -database=../fdb_0x########.sqlite
####-##-## TIME-### DB_LIST1             INFO      Process FDB_DB_LIST_0x######## exited.
####-##-## TIME-### DB_LIST1             INFO      (finalize) +++ Start process: UTGID=FDB_DB_LIST_0x######## exec -a FDB_DB_LIST_0x######## gentest libStorageServer.so fdb_cli_dumpdb -database=../fdb_0x########.sqlite
####-##-## TIME-### DB_LIST1             INFO      (destruction) +++ Stop  process: UTGID=FDB_DB_LIST_0x######## exec -a FDB_DB_LIST_0x######## gentest libStorageServer.so fdb_cli_dumpdb -database=../fdb_0x########.sqlite
####-##-## TIME-### ##ID##_HLT1Storage_0    [INFO] +++ UTGID:          ##ID##_HLT1Storage_0
####-##-## TIME-### ##ID##_HLT1Storage_0    [INFO] +++ TASK_TYPE:      HLT1Storage
####-##-## TIME-### ##ID##_HLT1Storage_0    [INFO] +++ OPTIONS:        GaudiOnlineTests.DF
####-##-## TIME-### ##ID##_HLT1Storage_0    [INFO] +++ DIM_DNS    port:####
####-##-## TIME-### ##ID##_HLT1Storage_0    [INFO] +++ DIM_DNS    node:localhost
