execute: GaudiOnlineTests.DF.Reader(directory=["../data"],prefix="df_output_mdf_")
INFO:   Loading library: libDataflowDict
INFO:   Import Online namespace from ROOT
INFO:   +++ Reader directory: ['../data'] file prefix: 'df_output_mdf_'
INFO:   +++ Setting up output logger component
INFO:   +++ Starting dataflow process
Reader               INFO      Scanned directory ../data: 10 files.
Reader               INFO      Opened file ../data/df_output_mdf_0000012345_0001.mdf
Reader               INFO      Opened file ../data/df_output_mdf_0000012345_0002.mdf
Reader               INFO      Opened file ../data/df_output_mdf_0000012345_0003.mdf
Reader               INFO      Opened file ../data/df_output_mdf_0000012345_0004.mdf
Reader               INFO      Opened file ../data/df_output_mdf_0000012345_0005.mdf
Reader               INFO      Opened file ../data/df_output_mdf_0000012345_0006.mdf
Reader               INFO      Opened file ../data/df_output_mdf_0000012345_0007.mdf
Reader               INFO      Opened file ../data/df_output_mdf_0000012345_0008.mdf
Reader               INFO      Opened file ../data/df_output_mdf_0000012345_0009.mdf
Reader               INFO      Opened file ../data/df_output_mdf_0000012345_0010.mdf
Reader               INFO      Rescanning directory list.....
Reader               INFO      Scanning directory list disabled!
Reader               INFO      Scanning directory list disabled!
Reader               INFO      Scanning directory list disabled!
Reader               INFO      Sleeping before going to PAUSE....
Reader               INFO      Got incident: Reader of type DAQ_PAUSE
Summary              INFO      (pause)    +++++ MBM buffer section sucessfully mapped.
Summary              INFO      (pause)
Summary              INFO      (pause)    ======================== MBM Bufer summary for buffer "Events_0x########" ========================
Summary              INFO      (pause)
Summary              INFO      (pause)     Buffer "Events_0x########"     Events: Produced:1000 Seen:1000 Pending:0 Max:50
Summary              INFO      (pause)                                Space(kB):[Tot:999969 Free:999969] Users:[Tot:2 Max:30]
Summary              INFO      (pause)
Summary              INFO      (pause)     Name            Partition Type State   Produced %prod     #seen %seen Reqs Buffer
Summary              INFO      (pause)     0x########_Reader_0      feed    P             1000   100                      Events_0x########
Summary              INFO      (pause)     0x########_Sender_0      feed    C                             1000   100      Events_0x########
Summary              INFO      (pause)
Summary              INFO      (pause)    ======================== MBM Bufer summary for buffer "Output_0x########" ========================
Summary              INFO      (pause)
Summary              INFO      (pause)     Buffer "Output_0x########"     Events: Produced:1000 Seen:0 Pending:0 Max:50
Summary              INFO      (pause)                                Space(kB):[Tot:99975 Free:99975] Users:[Tot:1 Max:15]
Summary              INFO      (pause)
Summary              INFO      (pause)     Name            Partition Type State   Produced %prod     #seen %seen Reqs Buffer
Summary              INFO      (pause)     0x########_Receiver_0    feed    P             1000   100                      Output_0x########
Summary              INFO      (pause)
Summary              INFO      (pause)    +++++ MBM summary finished.
Reader               INFO      Quitting...
Reader               INFO      Got incident: Task of type DAQ_CANCEL
MBM                  INFO      Cancelled pending MBM I/O requests.
Reader               INFO      Executed cancellation of pending I/O requests.
MBM                  INFO      Excluding from buffers. No more buffer access possible.
