INFO:   Loading library: libDataflowDict
INFO:   Import Online namespace from ROOT
INFO:   +++ Setting up output logger component
INFO:   +++ Setting up exit component
INFO:   +++ Starting dataflow process
Task                 INFO      Initiate auto-startup sequence....
+----------------------------------------------------------------------------------------------------------
| prop_str                         Hallo Markus!
| prop_bool                        1
| prop_int                         123456
| prop_uint                        987654321
| prop_long                        123456789012345
| prop_ulong                       987654321098765
| prop_float                       123.457
| prop_double                      12345.7
+----------------------------------------------------------------------------------------------------------
| Test PASSED
+----------------------------------------------------------------------------------------------------------
