####-##-## TIME-### ##ID##_Passthrough_0    [INFO] +++ UTGID:          ##ID##_Passthrough_0
####-##-## TIME-### ##ID##_Passthrough_0    [INFO] +++ DIM_DNS    port:####
####-##-## TIME-### ##ID##_Passthrough_0    [INFO] +++ DIM_DNS    node:localhost
####-##-## TIME-### ##ID##_Passthrough_0    [INFO] +++ OPTIONS:        GaudiOnlineTests.DF
####-##-## TIME-### ##ID##_Passthrough_0    [INFO] +++ TASK_TYPE:      Passthrough
####-##-## TIME-### INFO:   Loading library: libDataflowDict
####-##-## TIME-### INFO:   Import Online namespace from ROOT
####-##-## TIME-### INFO:   +++ Setting up output logger component
####-##-## TIME-### INFO:   +++ Starting dataflow process
####-##-## TIME-### Summary              INFO      (cancel)   +++++ MBM buffer section sucessfully mapped.
####-##-## TIME-### Summary              INFO      (cancel)
####-##-## TIME-### Summary              INFO      (cancel)   ======================== MBM Bufer summary for buffer "Events_##ID##" ========================
####-##-## TIME-### Summary              INFO      (cancel)
####-##-## TIME-### Summary              INFO      (cancel)    Buffer "Events_##ID##"  Events: Produced:1000 Seen:1000 Pending:0 Max:50
####-##-## TIME-### Summary              INFO      (cancel)                               Space(kB):[Tot:999969 Free:999969] Users:[Tot:2 Max:30]
####-##-## TIME-### Summary              INFO      (cancel)
####-##-## TIME-### Summary              INFO      (cancel)    Name                           Partition Type State   Produced %prod     #seen %seen Reqs Buffer
####-##-## TIME-### Summary              INFO      (cancel)    ##ID##_Reader_0                 feed    P             1000   100
####-##-## TIME-### Summary              INFO      (cancel)    CONS_ONE                            feed    C                             1000   100   1  Events_##ID##
####-##-## TIME-### Summary              INFO      (cancel)
####-##-## TIME-### Summary              INFO      (cancel)   ======================== MBM Bufer summary for buffer "Output_##ID##" ========================
####-##-## TIME-### Summary              INFO      (cancel)
####-##-## TIME-### Summary              INFO      (cancel)    Buffer "Output_##ID##"  Events: Produced:1000 Seen:0 Pending:0 Max:50
####-##-## TIME-### Summary              INFO      (cancel)                               Space(kB):[Tot:99975 Free:99975] Users:[Tot:1 Max:15]
####-##-## TIME-### Summary              INFO      (cancel)
####-##-## TIME-### Summary              INFO      (cancel)    Name                           Partition Type State   Produced %prod     #seen %seen Reqs Buffer
####-##-## TIME-### Summary              INFO      (cancel)    PROD_ONE                            feed    P             1000   100                      Output_##ID##
####-##-## TIME-### Summary              INFO      (cancel)
####-##-## TIME-### Summary              INFO      (cancel)   +++++ MBM summary finished.
####-##-## TIME-### MBM                  INFO      Excluding from buffers. No more buffer access possible.
