+++ Reader_0.log
####-##-## TIME-### ##ID##_Reader_0         [INFO] +++ UTGID:          ##ID##_Reader_0
####-##-## TIME-### ##ID##_Reader_0         [INFO] +++ DIM_DNS    port:####
####-##-## TIME-### ##ID##_Reader_0         [INFO] +++ DIM_DNS    node:localhost
####-##-## TIME-### ##ID##_Reader_0         [INFO] +++ OPTIONS:        GaudiOnlineTests.DF
####-##-## TIME-### ##ID##_Reader_0         [INFO] +++ TASK_TYPE:      Reader
####-##-## TIME-### INFO:   Loading library: libDataflowDict
####-##-## TIME-### INFO:   Import Online namespace from ROOT
####-##-## TIME-### INFO:   +++ Reader directory: ../data file prefix: 'df_output_mdf_CRC32_0000' Wait: start: 5 sec pause: 15 sec
####-##-## TIME-### INFO:   +++ Setting up output logger component
####-##-## TIME-### INFO:   +++ Starting dataflow process
####-##-## TIME-### Reader               INFO      Scanned directory ../data: 1 files.
####-##-## TIME-### Reader               INFO      Opened file ../data/df_output_mdf_CRC32_0000012345_0001.mdf
####-##-## TIME-### Reader               INFO      Encountered checksum: 85344790
####-##-## TIME-### Reader               INFO      Encountered checksum: 9CD8BDCD
####-##-## TIME-### Reader               INFO      Encountered checksum: 06885405
####-##-## TIME-### Reader               INFO      Encountered checksum: AE004876
####-##-## TIME-### Reader               INFO      Encountered checksum: 3450A1BE
####-##-## TIME-### Reader               INFO      Encountered checksum: 2DBC5BE3
####-##-## TIME-### Reader               INFO      Encountered checksum: B7ECB22B
####-##-## TIME-### Reader               INFO      Encountered checksum: 7DAD6205
####-##-## TIME-### Reader               INFO      Encountered checksum: E7FD8BCD
####-##-## TIME-### Reader               INFO      Encountered checksum: 087EBDD0
####-##-## TIME-### Reader               INFO      Encountered checksum: 922E5418
####-##-## TIME-### Reader               INFO      Encountered checksum: 3AA6486B
####-##-## TIME-### Reader               INFO      Encountered checksum: A0F6A1A3
####-##-## TIME-### Reader               INFO      Encountered checksum: B91A5BFE
####-##-## TIME-### Reader               INFO      Encountered checksum: 234AB236
####-##-## TIME-### Reader               INFO      Encountered checksum: 2D99FBA3
####-##-## TIME-### Reader               INFO      Encountered checksum: B7C9126B
####-##-## TIME-### Reader               INFO      Encountered checksum: AE25E836
####-##-## TIME-### Reader               INFO      Encountered checksum: 347501FE
####-##-## TIME-### Reader               INFO      Encountered checksum: 864D494C
####-##-## TIME-### Reader               INFO      Encountered checksum: 1C1DA084
####-##-## TIME-### Reader               INFO      Encountered checksum: 05F15AD9
####-##-## TIME-### Reader               INFO      Encountered checksum: 9FA1B311
####-##-## TIME-### Reader               INFO      Encountered checksum: 55E0633F
####-##-## TIME-### Reader               INFO      Encountered checksum: CFB08AF7
####-##-## TIME-### Reader               INFO      Encountered checksum: D65C70AA
####-##-## TIME-### Reader               INFO      Encountered checksum: 4C0C9962
####-##-## TIME-### Reader               INFO      Encountered checksum: E4848511
####-##-## TIME-### Reader               INFO      Encountered checksum: 7ED46CD9
####-##-## TIME-### Reader               INFO      Encountered checksum: 91575AC4
####-##-## TIME-### Reader               INFO      Encountered checksum: 0B07B30C
####-##-## TIME-### Reader               INFO      Encountered checksum: 3AEC08EA
####-##-## TIME-### Reader               INFO      Encountered checksum: A0BCE122
####-##-## TIME-### Reader               INFO      Encountered checksum: B9501B7F
####-##-## TIME-### Reader               INFO      Encountered checksum: 2300F2B7
####-##-## TIME-### Reader               INFO      Encountered checksum: 8B88EEC4
####-##-## TIME-### Reader               INFO      Encountered checksum: 11D8070C
####-##-## TIME-### Reader               INFO      Encountered checksum: 0834FD51
####-##-## TIME-### Reader               INFO      Encountered checksum: 92641499
####-##-## TIME-### Reader               INFO      Encountered checksum: 2D376071
####-##-## TIME-### Reader               INFO      Encountered checksum: B76789B9
####-##-## TIME-### Reader               INFO      Encountered checksum: AE8B73E4
####-##-## TIME-### Reader               INFO      Encountered checksum: 34DB9A2C
####-##-## TIME-### Reader               INFO      Encountered checksum: 9C53865F
####-##-## TIME-### Reader               INFO      Encountered checksum: 06036F97
####-##-## TIME-### Reader               INFO      Encountered checksum: 1FEF95CA
####-##-## TIME-### Reader               INFO      Encountered checksum: 85BF7C02
####-##-## TIME-### Reader               INFO      Encountered checksum: 8B6C3597
####-##-## TIME-### Reader               INFO      Encountered checksum: 113CDC5F
####-##-## TIME-### Reader               INFO      Encountered checksum: FEBFEA42
####-##-## TIME-### Reader               INFO      Encountered checksum: 64EF038A
####-##-## TIME-### Reader               INFO      Encountered checksum: CC671FF9
####-##-## TIME-### Reader               INFO      Encountered checksum: 5637F631
####-##-## TIME-### Reader               INFO      Encountered checksum: 4FDB0C6C
####-##-## TIME-### Reader               INFO      Encountered checksum: D58BE5A4
####-##-## TIME-### Reader               INFO      Encountered checksum: 1FCA358A
####-##-## TIME-### Reader               INFO      Encountered checksum: 859ADC42
####-##-## TIME-### Reader               INFO      Encountered checksum: 9C76261F
####-##-## TIME-### Reader               INFO      Encountered checksum: 0626CFD7
####-##-## TIME-### Reader               INFO      Encountered checksum: B41E8765
####-##-## TIME-### Reader               INFO      Encountered checksum: 2E4E6EAD
####-##-## TIME-### Reader               INFO      Encountered checksum: 37A294F0
####-##-## TIME-### Reader               INFO      Encountered checksum: ADF27D38
####-##-## TIME-### Reader               INFO      Encountered checksum: E2692239
####-##-## TIME-### Reader               INFO      Encountered checksum: 7839CBF1
####-##-## TIME-### Reader               INFO      Encountered checksum: 61D531AC
####-##-## TIME-### Reader               INFO      Encountered checksum: FB85D864
####-##-## TIME-### Reader               INFO      Encountered checksum: 530DC417
####-##-## TIME-### Reader               INFO      Encountered checksum: C95D2DDF
####-##-## TIME-### Reader               INFO      Encountered checksum: 26DE1BC2
####-##-## TIME-### Reader               INFO      Encountered checksum: BC8EF20A
####-##-## TIME-### Reader               INFO      Encountered checksum: 76CF2224
####-##-## TIME-### Reader               INFO      Encountered checksum: EC9FCBEC
####-##-## TIME-### Reader               INFO      Encountered checksum: F57331B1
####-##-## TIME-### Reader               INFO      Encountered checksum: 6F23D879
####-##-## TIME-### Reader               INFO      Encountered checksum: C7ABC40A
####-##-## TIME-### Reader               INFO      Encountered checksum: 5DFB2DC2
####-##-## TIME-### Reader               INFO      Encountered checksum: 4417D79F
####-##-## TIME-### Reader               INFO      Encountered checksum: DE473E57
####-##-## TIME-### Reader               INFO      Encountered checksum: 7BC2320B
####-##-## TIME-### Reader               INFO      Encountered checksum: E192DBC3
####-##-## TIME-### Reader               INFO      Encountered checksum: F87E219E
####-##-## TIME-### Reader               INFO      Encountered checksum: 622EC856
####-##-## TIME-### Reader               INFO      Encountered checksum: CAA6D425
####-##-## TIME-### Reader               INFO      Encountered checksum: 50F63DED
####-##-## TIME-### Reader               INFO      Encountered checksum: 491AC7B0
####-##-## TIME-### Reader               INFO      Encountered checksum: D34A2E78
####-##-## TIME-### Reader               INFO      Encountered checksum: 190BFE56
####-##-## TIME-### Reader               INFO      Encountered checksum: 835B179E
####-##-## TIME-### Reader               INFO      Encountered checksum: 6CD82183
####-##-## TIME-### Reader               INFO      Encountered checksum: F688C84B
####-##-## TIME-### Reader               INFO      Encountered checksum: 5E00D438
####-##-## TIME-### Reader               INFO      Encountered checksum: C4503DF0
####-##-## TIME-### Reader               INFO      Encountered checksum: DDBCC7AD
####-##-## TIME-### Reader               INFO      Encountered checksum: 47EC2E65
####-##-## TIME-### Reader               INFO      Encountered checksum: 76079583
####-##-## TIME-### Reader               INFO      Encountered checksum: EC577C4B
####-##-## TIME-### Reader               INFO      Encountered checksum: F5BB8616
####-##-## TIME-### Reader               INFO      Encountered checksum: 6FEB6FDE
####-##-## TIME-### Reader               INFO      Encountered checksum: CE7BAD99
####-##-## TIME-### Reader               INFO      Rescanning directory list.....
####-##-## TIME-### Reader               INFO      Scanning directory list disabled!
####-##-## TIME-### Reader               INFO      Scanning directory list disabled!
####-##-## TIME-### Reader               INFO      Scanning directory list disabled!
####-##-## TIME-### Reader               INFO      Sleeping before going to PAUSE....
####-##-## TIME-### Summary              INFO      (pause)    +++++ MBM buffer section sucessfully mapped.
####-##-## TIME-### Summary              INFO      (pause)
####-##-## TIME-### Summary              INFO      (pause)    ======================== MBM Bufer summary for buffer "Events_##ID##" ========================
####-##-## TIME-### Summary              INFO      (pause)
####-##-## TIME-### Summary              INFO      (pause)     Buffer "Events_##ID##"  Events: Produced:100 Seen:100 Pending:0 Max:50
####-##-## TIME-### Summary              INFO      (pause)                                Space(kB):[Tot:999969 Free:999969] Users:[Tot:2 Max:30]
####-##-## TIME-### Summary              INFO      (pause)
####-##-## TIME-### Summary              INFO      (pause)     Name                           Partition Type State   Produced %prod     #seen %seen Reqs Buffer
####-##-## TIME-### Summary              INFO      (pause)     ##ID##_Reader_0                 feed    P              100   100
####-##-## TIME-### Summary              INFO      (pause)     CONS_ONE                            feed    C                              100   100   1  Events_##ID##
####-##-## TIME-### Summary              INFO      (pause)
####-##-## TIME-### Summary              INFO      (pause)    ======================== MBM Bufer summary for buffer "Output_##ID##" ========================
####-##-## TIME-### Summary              INFO      (pause)
####-##-## TIME-### Summary              INFO      (pause)     Buffer "Output_##ID##"  Events: Produced:100 Seen:0 Pending:0 Max:50
####-##-## TIME-### Summary              INFO      (pause)                                Space(kB):[Tot:99975 Free:99975] Users:[Tot:1 Max:15]
####-##-## TIME-### Summary              INFO      (pause)
####-##-## TIME-### Summary              INFO      (pause)     Name                           Partition Type State   Produced %prod     #seen %seen Reqs Buffer
####-##-## TIME-### Summary              INFO      (pause)     PROD_ONE                            feed    P              100   100                      Output_##ID##
####-##-## TIME-### Summary              INFO      (pause)
####-##-## TIME-### Summary              INFO      (pause)    +++++ MBM summary finished.
####-##-## TIME-### Reader               INFO      Quitting...
####-##-## TIME-### Reader               INFO      Executed cancellation of pending I/O requests.
####-##-## TIME-### MBM                  INFO      Excluding from buffers. No more buffer access possible.
+++ MBMMON.log
+----------------------------------------------------------------------------------------------------
|        Buffer Manager summary  [ (.*)_##ID## ]
+----------------------------------------------------------------------------------------------------
|  +++++ MBM buffer section sucessfully mapped.
|
|  ======================== MBM Bufer summary for buffer "Events_##ID##" ========================
|
|   Buffer "Events_##ID##"  Events: Produced:100 Seen:100 Pending:0 Max:50
|                              Space(kB):[Tot:999969 Free:999969] Users:[Tot:2 Max:30]
|
|   Name                           Partition Type State   Produced %prod     #seen %seen Reqs Buffer
|   ##ID##_Reader_0                 feed    P  #MBM#       100   100
|   CONS_ONE                            feed    C                              100   100   1  Events_##ID##
|
|  ======================== MBM Bufer summary for buffer "Output_##ID##" ========================
|
|   Buffer "Output_##ID##"  Events: Produced:100 Seen:0 Pending:0 Max:50
|                              Space(kB):[Tot:99975 Free:99975] Users:[Tot:1 Max:15]
|
|   Name                           Partition Type State   Produced %prod     #seen %seen Reqs Buffer
|   PROD_ONE                            feed    P              100   100                      Output_##ID##
|
|  +++++ MBM summary finished.
+----------------------------------------------------------------------------------------------------
