+++ Reader_0.log
####-##-## TIME-### ##ID##_Reader_0         [INFO] +++ UTGID:          ##ID##_Reader_0
####-##-## TIME-### ##ID##_Reader_0         [INFO] +++ DIM_DNS    port:####
####-##-## TIME-### ##ID##_Reader_0         [INFO] +++ DIM_DNS    node:localhost
####-##-## TIME-### ##ID##_Reader_0         [INFO] +++ OPTIONS:        GaudiOnlineTests.DF
####-##-## TIME-### ##ID##_Reader_0         [INFO] +++ TASK_TYPE:      Reader
####-##-## TIME-### INFO:   Loading library: libDataflowDict
####-##-## TIME-### INFO:   Import Online namespace from ROOT
####-##-## TIME-### INFO:   +++ Reader directory: ../data file prefix: 'df_output_mdf_gzip_0000' Wait: start: 5 sec pause: 15 sec
####-##-## TIME-### INFO:   +++ Setting up output logger component
####-##-## TIME-### INFO:   +++ Starting dataflow process
####-##-## TIME-### Reader               INFO      Scanned directory ../data: 10 files.
####-##-## TIME-### Reader               INFO      Opened file ../data/df_output_mdf_gzip_0000012345_0001.mdf.gz
####-##-## TIME-### Reader               INFO      Opened file ../data/df_output_mdf_gzip_0000012345_0002.mdf.gz
####-##-## TIME-### Reader               INFO      Opened file ../data/df_output_mdf_gzip_0000012345_0003.mdf.gz
####-##-## TIME-### Reader               INFO      Opened file ../data/df_output_mdf_gzip_0000012345_0004.mdf.gz
####-##-## TIME-### Reader               INFO      Opened file ../data/df_output_mdf_gzip_0000012345_0005.mdf.gz
####-##-## TIME-### Reader               INFO      Opened file ../data/df_output_mdf_gzip_0000012345_0006.mdf.gz
####-##-## TIME-### Reader               INFO      Opened file ../data/df_output_mdf_gzip_0000012345_0007.mdf.gz
####-##-## TIME-### Reader               INFO      Opened file ../data/df_output_mdf_gzip_0000012345_0008.mdf.gz
####-##-## TIME-### Reader               INFO      Opened file ../data/df_output_mdf_gzip_0000012345_0009.mdf.gz
####-##-## TIME-### Reader               INFO      Opened file ../data/df_output_mdf_gzip_0000012345_0010.mdf.gz
####-##-## TIME-### Reader               INFO      Rescanning directory list.....
####-##-## TIME-### Reader               INFO      Scanning directory list disabled!
####-##-## TIME-### Reader               INFO      Scanning directory list disabled!
####-##-## TIME-### Reader               INFO      Scanning directory list disabled!
####-##-## TIME-### Reader               INFO      Sleeping before going to PAUSE....
####-##-## TIME-### Summary              INFO      (pause)    +++++ MBM buffer section sucessfully mapped.
####-##-## TIME-### Summary              INFO      (pause)
####-##-## TIME-### Summary              INFO      (pause)    ======================== MBM Bufer summary for buffer "Events_##ID##" ========================
####-##-## TIME-### Summary              INFO      (pause)
####-##-## TIME-### Summary              INFO      (pause)     Buffer "Events_##ID##"  Events: Produced:1000 Seen:1000 Pending:0 Max:50
####-##-## TIME-### Summary              INFO      (pause)                                Space(kB):[Tot:999969 Free:999969] Users:[Tot:2 Max:30]
####-##-## TIME-### Summary              INFO      (pause)
####-##-## TIME-### Summary              INFO      (pause)     Name                           Partition Type State   Produced %prod     #seen %seen Reqs Buffer
####-##-## TIME-### Summary              INFO      (pause)     ##ID##_Reader_0                 feed    P             1000   100
####-##-## TIME-### Summary              INFO      (pause)     CONS_ONE                            feed    C                             1000   100   1  Events_##ID##
####-##-## TIME-### Summary              INFO      (pause)
####-##-## TIME-### Summary              INFO      (pause)    ======================== MBM Bufer summary for buffer "Output_##ID##" ========================
####-##-## TIME-### Summary              INFO      (pause)
####-##-## TIME-### Summary              INFO      (pause)     Buffer "Output_##ID##"  Events: Produced:1000 Seen:0 Pending:0 Max:50
####-##-## TIME-### Summary              INFO      (pause)                                Space(kB):[Tot:99975 Free:99975] Users:[Tot:1 Max:15]
####-##-## TIME-### Summary              INFO      (pause)
####-##-## TIME-### Summary              INFO      (pause)     Name                           Partition Type State   Produced %prod     #seen %seen Reqs Buffer
####-##-## TIME-### Summary              INFO      (pause)     PROD_ONE                            feed    P             1000   100                      Output_##ID##
####-##-## TIME-### Summary              INFO      (pause)
####-##-## TIME-### Summary              INFO      (pause)    +++++ MBM summary finished.
####-##-## TIME-### Reader               INFO      Quitting...
####-##-## TIME-### Reader               INFO      Executed cancellation of pending I/O requests.
####-##-## TIME-### MBM                  INFO      Excluding from buffers. No more buffer access possible.
