+++ Reader_0.log
####-##-## TIME-### ##ID##_Reader_0         [INFO] +++ UTGID:          ##ID##_Reader_0
####-##-## TIME-### ##ID##_Reader_0         [INFO] +++ DIM_DNS    port:####
####-##-## TIME-### ##ID##_Reader_0         [INFO] +++ DIM_DNS    node:localhost
####-##-## TIME-### ##ID##_Reader_0         [INFO] +++ OPTIONS:        GaudiOnlineTests.DF
####-##-## TIME-### ##ID##_Reader_0         [INFO] +++ TASK_TYPE:      Reader
####-##-## TIME-### INFO:   Loading library: libDataflowDict
####-##-## TIME-### INFO:   Import Online namespace from ROOT
####-##-## TIME-### INFO:   +++ Reader directory: ../data file prefix: 'df_output_tae_zstd_0000' Wait: start: 5 sec pause: 15 sec
####-##-## TIME-### INFO:   +++ Setting up output logger component
####-##-## TIME-### INFO:   +++ Starting dataflow process
####-##-## TIME-### Reader               INFO      Scanned directory ../data: 10 files.
####-##-## TIME-### Reader               INFO      Opened file ../data/df_output_tae_zstd_0000012345_0001.tae.zst
####-##-## TIME-### Reader               INFO      Opened file ../data/df_output_tae_zstd_0000012345_0002.tae.zst
####-##-## TIME-### Reader               INFO      Opened file ../data/df_output_tae_zstd_0000012345_0003.tae.zst
####-##-## TIME-### Reader               INFO      Opened file ../data/df_output_tae_zstd_0000012345_0004.tae.zst
####-##-## TIME-### Reader               INFO      Opened file ../data/df_output_tae_zstd_0000012345_0005.tae.zst
####-##-## TIME-### Reader               INFO      Opened file ../data/df_output_tae_zstd_0000012345_0006.tae.zst
####-##-## TIME-### Reader               INFO      Opened file ../data/df_output_tae_zstd_0000012345_0007.tae.zst
####-##-## TIME-### Reader               INFO      Opened file ../data/df_output_tae_zstd_0000012345_0008.tae.zst
####-##-## TIME-### Reader               INFO      Opened file ../data/df_output_tae_zstd_0000012345_0009.tae.zst
####-##-## TIME-### Reader               INFO      Opened file ../data/df_output_tae_zstd_0000012345_0010.tae.zst
####-##-## TIME-### Reader               INFO      Rescanning directory list.....
####-##-## TIME-### Reader               INFO      Scanning directory list disabled!
####-##-## TIME-### Reader               INFO      Scanning directory list disabled!
####-##-## TIME-### Reader               INFO      Scanning directory list disabled!
####-##-## TIME-### Reader               INFO      Sleeping before going to PAUSE....
####-##-## TIME-### Reader               INFO      Executed cancellation of pending I/O requests.
####-##-## TIME-### Reader               INFO      Quitting...
####-##-## TIME-### MBM                  INFO      Excluding from buffers. No more buffer access possible.
+++ MBMMON.log
+----------------------------------------------------------------------------------------------------
|        Buffer Manager summary  [ (.*)_##ID## ]
+----------------------------------------------------------------------------------------------------
|  +++++ MBM buffer section sucessfully mapped.
|
|  ======================== MBM Bufer summary for buffer "Events_##ID##" ========================
|
|   Buffer "Events_##ID##"  Events: Produced:200 Seen:200 Pending:0 Max:50
|                              Space(kB):[Tot:999969 Free:999969] Users:[Tot:2 Max:30]
|
|   Name                           Partition Type State   Produced %prod     #seen %seen Reqs Buffer
|   ##ID##_Reader_0                 feed    P  #MBM#       200   100
|   CONS_ONE                            feed    C                              200   100   1  Events_##ID##
|
|  ======================== MBM Bufer summary for buffer "Output_##ID##" ========================
|
|   Buffer "Output_##ID##"  Events: Produced:200 Seen:0 Pending:0 Max:50
|                              Space(kB):[Tot:99975 Free:99975] Users:[Tot:1 Max:15]
|
|   Name                           Partition Type State   Produced %prod     #seen %seen Reqs Buffer
|   PROD_ONE                            feed    P              200   100                      Output_##ID##
|
|  +++++ MBM summary finished.
+----------------------------------------------------------------------------------------------------
