+++ StorageFileReader_0.log
####-##-## TIME-### ##ID##_StorageFileReader_0    [INFO] +++ UTGID:          ##ID##_StorageFileReader_0
####-##-## TIME-### ##ID##_StorageFileReader_0    [INFO] +++ DIM_DNS    port:####
####-##-## TIME-### ##ID##_StorageFileReader_0    [INFO] +++ DIM_DNS    node:localhost
####-##-## TIME-### ##ID##_StorageFileReader_0    [INFO] +++ OPTIONS:        GaudiOnlineTests.DF
####-##-## TIME-### ##ID##_StorageFileReader_0    [INFO] +++ TASK_TYPE:      StorageFileReader
####-##-## TIME-### INFO:   Loading library: libDataflowDict
####-##-## TIME-### INFO:   Import Online namespace from ROOT
####-##-## TIME-### INFO:   +++ Reader directory: ['../data'] file prefix: 'df_output_tae_gzip_0000' Wait: start: 5 sec pause: 40 sec
####-##-## TIME-### INFO:   +++ Setting up output logger component
####-##-## TIME-### INFO:   +++ Starting dataflow process
####-##-## TIME-### Reader               INFO      Scanned directory ../data: 10 files.
####-##-## TIME-### Delay                INFO      +++ Got incident DAQ_RUNNING: trigger auto transition to PAUSED after n seconds
####-##-## TIME-### Reader               WARN      Loaded file: ../data/df_output_tae_gzip_0000012345_0001.tae.gz [0 MB]
####-##-## TIME-### Reader               WARN      Opened ../data/df_output_tae_gzip_0000012345_0001.tae.gz [0 MB]
####-##-## TIME-### Reader               WARN      Loaded file: ../data/df_output_tae_gzip_0000012345_0002.tae.gz [0 MB]
####-##-## TIME-### Reader               WARN      Opened ../data/df_output_tae_gzip_0000012345_0002.tae.gz [0 MB]
####-##-## TIME-### Reader               WARN      Loaded file: ../data/df_output_tae_gzip_0000012345_0003.tae.gz [0 MB]
####-##-## TIME-### Reader               WARN      Opened ../data/df_output_tae_gzip_0000012345_0003.tae.gz [0 MB]
####-##-## TIME-### Reader               WARN      Loaded file: ../data/df_output_tae_gzip_0000012345_0004.tae.gz [0 MB]
####-##-## TIME-### Reader               WARN      Opened ../data/df_output_tae_gzip_0000012345_0004.tae.gz [0 MB]
####-##-## TIME-### Reader               WARN      Loaded file: ../data/df_output_tae_gzip_0000012345_0005.tae.gz [0 MB]
####-##-## TIME-### Reader               WARN      Opened ../data/df_output_tae_gzip_0000012345_0005.tae.gz [0 MB]
####-##-## TIME-### Reader               WARN      Loaded file: ../data/df_output_tae_gzip_0000012345_0006.tae.gz [0 MB]
####-##-## TIME-### Reader               WARN      Opened ../data/df_output_tae_gzip_0000012345_0006.tae.gz [0 MB]
####-##-## TIME-### Reader               WARN      Loaded file: ../data/df_output_tae_gzip_0000012345_0007.tae.gz [0 MB]
####-##-## TIME-### Reader               WARN      Opened ../data/df_output_tae_gzip_0000012345_0007.tae.gz [0 MB]
####-##-## TIME-### Reader               WARN      Loaded file: ../data/df_output_tae_gzip_0000012345_0008.tae.gz [0 MB]
####-##-## TIME-### Reader               WARN      Opened ../data/df_output_tae_gzip_0000012345_0008.tae.gz [0 MB]
####-##-## TIME-### Reader               WARN      Loaded file: ../data/df_output_tae_gzip_0000012345_0009.tae.gz [0 MB]
####-##-## TIME-### Reader               WARN      Opened ../data/df_output_tae_gzip_0000012345_0009.tae.gz [0 MB]
####-##-## TIME-### Reader               WARN      Loaded file: ../data/df_output_tae_gzip_0000012345_0010.tae.gz [0 MB]
####-##-## TIME-### Reader               WARN      Opened ../data/df_output_tae_gzip_0000012345_0010.tae.gz [0 MB]
####-##-## TIME-### Reader               INFO      Locking event loop. Waiting for work....
####-##-## TIME-### Delay                INFO      +++ Timeout expired: Invoke auto transition to PAUSED.
####-##-## TIME-### Summary              INFO      (pause)    +++++ MBM buffer section sucessfully mapped.
####-##-## TIME-### Summary              INFO      (pause)
####-##-## TIME-### Summary              INFO      (pause)    ======================== MBM Bufer summary for buffer "Events_##ID##" ========================
####-##-## TIME-### Summary              INFO      (pause)
####-##-## TIME-### Summary              INFO      (pause)     Buffer "Events_##ID##"  Events: Produced:20 Seen:20 Pending:0 Max:50
####-##-## TIME-### Summary              INFO      (pause)                                Space(kB):[Tot:999969 Free:999969] Users:[Tot:2 Max:30]
####-##-## TIME-### Summary              INFO      (pause)
####-##-## TIME-### Summary              INFO      (pause)     Name                           Partition Type State   Produced %prod     #seen %seen Reqs Buffer
####-##-## TIME-### Summary              INFO      (pause)     ##ID##_StorageFileReader_0      feed    P               20   100
####-##-## TIME-### Summary              INFO      (pause)     CONS_ONE                            feed    C                               20   100   1  Events_##ID##
####-##-## TIME-### Summary              INFO      (pause)
####-##-## TIME-### Summary              INFO      (pause)    ======================== MBM Bufer summary for buffer "Output_##ID##" ========================
####-##-## TIME-### Summary              INFO      (pause)
####-##-## TIME-### Summary              INFO      (pause)     Buffer "Output_##ID##"  Events: Produced:20 Seen:0 Pending:0 Max:50
####-##-## TIME-### Summary              INFO      (pause)                                Space(kB):[Tot:99975 Free:99975] Users:[Tot:1 Max:15]
####-##-## TIME-### Summary              INFO      (pause)
####-##-## TIME-### Summary              INFO      (pause)     Name                           Partition Type State   Produced %prod     #seen %seen Reqs Buffer
####-##-## TIME-### Summary              INFO      (pause)     PROD_ONE                            feed    P               20   100                      Output_##ID##
####-##-## TIME-### Summary              INFO      (pause)
####-##-## TIME-### Summary              INFO      (pause)    +++++ MBM summary finished.
####-##-## TIME-### Reader               INFO      Executed cancellation of pending I/O requests.
####-##-## TIME-### MBM                  INFO      Excluding from buffers. No more buffer access possible.
