####-##-## TIME-### ##ID##_Writer_0         [INFO] +++ UTGID:          ##ID##_Writer_0
####-##-## TIME-### ##ID##_Writer_0         [INFO] +++ DIM_DNS    port:####
####-##-## TIME-### ##ID##_Writer_0         [INFO] +++ DIM_DNS    node:localhost
####-##-## TIME-### ##ID##_Writer_0         [INFO] +++ OPTIONS:        GaudiOnlineTests.DF
####-##-## TIME-### ##ID##_Writer_0         [INFO] +++ TASK_TYPE:      Writer
####-##-## TIME-### INFO:   Loading library: libDataflowDict
####-##-## TIME-### INFO:   Import Online namespace from ROOT
####-##-## TIME-### INFO:   +++ Writer output specs: ../data/df_output_mdf_lz4_${RUN}_${SEQ}.mdf.lz4 [max. 100 events per file]
####-##-## TIME-### INFO:   +++ Setting up output logger component
####-##-## TIME-### INFO:   +++ Starting dataflow process
####-##-## TIME-### Writer               WARN      Opened ../data/df_output_mdf_lz4_0000012345_0001.mdf.lz4
####-##-## TIME-### Writer               WARN      Closed ../data/df_output_mdf_lz4_0000012345_0001.mdf.lz4 after 0 MB [event-limit].
####-##-## TIME-### Writer               WARN      Opened ../data/df_output_mdf_lz4_0000012345_0002.mdf.lz4
####-##-## TIME-### Writer               WARN      Closed ../data/df_output_mdf_lz4_0000012345_0002.mdf.lz4 after 0 MB [event-limit].
####-##-## TIME-### Writer               WARN      Opened ../data/df_output_mdf_lz4_0000012345_0003.mdf.lz4
####-##-## TIME-### Writer               WARN      Closed ../data/df_output_mdf_lz4_0000012345_0003.mdf.lz4 after 0 MB [event-limit].
####-##-## TIME-### Writer               WARN      Opened ../data/df_output_mdf_lz4_0000012345_0004.mdf.lz4
####-##-## TIME-### Writer               WARN      Closed ../data/df_output_mdf_lz4_0000012345_0004.mdf.lz4 after 0 MB [event-limit].
####-##-## TIME-### Writer               WARN      Opened ../data/df_output_mdf_lz4_0000012345_0005.mdf.lz4
####-##-## TIME-### Writer               WARN      Closed ../data/df_output_mdf_lz4_0000012345_0005.mdf.lz4 after 0 MB [event-limit].
####-##-## TIME-### Writer               WARN      Opened ../data/df_output_mdf_lz4_0000012345_0006.mdf.lz4
####-##-## TIME-### Writer               WARN      Closed ../data/df_output_mdf_lz4_0000012345_0006.mdf.lz4 after 0 MB [event-limit].
####-##-## TIME-### Writer               WARN      Opened ../data/df_output_mdf_lz4_0000012345_0007.mdf.lz4
####-##-## TIME-### Writer               WARN      Closed ../data/df_output_mdf_lz4_0000012345_0007.mdf.lz4 after 0 MB [event-limit].
####-##-## TIME-### Writer               WARN      Opened ../data/df_output_mdf_lz4_0000012345_0008.mdf.lz4
####-##-## TIME-### Writer               WARN      Closed ../data/df_output_mdf_lz4_0000012345_0008.mdf.lz4 after 0 MB [event-limit].
####-##-## TIME-### Writer               WARN      Opened ../data/df_output_mdf_lz4_0000012345_0009.mdf.lz4
####-##-## TIME-### Writer               WARN      Closed ../data/df_output_mdf_lz4_0000012345_0009.mdf.lz4 after 0 MB [event-limit].
####-##-## TIME-### Writer               WARN      Opened ../data/df_output_mdf_lz4_0000012345_0010.mdf.lz4
####-##-## TIME-### Writer               WARN      Closed ../data/df_output_mdf_lz4_0000012345_0010.mdf.lz4 after 0 MB [event-limit].
####-##-## TIME-### Writer               INFO      +----------------------------------------------------------------
####-##-## TIME-### Writer               INFO      | Overview of monitoring items:
####-##-## TIME-### Writer               INFO      | Number of events written to output:                       1000
####-##-## TIME-### Writer               INFO      | Number of events not written and dropped:                    0
####-##-## TIME-### Writer               INFO      | Number of bursts submitted to output:                     1000
####-##-## TIME-### Writer               INFO      | Number of files opened to write output:                     10
####-##-## TIME-### Writer               INFO      | Number of files closed to write output:                     10
####-##-## TIME-### Writer               INFO      | Number of writte errors:                                     0
####-##-## TIME-### Writer               INFO      | Number of bytes written to output:                      608000
####-##-## TIME-### Writer               INFO      | Number of bytes non-compressed written to output:       608000
####-##-## TIME-### Writer               INFO      | Number of bytes dropped from output:                         0
####-##-## TIME-### Writer               INFO      | Number of events with a bad header structure:                0
####-##-## TIME-### Writer               INFO      | Number of currently active buffers:                          0
####-##-## TIME-### Writer               INFO      | Number of current todo buffers:                              0
####-##-## TIME-### Writer               INFO      | Number of currently free buffers:                            0
####-##-## TIME-### Writer               INFO      +----------------------------------------------------------------
####-##-## TIME-### Writer               INFO      | Files successfully written:
####-##-## TIME-### Writer               INFO      +----------------------------------------------------------------
####-##-## TIME-### Writer               INFO      | ../data/df_output_mdf_lz4_0000012345_0001.mdf.lz4 Run:     12345  ####-##-## TIME-###        100 events        60800 bytes
####-##-## TIME-### Writer               INFO      | ../data/df_output_mdf_lz4_0000012345_0002.mdf.lz4 Run:     12345  ####-##-## TIME-###        100 events        60800 bytes
####-##-## TIME-### Writer               INFO      | ../data/df_output_mdf_lz4_0000012345_0003.mdf.lz4 Run:     12345  ####-##-## TIME-###        100 events        60800 bytes
####-##-## TIME-### Writer               INFO      | ../data/df_output_mdf_lz4_0000012345_0004.mdf.lz4 Run:     12345  ####-##-## TIME-###        100 events        60800 bytes
####-##-## TIME-### Writer               INFO      | ../data/df_output_mdf_lz4_0000012345_0005.mdf.lz4 Run:     12345  ####-##-## TIME-###        100 events        60800 bytes
####-##-## TIME-### Writer               INFO      | ../data/df_output_mdf_lz4_0000012345_0006.mdf.lz4 Run:     12345  ####-##-## TIME-###        100 events        60800 bytes
####-##-## TIME-### Writer               INFO      | ../data/df_output_mdf_lz4_0000012345_0007.mdf.lz4 Run:     12345  ####-##-## TIME-###        100 events        60800 bytes
####-##-## TIME-### Writer               INFO      | ../data/df_output_mdf_lz4_0000012345_0008.mdf.lz4 Run:     12345  ####-##-## TIME-###        100 events        60800 bytes
####-##-## TIME-### Writer               INFO      | ../data/df_output_mdf_lz4_0000012345_0009.mdf.lz4 Run:     12345  ####-##-## TIME-###        100 events        60800 bytes
####-##-## TIME-### Writer               INFO      | ../data/df_output_mdf_lz4_0000012345_0010.mdf.lz4 Run:     12345  ####-##-## TIME-###        100 events        60800 bytes
####-##-## TIME-### Writer               INFO      +----------------------------------------------------------------
