####-##-## TIME-### ##ID##_Receiver_0       [INFO] +++ UTGID:          ##ID##_Receiver_0
####-##-## TIME-### ##ID##_Receiver_0       [INFO] +++ DIM_DNS    port:####
####-##-## TIME-### ##ID##_Receiver_0       [INFO] +++ DIM_DNS    node:localhost
####-##-## TIME-### ##ID##_Receiver_0       [INFO] +++ OPTIONS:        GaudiOnlineTests.DF
####-##-## TIME-### ##ID##_Receiver_0       [INFO] +++ TASK_TYPE:      Receiver
####-##-## TIME-### ##ID##_Receiver_0       [INFO] +++ TAN host:#HOST#   port:####
####-##-## TIME-### INFO:   Loading library: libDataflowDict
####-##-## TIME-### INFO:   Import Online namespace from ROOT
####-##-## TIME-### INFO:   +++ Setting up output logger component
####-##-## TIME-### INFO:   +++ Network component Receiver[Receiver/Dataflow_ZMQReceiver]  TAN host:#HOST# TAN port:####
####-##-## TIME-### INFO:   +++ Starting dataflow process
####-##-## TIME-### Receiver             INFO      Executing DAQ_CANCEL
####-##-## TIME-### Receiver             INFO      Handled 1000 input events. Output: 1000, errors: 0 events.
####-##-## TIME-### MBM                  INFO      Excluding from buffers. No more buffer access possible.
