####-##-## TIME-### ##ID##_EventClient_0    [INFO] +++ UTGID:          ##ID##_EventClient_0
####-##-## TIME-### ##ID##_EventClient_0    [INFO] +++ DIM_DNS    port:####
####-##-## TIME-### ##ID##_EventClient_0    [INFO] +++ DIM_DNS    node:localhost
####-##-## TIME-### ##ID##_EventClient_0    [INFO] +++ OPTIONS:        GaudiOnlineTests.DF
####-##-## TIME-### ##ID##_EventClient_0    [INFO] +++ TASK_TYPE:      EventClient
####-##-## TIME-### ##ID##_EventClient_0    [INFO] +++ TAN host:#HOST#   port:####
####-##-## TIME-### INFO:   Loading library: libDataflowDict
####-##-## TIME-### INFO:   Import Online namespace from ROOT
####-##-## TIME-### INFO:   +++ Setting up output logger component
####-##-## TIME-### INFO:   +++ Network component network EventSelector[EventProc/Dataflow_ZMQSelector]  input:localhost::##ID##_EventServer_0 TAN host:#HOST# TAN port:####
####-##-## TIME-### INFO:   +++ Starting dataflow process
####-##-## TIME-### EventProc            INFO      start: Network event access initialized.
####-##-## TIME-### EventProc            WARN      Event limit reached. No more requests to localhost::##ID##_EventServer_0.
####-##-## TIME-### Summary              INFO      (pause)    +++++ MBM buffer section sucessfully mapped.
####-##-## TIME-### Summary              INFO      (pause)
####-##-## TIME-### Summary              INFO      (pause)    ======================== MBM Bufer summary for buffer "Output_##ID##" ========================
####-##-## TIME-### Summary              INFO      (pause)
####-##-## TIME-### Summary              INFO      (pause)     Buffer "Output_##ID##"  Events: Produced:100 Seen:0 Pending:0 Max:50
####-##-## TIME-### Summary              INFO      (pause)                                Space(kB):[Tot:99975 Free:99975] Users:[Tot:1 Max:15]
####-##-## TIME-### Summary              INFO      (pause)
####-##-## TIME-### Summary              INFO      (pause)     Name                           Partition Type State   Produced %prod     #seen %seen Reqs Buffer
####-##-## TIME-### Summary              INFO      (pause)     ##ID##_EventClient_0            feed    P              100   100
####-##-## TIME-### Summary              INFO      (pause)
####-##-## TIME-### Summary              INFO      (pause)    +++++ MBM summary finished.
####-##-## TIME-### EventProc            INFO      Event summary [localhost::##ID##_EventServer_0]: Requested:100 Received:100 Delivered:100 Errors:0
####-##-## TIME-### MBM                  INFO      Excluding from buffers. No more buffer access possible.
