####-##-## TIME-### Retrieved 1 Histograms from "gaucho/add_histograms_serialize_other.data.0"
| X-axis: Nbin:100 min:-5 max:5
| Stats:  ####### min:0 max:0 sumw:0 sumw2:0 sumwx:0 sumwx2:0
####-##-## TIME-### Retrieved 1 Histograms from "gaucho/add_histograms_serialize_other.data.1"
| X-axis: Nbin:50 min:-5 max:5
| Y-axis: Nbin:50 min:-5 max:5
| Stats:  ####### min:0 max:0 sumw:0 sumw2:0 sumwx:0 sumwx2:0 sumwy:0 sumwy2:0
####-##-## TIME-### Retrieved 1 Histograms from "gaucho/add_histograms_serialize_other.data.2"
| X-axis: Nbin:10 min:-5 max:5
| Y-axis: Nbin:10 min:-5 max:5
| Z-axis: Nbin:10 min:-5 max:5
| Stats:  ####### min:0 max:0 sumw:0 sumw2:0 sumwx:0 sumwx2:0 sumwy:0 sumwy2:0 sumwz:0 sumwz2:0 sumwt:0 sumwt2:0
####-##-## TIME-### Retrieved 1 Histograms from "gaucho/add_histograms_serialize_other.data.3"
| X-axis: Nbin:100 min:-5 max:5
| Stats:  ####### min:0 max:0 sumw:0 sumw2:0 sumwx:0 sumwx2:0
####-##-## TIME-### Retrieved 1 Histograms from "gaucho/add_histograms_serialize_other.data.4"
| X-axis: Nbin:50 min:-5 max:5
| Y-axis: Nbin:50 min:-5 max:5
| Stats:  ####### min:0 max:0 sumw:0 sumw2:0 sumwx:0 sumwx2:0 sumwy:0 sumwy2:0
####-##-## TIME-### Retrieved 1 Histograms from "gaucho/add_histograms_serialize_other.data.5"
| X-axis: Nbin:10 min:-5 max:5
| Y-axis: Nbin:10 min:-5 max:5
| Z-axis: Nbin:10 min:-5 max:5
| Stats:  ####### min:0 max:0 sumw:0 sumw2:0 sumwx:0 sumwx2:0 sumwy:0 sumwy2:0 sumwz:0 sumwz2:0 sumwt:0 sumwt2:0
