####-##-UNIVERSAL--TIME-####  taskGauchoExtract    INFO      (pause) +++ Start thread: libGauchoBase.so taskGauchoExtract -dns=localhost -task=##ID##_localhost_GauchoHistoProcess -verbose -histos -one -output=../gaucho/add_histograms_serialize_all.data -binary -match=Histos/(.*)
####-##-UNIVERSAL--TIME-####  taskGauchoExtract    INFO      (finalize) +++ Stop  thread: libGauchoBase.so taskGauchoExtract -dns=localhost -task=##ID##_localhost_GauchoHistoProcess -verbose -histos -one -output=../gaucho/add_histograms_serialize_all.data -binary -match=Histos/(.*)
####-##-UNIVERSAL--TIME-####  taskGauchoExtract    DEBUG     Successfully set properties to component.
####-##-UNIVERSAL--TIME-####  taskGauchoExtract    DEBUG     Got incident: Delay ot type:DAQ_PAUSE
####-##-UNIVERSAL--TIME-####  extract_gaucho_info: taskGauchoExtract.exe -dns=localhost -task=##ID##_localhost_GauchoHistoProcess -verbose -histos -one -output=../gaucho/add_histograms_serialize_all.data -binary -match=Histos/(.*) > taskGauchoExtract.log
####-##-UNIVERSAL--TIME-####  Trying to retrieve the data. Output file: ../gaucho/add_histograms_serialize_all.data
####-##-UNIVERSAL--TIME-####  Retrieved 1 Item(s). [86840 bytes]
####-##-UNIVERSAL--TIME-####  Retrieved 1 Item(s). [86840 bytes]
####-##-UNIVERSAL--TIME-####  Retrieved 1 Item(s). [86840 bytes]
####-##-UNIVERSAL--TIME-####  Retrieved 1 Item(s). [86840 bytes]
####-##-UNIVERSAL--TIME-####  Retrieved 1 Item(s). [86832 bytes]
####-##-UNIVERSAL--TIME-####  Retrieved 1 Item(s). [86832 bytes]
####-##-UNIVERSAL--TIME-####  Retrieved 1 Item(s). [86832 bytes]
####-##-UNIVERSAL--TIME-####  Retrieved 1 Item(s). [680 bytes]
####-##-UNIVERSAL--TIME-####  Retrieved 1 Item(s). [664 bytes]
####-##-UNIVERSAL--TIME-####  Retrieved 1 Item(s). [55656 bytes]
####-##-UNIVERSAL--TIME-####  Retrieved 1 Item(s). [55656 bytes]
####-##-UNIVERSAL--TIME-####  Retrieved 1 Item(s). [55656 bytes]
####-##-UNIVERSAL--TIME-####  Retrieved 1 Item(s). [55656 bytes]
####-##-UNIVERSAL--TIME-####  Retrieved 1 Item(s). [55656 bytes]
####-##-UNIVERSAL--TIME-####  Retrieved 1 Item(s). [55648 bytes]
####-##-UNIVERSAL--TIME-####  Retrieved 1 Item(s). [55648 bytes]
####-##-UNIVERSAL--TIME-####  Retrieved 1 Item(s). [55648 bytes]
####-##-UNIVERSAL--TIME-####  Retrieved 1 Item(s). [55640 bytes]
####-##-UNIVERSAL--TIME-####  Retrieved 1 Item(s). [4920 bytes]
####-##-UNIVERSAL--TIME-####  Retrieved 1 Item(s). [4904 bytes]
####-##-UNIVERSAL--TIME-####  Retrieved 1 Item(s). [472 bytes]
####-##-UNIVERSAL--TIME-####  Retrieved 1 Item(s). [464 bytes]
####-##-UNIVERSAL--TIME-####  Retrieved 1 Item(s). [464 bytes]
####-##-UNIVERSAL--TIME-####  Retrieved 1 Item(s). [464 bytes]
####-##-UNIVERSAL--TIME-####  Retrieved 1 Item(s). [464 bytes]
####-##-UNIVERSAL--TIME-####  Retrieved 1 Item(s). [464 bytes]
####-##-UNIVERSAL--TIME-####  Retrieved 1 Item(s). [464 bytes]
####-##-UNIVERSAL--TIME-####  Retrieved 1 Item(s). [464 bytes]
####-##-UNIVERSAL--TIME-####  Retrieved 1 Item(s). [456 bytes]
####-##-UNIVERSAL--TIME-####  Retrieved 1 Item(s). [43560 bytes]
####-##-UNIVERSAL--TIME-####  Retrieved 1 Item(s). [43560 bytes]
####-##-UNIVERSAL--TIME-####  Retrieved 1 Item(s). [43560 bytes]
####-##-UNIVERSAL--TIME-####  Retrieved 1 Item(s). [43560 bytes]
####-##-UNIVERSAL--TIME-####  Retrieved 1 Item(s). [43560 bytes]
####-##-UNIVERSAL--TIME-####  Retrieved 1 Item(s). [43560 bytes]
####-##-UNIVERSAL--TIME-####  Retrieved 1 Item(s). [43560 bytes]
####-##-UNIVERSAL--TIME-####  Retrieved 1 Item(s). [43560 bytes]
####-##-UNIVERSAL--TIME-####  Retrieved 1 Item(s). [43552 bytes]
####-##-UNIVERSAL--TIME-####  Retrieved 1 Item(s). [3560 bytes]
####-##-UNIVERSAL--TIME-####  Retrieved 1 Item(s). [3560 bytes]
####-##-UNIVERSAL--TIME-####  Retrieved 1 Item(s). [3560 bytes]
####-##-UNIVERSAL--TIME-####  Retrieved 1 Item(s). [3560 bytes]
####-##-UNIVERSAL--TIME-####  Retrieved 1 Item(s). [3552 bytes]
####-##-UNIVERSAL--TIME-####  Retrieved 1 Item(s). [3552 bytes]
####-##-UNIVERSAL--TIME-####  Retrieved 1 Item(s). [3544 bytes]
####-##-UNIVERSAL--TIME-####  Retrieved 1 Item(s). [28008 bytes]
####-##-UNIVERSAL--TIME-####  Retrieved 1 Item(s). [28008 bytes]
####-##-UNIVERSAL--TIME-####  Retrieved 1 Item(s). [28008 bytes]
####-##-UNIVERSAL--TIME-####  Retrieved 1 Item(s). [28008 bytes]
####-##-UNIVERSAL--TIME-####  Retrieved 1 Item(s). [28008 bytes]
####-##-UNIVERSAL--TIME-####  Retrieved 1 Item(s). [28000 bytes]
####-##-UNIVERSAL--TIME-####  Retrieved 1 Item(s). [28000 bytes]
####-##-UNIVERSAL--TIME-####  Retrieved 1 Item(s). [28000 bytes]
####-##-UNIVERSAL--TIME-####  Retrieved 1 Item(s). [28000 bytes]
####-##-UNIVERSAL--TIME-####  Retrieved 1 Item(s). [28000 bytes]
####-##-UNIVERSAL--TIME-####  Retrieved 1 Item(s). [28000 bytes]
####-##-UNIVERSAL--TIME-####  Retrieved 1 Item(s). [28000 bytes]
####-##-UNIVERSAL--TIME-####  Retrieved 1 Item(s). [28000 bytes]
####-##-UNIVERSAL--TIME-####  Retrieved 1 Item(s). [28000 bytes]
####-##-UNIVERSAL--TIME-####  Retrieved 1 Item(s). [28000 bytes]
####-##-UNIVERSAL--TIME-####  Retrieved 1 Item(s). [28000 bytes]
####-##-UNIVERSAL--TIME-####  Retrieved 1 Item(s). [28000 bytes]
####-##-UNIVERSAL--TIME-####  Retrieved 1 Item(s). [28000 bytes]
####-##-UNIVERSAL--TIME-####  Retrieved 1 Item(s). [28000 bytes]
####-##-UNIVERSAL--TIME-####  Retrieved 1 Item(s). [2608 bytes]
####-##-UNIVERSAL--TIME-####  Retrieved 1 Item(s). [2600 bytes]
####-##-UNIVERSAL--TIME-####  Retrieved 1 Item(s). [2600 bytes]
####-##-UNIVERSAL--TIME-####  Retrieved 1 Item(s). [2600 bytes]
####-##-UNIVERSAL--TIME-####  Retrieved 1 Item(s). [2600 bytes]
####-##-UNIVERSAL--TIME-####  Retrieved 1 Item(s). [2600 bytes]
####-##-UNIVERSAL--TIME-####  Retrieved 1 Item(s). [2600 bytes]
####-##-UNIVERSAL--TIME-####  Retrieved 1 Item(s). [2600 bytes]
####-##-UNIVERSAL--TIME-####  Retrieved 1 Item(s). [2592 bytes]
####-##-UNIVERSAL--TIME-####  Retrieved 1 Item(s). [1904 bytes]
####-##-UNIVERSAL--TIME-####  Retrieved 1 Item(s). [1904 bytes]
####-##-UNIVERSAL--TIME-####  Retrieved 1 Item(s). [1904 bytes]
####-##-UNIVERSAL--TIME-####  Retrieved 1 Item(s). [1904 bytes]
####-##-UNIVERSAL--TIME-####  Retrieved 1 Item(s). [1904 bytes]
####-##-UNIVERSAL--TIME-####  Retrieved 1 Item(s). [1904 bytes]
####-##-UNIVERSAL--TIME-####  Retrieved 1 Item(s). [1904 bytes]
####-##-UNIVERSAL--TIME-####  Retrieved 1 Item(s). [1904 bytes]
####-##-UNIVERSAL--TIME-####  Retrieved 1 Item(s). [1904 bytes]
####-##-UNIVERSAL--TIME-####  Open output file: ../gaucho/add_histograms_serialize_all.data.9
####-##-UNIVERSAL--TIME-####  Open output file: ../gaucho/add_histograms_serialize_all.data.81
####-##-UNIVERSAL--TIME-####  Open output file: ../gaucho/add_histograms_serialize_all.data.80
####-##-UNIVERSAL--TIME-####  Open output file: ../gaucho/add_histograms_serialize_all.data.8
####-##-UNIVERSAL--TIME-####  Open output file: ../gaucho/add_histograms_serialize_all.data.79
####-##-UNIVERSAL--TIME-####  Open output file: ../gaucho/add_histograms_serialize_all.data.78
####-##-UNIVERSAL--TIME-####  Open output file: ../gaucho/add_histograms_serialize_all.data.77
####-##-UNIVERSAL--TIME-####  Open output file: ../gaucho/add_histograms_serialize_all.data.76
####-##-UNIVERSAL--TIME-####  Open output file: ../gaucho/add_histograms_serialize_all.data.75
####-##-UNIVERSAL--TIME-####  Open output file: ../gaucho/add_histograms_serialize_all.data.74
####-##-UNIVERSAL--TIME-####  Open output file: ../gaucho/add_histograms_serialize_all.data.73
####-##-UNIVERSAL--TIME-####  Open output file: ../gaucho/add_histograms_serialize_all.data.72
####-##-UNIVERSAL--TIME-####  Open output file: ../gaucho/add_histograms_serialize_all.data.71
####-##-UNIVERSAL--TIME-####  Open output file: ../gaucho/add_histograms_serialize_all.data.70
####-##-UNIVERSAL--TIME-####  Open output file: ../gaucho/add_histograms_serialize_all.data.7
####-##-UNIVERSAL--TIME-####  Open output file: ../gaucho/add_histograms_serialize_all.data.69
####-##-UNIVERSAL--TIME-####  Open output file: ../gaucho/add_histograms_serialize_all.data.68
####-##-UNIVERSAL--TIME-####  Open output file: ../gaucho/add_histograms_serialize_all.data.67
####-##-UNIVERSAL--TIME-####  Open output file: ../gaucho/add_histograms_serialize_all.data.66
####-##-UNIVERSAL--TIME-####  Open output file: ../gaucho/add_histograms_serialize_all.data.65
####-##-UNIVERSAL--TIME-####  Open output file: ../gaucho/add_histograms_serialize_all.data.64
####-##-UNIVERSAL--TIME-####  Open output file: ../gaucho/add_histograms_serialize_all.data.63
####-##-UNIVERSAL--TIME-####  Open output file: ../gaucho/add_histograms_serialize_all.data.62
####-##-UNIVERSAL--TIME-####  Open output file: ../gaucho/add_histograms_serialize_all.data.61
####-##-UNIVERSAL--TIME-####  Open output file: ../gaucho/add_histograms_serialize_all.data.60
####-##-UNIVERSAL--TIME-####  Open output file: ../gaucho/add_histograms_serialize_all.data.6
####-##-UNIVERSAL--TIME-####  Open output file: ../gaucho/add_histograms_serialize_all.data.59
####-##-UNIVERSAL--TIME-####  Open output file: ../gaucho/add_histograms_serialize_all.data.58
####-##-UNIVERSAL--TIME-####  Open output file: ../gaucho/add_histograms_serialize_all.data.57
####-##-UNIVERSAL--TIME-####  Open output file: ../gaucho/add_histograms_serialize_all.data.56
####-##-UNIVERSAL--TIME-####  Open output file: ../gaucho/add_histograms_serialize_all.data.55
####-##-UNIVERSAL--TIME-####  Open output file: ../gaucho/add_histograms_serialize_all.data.54
####-##-UNIVERSAL--TIME-####  Open output file: ../gaucho/add_histograms_serialize_all.data.53
####-##-UNIVERSAL--TIME-####  Open output file: ../gaucho/add_histograms_serialize_all.data.52
####-##-UNIVERSAL--TIME-####  Open output file: ../gaucho/add_histograms_serialize_all.data.51
####-##-UNIVERSAL--TIME-####  Open output file: ../gaucho/add_histograms_serialize_all.data.50
####-##-UNIVERSAL--TIME-####  Open output file: ../gaucho/add_histograms_serialize_all.data.5
####-##-UNIVERSAL--TIME-####  Open output file: ../gaucho/add_histograms_serialize_all.data.49
####-##-UNIVERSAL--TIME-####  Open output file: ../gaucho/add_histograms_serialize_all.data.48
####-##-UNIVERSAL--TIME-####  Open output file: ../gaucho/add_histograms_serialize_all.data.47
####-##-UNIVERSAL--TIME-####  Open output file: ../gaucho/add_histograms_serialize_all.data.46
####-##-UNIVERSAL--TIME-####  Open output file: ../gaucho/add_histograms_serialize_all.data.45
####-##-UNIVERSAL--TIME-####  Open output file: ../gaucho/add_histograms_serialize_all.data.44
####-##-UNIVERSAL--TIME-####  Open output file: ../gaucho/add_histograms_serialize_all.data.43
####-##-UNIVERSAL--TIME-####  Open output file: ../gaucho/add_histograms_serialize_all.data.42
####-##-UNIVERSAL--TIME-####  Open output file: ../gaucho/add_histograms_serialize_all.data.41
####-##-UNIVERSAL--TIME-####  Open output file: ../gaucho/add_histograms_serialize_all.data.40
####-##-UNIVERSAL--TIME-####  Open output file: ../gaucho/add_histograms_serialize_all.data.4
####-##-UNIVERSAL--TIME-####  Open output file: ../gaucho/add_histograms_serialize_all.data.39
####-##-UNIVERSAL--TIME-####  Open output file: ../gaucho/add_histograms_serialize_all.data.38
####-##-UNIVERSAL--TIME-####  Open output file: ../gaucho/add_histograms_serialize_all.data.37
####-##-UNIVERSAL--TIME-####  Open output file: ../gaucho/add_histograms_serialize_all.data.36
####-##-UNIVERSAL--TIME-####  Open output file: ../gaucho/add_histograms_serialize_all.data.35
####-##-UNIVERSAL--TIME-####  Open output file: ../gaucho/add_histograms_serialize_all.data.34
####-##-UNIVERSAL--TIME-####  Open output file: ../gaucho/add_histograms_serialize_all.data.33
####-##-UNIVERSAL--TIME-####  Open output file: ../gaucho/add_histograms_serialize_all.data.32
####-##-UNIVERSAL--TIME-####  Open output file: ../gaucho/add_histograms_serialize_all.data.31
####-##-UNIVERSAL--TIME-####  Open output file: ../gaucho/add_histograms_serialize_all.data.30
####-##-UNIVERSAL--TIME-####  Open output file: ../gaucho/add_histograms_serialize_all.data.3
####-##-UNIVERSAL--TIME-####  Open output file: ../gaucho/add_histograms_serialize_all.data.29
####-##-UNIVERSAL--TIME-####  Open output file: ../gaucho/add_histograms_serialize_all.data.28
####-##-UNIVERSAL--TIME-####  Open output file: ../gaucho/add_histograms_serialize_all.data.27
####-##-UNIVERSAL--TIME-####  Open output file: ../gaucho/add_histograms_serialize_all.data.26
####-##-UNIVERSAL--TIME-####  Open output file: ../gaucho/add_histograms_serialize_all.data.25
####-##-UNIVERSAL--TIME-####  Open output file: ../gaucho/add_histograms_serialize_all.data.24
####-##-UNIVERSAL--TIME-####  Open output file: ../gaucho/add_histograms_serialize_all.data.23
####-##-UNIVERSAL--TIME-####  Open output file: ../gaucho/add_histograms_serialize_all.data.22
####-##-UNIVERSAL--TIME-####  Open output file: ../gaucho/add_histograms_serialize_all.data.21
####-##-UNIVERSAL--TIME-####  Open output file: ../gaucho/add_histograms_serialize_all.data.20
####-##-UNIVERSAL--TIME-####  Open output file: ../gaucho/add_histograms_serialize_all.data.2
####-##-UNIVERSAL--TIME-####  Open output file: ../gaucho/add_histograms_serialize_all.data.19
####-##-UNIVERSAL--TIME-####  Open output file: ../gaucho/add_histograms_serialize_all.data.18
####-##-UNIVERSAL--TIME-####  Open output file: ../gaucho/add_histograms_serialize_all.data.17
####-##-UNIVERSAL--TIME-####  Open output file: ../gaucho/add_histograms_serialize_all.data.16
####-##-UNIVERSAL--TIME-####  Open output file: ../gaucho/add_histograms_serialize_all.data.15
####-##-UNIVERSAL--TIME-####  Open output file: ../gaucho/add_histograms_serialize_all.data.14
####-##-UNIVERSAL--TIME-####  Open output file: ../gaucho/add_histograms_serialize_all.data.13
####-##-UNIVERSAL--TIME-####  Open output file: ../gaucho/add_histograms_serialize_all.data.12
####-##-UNIVERSAL--TIME-####  Open output file: ../gaucho/add_histograms_serialize_all.data.11
####-##-UNIVERSAL--TIME-####  Open output file: ../gaucho/add_histograms_serialize_all.data.10
####-##-UNIVERSAL--TIME-####  Open output file: ../gaucho/add_histograms_serialize_all.data.1
####-##-UNIVERSAL--TIME-####  Open output file: ../gaucho/add_histograms_serialize_all.data.0
####-##-UNIVERSAL--TIME-####  Number of matching Items Histos/(.*) of type Histos for Task ##ID##_localhost_GauchoHistoProcess: 82
####-##-UNIVERSAL--TIME-####  Item [0]: Histos/delayed_Gauss_ATO3D_double
####-##-UNIVERSAL--TIME-####  Item [0]: Histos/Gauss_W3D_double
####-##-UNIVERSAL--TIME-####  Item [0]: Histos/Gauss_W2D_double
####-##-UNIVERSAL--TIME-####  Item [0]: Histos/Gauss_W1D_double
####-##-UNIVERSAL--TIME-####  Item [0]: Histos/Gauss_Prof_WBuf3D_uint
####-##-UNIVERSAL--TIME-####  Item [0]: Histos/Gauss_Prof_WBuf3D_double
####-##-UNIVERSAL--TIME-####  Item [0]: Histos/Gauss_Prof_WBuf2D_uint
####-##-UNIVERSAL--TIME-####  Item [0]: Histos/Gauss_Prof_WBuf2D_double
####-##-UNIVERSAL--TIME-####  Item [0]: Histos/Gauss_Prof_WBuf1D_uint
####-##-UNIVERSAL--TIME-####  Item [0]: Histos/Gauss_Prof_WBuf1D_double
####-##-UNIVERSAL--TIME-####  Item [0]: Histos/Gauss_Prof_WATO3D_uint
####-##-UNIVERSAL--TIME-####  Item [0]: Histos/Gauss_Prof_WATO3D_double
####-##-UNIVERSAL--TIME-####  Item [0]: Histos/Gauss_Prof_WATO2D_uint
####-##-UNIVERSAL--TIME-####  Item [0]: Histos/Gauss_Prof_WATO2D_double
####-##-UNIVERSAL--TIME-####  Item [0]: Histos/Gauss_Prof_WATO1D_uint
####-##-UNIVERSAL--TIME-####  Item [0]: Histos/Gauss_Prof_WATO1D_double
####-##-UNIVERSAL--TIME-####  Item [0]: Histos/Gauss_Prof_NA3D_long
####-##-UNIVERSAL--TIME-####  Item [0]: Histos/Gauss_Prof_NA3D_double
####-##-UNIVERSAL--TIME-####  Item [0]: Histos/Gauss_Prof_NA2D_long
####-##-UNIVERSAL--TIME-####  Item [0]: Histos/Gauss_Prof_NA2D_double
####-##-UNIVERSAL--TIME-####  Item [0]: Histos/Gauss_Prof_NA1D_long
####-##-UNIVERSAL--TIME-####  Item [0]: Histos/Gauss_Prof_NA1D_double
####-##-UNIVERSAL--TIME-####  Item [0]: Histos/Gauss_Prof_ATO3D_uint
####-##-UNIVERSAL--TIME-####  Item [0]: Histos/Gauss_Prof_ATO3D_int
####-##-UNIVERSAL--TIME-####  Item [0]: Histos/Gauss_Prof_ATO3D_double
####-##-UNIVERSAL--TIME-####  Item [0]: Histos/Gauss_Prof_ATO2D_uint
####-##-UNIVERSAL--TIME-####  Item [0]: Histos/Gauss_Prof_ATO2D_int
####-##-UNIVERSAL--TIME-####  Item [0]: Histos/Gauss_Prof_ATO2D_double
####-##-UNIVERSAL--TIME-####  Item [0]: Histos/Gauss_Prof_ATO1D_uint
####-##-UNIVERSAL--TIME-####  Item [0]: Histos/Gauss_Prof_ATO1D_int
####-##-UNIVERSAL--TIME-####  Item [0]: Histos/Gauss_Prof_ATO1D_double
####-##-UNIVERSAL--TIME-####  Item [0]: Histos/Gauss_NA3D_ulong
####-##-UNIVERSAL--TIME-####  Item [0]: Histos/Gauss_NA3D_uint
####-##-UNIVERSAL--TIME-####  Item [0]: Histos/Gauss_NA3D_long
####-##-UNIVERSAL--TIME-####  Item [0]: Histos/Gauss_NA3D_int
####-##-UNIVERSAL--TIME-####  Item [0]: Histos/Gauss_NA3D_float
####-##-UNIVERSAL--TIME-####  Item [0]: Histos/Gauss_NA3D_double
####-##-UNIVERSAL--TIME-####  Item [0]: Histos/Gauss_NA2D_ulong
####-##-UNIVERSAL--TIME-####  Item [0]: Histos/Gauss_NA2D_uint
####-##-UNIVERSAL--TIME-####  Item [0]: Histos/Gauss_NA2D_long
####-##-UNIVERSAL--TIME-####  Item [0]: Histos/Gauss_NA2D_int
####-##-UNIVERSAL--TIME-####  Item [0]: Histos/Gauss_NA2D_float
####-##-UNIVERSAL--TIME-####  Item [0]: Histos/Gauss_NA2D_double
####-##-UNIVERSAL--TIME-####  Item [0]: Histos/Gauss_NA1D_ulong
####-##-UNIVERSAL--TIME-####  Item [0]: Histos/Gauss_NA1D_uint
####-##-UNIVERSAL--TIME-####  Item [0]: Histos/Gauss_NA1D_long
####-##-UNIVERSAL--TIME-####  Item [0]: Histos/Gauss_NA1D_int
####-##-UNIVERSAL--TIME-####  Item [0]: Histos/Gauss_NA1D_float
####-##-UNIVERSAL--TIME-####  Item [0]: Histos/Gauss_NA1D_double
####-##-UNIVERSAL--TIME-####  Item [0]: Histos/Gauss_Buf3D_double
####-##-UNIVERSAL--TIME-####  Item [0]: Histos/Gauss_Buf2D_double
####-##-UNIVERSAL--TIME-####  Item [0]: Histos/Gauss_Buf1D_double
####-##-UNIVERSAL--TIME-####  Item [0]: Histos/Gauss_ATO3D_ushort
####-##-UNIVERSAL--TIME-####  Item [0]: Histos/Gauss_ATO3D_ulong
####-##-UNIVERSAL--TIME-####  Item [0]: Histos/Gauss_ATO3D_uint
####-##-UNIVERSAL--TIME-####  Item [0]: Histos/Gauss_ATO3D_uchar
####-##-UNIVERSAL--TIME-####  Item [0]: Histos/Gauss_ATO3D_short
####-##-UNIVERSAL--TIME-####  Item [0]: Histos/Gauss_ATO3D_long
####-##-UNIVERSAL--TIME-####  Item [0]: Histos/Gauss_ATO3D_int
####-##-UNIVERSAL--TIME-####  Item [0]: Histos/Gauss_ATO3D_float
####-##-UNIVERSAL--TIME-####  Item [0]: Histos/Gauss_ATO3D_double
####-##-UNIVERSAL--TIME-####  Item [0]: Histos/Gauss_ATO3D_char
####-##-UNIVERSAL--TIME-####  Item [0]: Histos/Gauss_ATO2D_ushort
####-##-UNIVERSAL--TIME-####  Item [0]: Histos/Gauss_ATO2D_ulong
####-##-UNIVERSAL--TIME-####  Item [0]: Histos/Gauss_ATO2D_uint
####-##-UNIVERSAL--TIME-####  Item [0]: Histos/Gauss_ATO2D_uchar
####-##-UNIVERSAL--TIME-####  Item [0]: Histos/Gauss_ATO2D_short
####-##-UNIVERSAL--TIME-####  Item [0]: Histos/Gauss_ATO2D_long
####-##-UNIVERSAL--TIME-####  Item [0]: Histos/Gauss_ATO2D_int
####-##-UNIVERSAL--TIME-####  Item [0]: Histos/Gauss_ATO2D_float
####-##-UNIVERSAL--TIME-####  Item [0]: Histos/Gauss_ATO2D_double
####-##-UNIVERSAL--TIME-####  Item [0]: Histos/Gauss_ATO2D_char
####-##-UNIVERSAL--TIME-####  Item [0]: Histos/Gauss_ATO1D_ushort
####-##-UNIVERSAL--TIME-####  Item [0]: Histos/Gauss_ATO1D_ulong
####-##-UNIVERSAL--TIME-####  Item [0]: Histos/Gauss_ATO1D_uint
####-##-UNIVERSAL--TIME-####  Item [0]: Histos/Gauss_ATO1D_uchar
####-##-UNIVERSAL--TIME-####  Item [0]: Histos/Gauss_ATO1D_short
####-##-UNIVERSAL--TIME-####  Item [0]: Histos/Gauss_ATO1D_long
####-##-UNIVERSAL--TIME-####  Item [0]: Histos/Gauss_ATO1D_int
####-##-UNIVERSAL--TIME-####  Item [0]: Histos/Gauss_ATO1D_float
####-##-UNIVERSAL--TIME-####  Item [0]: Histos/Gauss_ATO1D_double
####-##-UNIVERSAL--TIME-####  Item [0]: Histos/Gauss_ATO1D_char
####-##-UNIVERSAL--TIME-####  INFO:   Loading library: libDataflowDict
####-##-UNIVERSAL--TIME-####  INFO:   Import Online namespace from ROOT
####-##-UNIVERSAL--TIME-####  INFO:   +++ Starting dataflow process
####-##-UNIVERSAL--TIME-####  INFO:   +++ Setting up output logger component
####-##-UNIVERSAL--TIME-####  Delay                INFO      +++ Timeout expired: Invoke auto transition to PAUSED.
####-##-UNIVERSAL--TIME-####  Delay                INFO      +++ Got incident DAQ_RUNNING: trigger auto transition to PAUSED after n seconds
####-##-UNIVERSAL--TIME-####  +++ Task: localhost_GauchoHistoProcess type: Histos match: Histos/(.*) format: binary
####-##-## TIME-### ##ID##_GauchoExtractionProcess_0    [INFO] execute bash command: genPython -c import os,sys; import GaudiOnlineTests.DF as module; module.GauchoExtractionProcess(task=os.getenv("ITEM_TASK",""),type=os.getenv("ITEM_TYPE",""),match=os.getenv("ITEM_MATCH",""),pause=int(os.getenv("EXTRACTOR_PAUSE",5)),format=os.getenv("ITEM_FORMAT",""),output=os.getenv("ITEM_OUTPUT",""))
####-##-## TIME-### ##ID##_GauchoExtractionProcess_0    [INFO] +++ UTGID:          ##ID##_GauchoExtractionProcess_0
####-##-## TIME-### ##ID##_GauchoExtractionProcess_0    [INFO] +++ TASK_TYPE:      GauchoExtractionProcess
####-##-## TIME-### ##ID##_GauchoExtractionProcess_0    [INFO] +++ OPTIONS:        GaudiOnlineTests.DF
####-##-## TIME-### ##ID##_GauchoExtractionProcess_0    [INFO] +++ DIM_DNS    port:####
####-##-## TIME-### ##ID##_GauchoExtractionProcess_0    [INFO] +++ DIM_DNS    node:localhost
####-##-## TIME-### #####-#TIME# [INFO]                   ITEM_TYPE=Histos
####-##-## TIME-### #####-#TIME# [INFO]                   ITEM_TASK=localhost_GauchoHistoProcess
####-##-## TIME-### #####-#TIME# [INFO]                   ITEM_OUTPUT=../gaucho/add_histograms_serialize_all.data
####-##-## TIME-### #####-#TIME# [INFO]                   ITEM_MATCH=Histos/(.*)
####-##-## TIME-### #####-#TIME# [INFO]                   ITEM_FORMAT=binary
####-##-## TIME-### #####-#TIME# [INFO]                   EXTRACTOR_PAUSE=30
