####-##-UNIVERSAL--TIME-####  taskGauchoExtract    INFO      (pause) +++ Start thread: libGauchoBase.so taskGauchoExtract -dns=localhost -task=##ID##_localhost_GauchoHistoProcess -verbose -histos -one -output=../gaucho/add_histograms_serialize_other.data -binary -match=Histos/Gauss_(W|Buf).D_(.*)
####-##-UNIVERSAL--TIME-####  taskGauchoExtract    INFO      (finalize) +++ Stop  thread: libGauchoBase.so taskGauchoExtract -dns=localhost -task=##ID##_localhost_GauchoHistoProcess -verbose -histos -one -output=../gaucho/add_histograms_serialize_other.data -binary -match=Histos/Gauss_(W|Buf).D_(.*)
####-##-UNIVERSAL--TIME-####  taskGauchoExtract    DEBUG     Successfully set properties to component.
####-##-UNIVERSAL--TIME-####  taskGauchoExtract    DEBUG     Got incident: Delay ot type:DAQ_PAUSE
####-##-UNIVERSAL--TIME-####  extract_gaucho_info: taskGauchoExtract.exe -dns=localhost -task=##ID##_localhost_GauchoHistoProcess -verbose -histos -one -output=../gaucho/add_histograms_serialize_other.data -binary -match=Histos/Gauss_(W|Buf).D_(.*) > taskGauchoExtract.log
####-##-UNIVERSAL--TIME-####  Trying to retrieve the data. Output file: ../gaucho/add_histograms_serialize_other.data
####-##-UNIVERSAL--TIME-####  Retrieved 1 Item(s). [43560 bytes]
####-##-UNIVERSAL--TIME-####  Retrieved 1 Item(s). [43560 bytes]
####-##-UNIVERSAL--TIME-####  Retrieved 1 Item(s). [28008 bytes]
####-##-UNIVERSAL--TIME-####  Retrieved 1 Item(s). [28000 bytes]
####-##-UNIVERSAL--TIME-####  Retrieved 1 Item(s). [1904 bytes]
####-##-UNIVERSAL--TIME-####  Retrieved 1 Item(s). [1904 bytes]
####-##-UNIVERSAL--TIME-####  Open output file: ../gaucho/add_histograms_serialize_other.data.5
####-##-UNIVERSAL--TIME-####  Open output file: ../gaucho/add_histograms_serialize_other.data.4
####-##-UNIVERSAL--TIME-####  Open output file: ../gaucho/add_histograms_serialize_other.data.3
####-##-UNIVERSAL--TIME-####  Open output file: ../gaucho/add_histograms_serialize_other.data.2
####-##-UNIVERSAL--TIME-####  Open output file: ../gaucho/add_histograms_serialize_other.data.1
####-##-UNIVERSAL--TIME-####  Open output file: ../gaucho/add_histograms_serialize_other.data.0
####-##-UNIVERSAL--TIME-####  Number of matching Items Histos/Gauss_(W|Buf).D_(.*) of type Histos for Task ##ID##_localhost_GauchoHistoProcess: 6
####-##-UNIVERSAL--TIME-####  Item [0]: Histos/Gauss_W3D_double
####-##-UNIVERSAL--TIME-####  Item [0]: Histos/Gauss_W2D_double
####-##-UNIVERSAL--TIME-####  Item [0]: Histos/Gauss_W1D_double
####-##-UNIVERSAL--TIME-####  Item [0]: Histos/Gauss_Buf3D_double
####-##-UNIVERSAL--TIME-####  Item [0]: Histos/Gauss_Buf2D_double
####-##-UNIVERSAL--TIME-####  Item [0]: Histos/Gauss_Buf1D_double
####-##-UNIVERSAL--TIME-####  INFO:   Loading library: libDataflowDict
####-##-UNIVERSAL--TIME-####  INFO:   Import Online namespace from ROOT
####-##-UNIVERSAL--TIME-####  INFO:   +++ Starting dataflow process
####-##-UNIVERSAL--TIME-####  INFO:   +++ Setting up output logger component
####-##-UNIVERSAL--TIME-####  Delay                INFO      +++ Timeout expired: Invoke auto transition to PAUSED.
####-##-UNIVERSAL--TIME-####  Delay                INFO      +++ Got incident DAQ_RUNNING: trigger auto transition to PAUSED after n seconds
####-##-UNIVERSAL--TIME-####  +++ Task: localhost_GauchoHistoProcess type: Histos match: Histos/Gauss_(W|Buf).D_(.*) format: binary
####-##-## TIME-### ##ID##_GauchoExtractionProcess_0    [INFO] execute bash command: genPython -c import os,sys; import GaudiOnlineTests.DF as module; module.GauchoExtractionProcess(task=os.getenv("ITEM_TASK",""),type=os.getenv("ITEM_TYPE",""),match=os.getenv("ITEM_MATCH",""),pause=int(os.getenv("EXTRACTOR_PAUSE",5)),format=os.getenv("ITEM_FORMAT",""),output=os.getenv("ITEM_OUTPUT",""))
####-##-## TIME-### ##ID##_GauchoExtractionProcess_0    [INFO] +++ UTGID:          ##ID##_GauchoExtractionProcess_0
####-##-## TIME-### ##ID##_GauchoExtractionProcess_0    [INFO] +++ TASK_TYPE:      GauchoExtractionProcess
####-##-## TIME-### ##ID##_GauchoExtractionProcess_0    [INFO] +++ OPTIONS:        GaudiOnlineTests.DF
####-##-## TIME-### ##ID##_GauchoExtractionProcess_0    [INFO] +++ DIM_DNS    port:####
####-##-## TIME-### ##ID##_GauchoExtractionProcess_0    [INFO] +++ DIM_DNS    node:localhost
####-##-## TIME-### #####-#TIME# [INFO]                   ITEM_TYPE=Histos
####-##-## TIME-### #####-#TIME# [INFO]                   ITEM_TASK=localhost_GauchoHistoProcess
####-##-## TIME-### #####-#TIME# [INFO]                   ITEM_OUTPUT=../gaucho/add_histograms_serialize_other.data
####-##-## TIME-### #####-#TIME# [INFO]                   ITEM_MATCH=Histos/Gauss_(W|Buf).D_(.*)
####-##-## TIME-### #####-#TIME# [INFO]                   ITEM_FORMAT=binary
####-##-## TIME-### #####-#TIME# [INFO]                   EXTRACTOR_PAUSE=30
