####-##-## TIME-### taskCounters         INFO      (pause) +++ Start thread: libGauchoBase.so taskCounters -dns=localhost -task=##ID##_localhost_GauchoCounterProcess -match=Counters/Average_(.*)
####-##-## TIME-### taskCounters         INFO      (finalize) +++ Stop  thread: libGauchoBase.so taskCounters -dns=localhost -task=##ID##_localhost_GauchoCounterProcess -match=Counters/Average_(.*)
####-##-## TIME-### taskCounters         DEBUG     Successfully set properties to component.
####-##-## TIME-### taskCounters         DEBUG     Got incident: Delay ot type:DAQ_PAUSE
####-##-## TIME-### extract_gaucho_info: taskCounters.exe -dns=localhost -task=##ID##_localhost_GauchoCounterProcess -match=Counters/Average_(.*) > taskCounters.log
####-##-## TIME-### INFO:   Loading library: libDataflowDict
####-##-## TIME-### INFO:   Import Online namespace from ROOT
####-##-## TIME-### INFO:   +++ Starting dataflow process
####-##-## TIME-### INFO:   +++ Setting up output logger component
####-##-## TIME-### Delay                INFO      +++ Timeout expired: Invoke auto transition to PAUSED.
####-##-## TIME-### Delay                INFO      +++ Got incident DAQ_RUNNING: trigger auto transition to PAUSED after n seconds
####-##-## TIME-### Counters/Average_ushort_non_atomic              feed0073 @ 0x######## data (Gaudi Averaging Counter) Entries: 40000 Sum: 14464.000 Mean: 0.362
####-##-## TIME-### Counters/Average_ushort_atomic                  feed0073 @ 0x######## data (Gaudi Averaging Counter) Entries: 40000 Sum: 14464.000 Mean: 0.362
####-##-## TIME-### Counters/Average_ulong_non_atomic               feed0031 @ 0x######## data (Gaudi Averaging Counter) Entries: 40000 Sum: 200000.000 Mean: 5.000
####-##-## TIME-### Counters/Average_ulong_atomic                   feed0031 @ 0x######## data (Gaudi Averaging Counter) Entries: 40000 Sum: 200000.000 Mean: 5.000
####-##-## TIME-### Counters/Average_uint_non_atomic                feed0075 @ 0x######## data (Gaudi Averaging Counter) Entries: 40000 Sum: 120000.000 Mean: 3.000
####-##-## TIME-### Counters/Average_uint_atomic                    feed0075 @ 0x######## data (Gaudi Averaging Counter) Entries: 40000 Sum: 120000.000 Mean: 3.000
####-##-## TIME-### Counters/Average_uchar_non_atomic               feed0071 @ 0x######## data (Gaudi Averaging Counter) Entries: 40000 Sum: 64.000 Mean: 0.002
####-##-## TIME-### Counters/Average_uchar_atomic                   feed0071 @ 0x######## data (Gaudi Averaging Counter) Entries: 40000 Sum: 64.000 Mean: 0.002
####-##-## TIME-### Counters/Average_short_non_atomic               feed0072 @ 0x######## data (Gaudi Averaging Counter) Entries: 40000 Sum: 14464.000 Mean: 0.362
####-##-## TIME-### Counters/Average_short_atomic                   feed0072 @ 0x######## data (Gaudi Averaging Counter) Entries: 40000 Sum: 14464.000 Mean: 0.362
####-##-## TIME-### Counters/Average_long_non_atomic                feed001e @ 0x######## data (Gaudi Averaging Counter) Entries: 40000 Sum: 200000.000 Mean: 5.000
####-##-## TIME-### Counters/Average_long_atomic                    feed001e @ 0x######## data (Gaudi Averaging Counter) Entries: 40000 Sum: 200000.000 Mean: 5.000
####-##-## TIME-### Counters/Average_int_non_atomic                 feed0074 @ 0x######## data (Gaudi Averaging Counter) Entries: 40000 Sum: 120000.000 Mean: 3.000
####-##-## TIME-### Counters/Average_int_atomic                     feed0074 @ 0x######## data (Gaudi Averaging Counter) Entries: 40000 Sum: 120000.000 Mean: 3.000
####-##-## TIME-### Counters/Average_float_non_atomic               feed0032 @ 0x######## data (Gaudi Averaging Counter) Entries: 40000 Sum: 400000.000 Mean: 10.000
####-##-## TIME-### Counters/Average_float_atomic                   feed0032 @ 0x######## data (Gaudi Averaging Counter) Entries: 40000 Sum: 400000.000 Mean: 10.000
####-##-## TIME-### Counters/Average_double_non_atomic              feed001f @ 0x######## data (Gaudi Averaging Counter) Entries: 40000 Sum: 800000.000 Mean: 20.000
####-##-## TIME-### Counters/Average_double_atomic                  feed001f @ 0x######## data (Gaudi Averaging Counter) Entries: 40000 Sum: 800000.000 Mean: 20.000
####-##-## TIME-### Counters/Average_char_non_atomic                feed0070 @ 0x######## data (Gaudi Averaging Counter) Entries: 40000 Sum: 64.000 Mean: 0.002
####-##-## TIME-### Counters/Average_char_atomic                    feed0070 @ 0x######## data (Gaudi Averaging Counter) Entries: 40000 Sum: 64.000 Mean: 0.002
####-##-## TIME-### ##ID##_ExtractCounters_0    [INFO] +++ UTGID:          ##ID##_ExtractCounters_0
####-##-## TIME-### ##ID##_ExtractCounters_0    [INFO] +++ TASK_TYPE:      ExtractCounters
####-##-## TIME-### ##ID##_ExtractCounters_0    [INFO] +++ OPTIONS:        GaudiOnlineTests.DF
####-##-## TIME-### ##ID##_ExtractCounters_0    [INFO] +++ DIM_DNS    port:####
####-##-## TIME-### ##ID##_ExtractCounters_0    [INFO] +++ DIM_DNS    node:localhost
####-##-## TIME-### ####-##-## TIME-###  Retrieved 20 Counters  from ##ID##_localhost_GauchoCounterProcess
####-##-## TIME-### #####-#TIME# [INFO]                   EXTRACTOR_PAUSE=30
####-##-## TIME-### #####-#TIME# [INFO]                   COUNTER_PRODUCER=localhost_GauchoCounterProcess
####-##-## TIME-### #####-#TIME# [INFO]                   COUNTER_MATCH=Counters/Average_(.*)
